<?xml version="1.0" encoding="UTF-8" standalone="no"?>
<svg
   xmlns:dc="http://purl.org/dc/elements/1.1/"
   xmlns:cc="http://creativecommons.org/ns#"
   xmlns:rdf="http://www.w3.org/1999/02/22-rdf-syntax-ns#"
   xmlns:svg="http://www.w3.org/2000/svg"
   xmlns="http://www.w3.org/2000/svg"
   viewBox="0 0 3029.4736 2156.4854"
   height="2156.4854"
   width="3029.4736"
   id="svg77"
   version="1.1">
  <metadata
     id="metadata83">
    <rdf:RDF>
      <cc:Work
         rdf:about="">
        <dc:format>image/svg+xml</dc:format>
        <dc:type
           rdf:resource="http://purl.org/dc/dcmitype/StillImage" />
        <dc:title></dc:title>
      </cc:Work>
    </rdf:RDF>
  </metadata>
  <defs
     id="defs81" />
  <path
     id="path149"
     d="m 1827.2674,2154.3995 -2.9132,-2.5106 0.2548,-12.8317 c 0.7639,-38.4654 5.894,-63.0991 18.7584,-90.0745 13.2491,-27.7822 26.7782,-47.1488 56.2053,-80.4568 l 10.3363,-11.6996 -3.2774,-0.4994 c -11.7673,-1.7929 -39.4691,-3.09 -64.5274,-3.0213 -16.2935,0.045 -29.25,-0.3107 -29.25,-0.8022 0,-0.9294 -6.2896,-0.5995 -35,1.8363 -22.2903,1.891 -26.5493,2.4792 -54.8616,7.5758 -20.5763,3.7041 -23.452,4.4502 -24.1205,6.2577 -0.4175,1.1287 -1.5676,4.6462 -2.5558,7.8166 -2.4335,7.8072 -8.3881,16.628 -16.9755,25.1463 -3.9307,3.8991 -7.4372,7.8849 -7.7922,8.8574 -1.0451,2.8626 -27.0413,19.3583 -42.1944,26.7741 -32.0406,15.6803 -64.1287,26.2652 -83.8026,27.6438 -8.4068,0.5891 -8.8691,0.7453 -10.2801,3.4739 -2.3762,4.5951 -11.8018,13.2334 -18.1056,16.5933 -13.2809,7.0786 -32.8038,9.6377 -55.8117,7.3157 -6.6,-0.6661 -30.45,-4.3138 -53,-8.1059 -22.8341,-3.84 -51.8552,-8.0249 -65.5,-9.4454 -13.475,-1.4028 -29.8143,-3.262 -36.3095,-4.1316 -11.5987,-1.5529 -11.8973,-1.5433 -16.7297,0.5355 -3.5032,1.507 -8.8445,2.4372 -18.5454,3.2296 -17.7894,1.4532 -33.4362,0.4218 -109.4154,-7.212 -57.8133,-5.8087 -77.0614,-8.4065 -114.5,-15.4537 -9.9,-1.8635 -29.925,-5.461 -44.5,-7.9944 -76.31166,-13.2645 -92.12348,-18.6263 -139.00001,-47.135 -11.275,-6.8571 -29.725,-18 -41,-24.762 -11.275,-6.762 -28.6,-17.2515 -38.5,-23.3101 -9.9,-6.0586 -27.9,-16.5449 -40,-23.3031 -26.68707,-14.9053 -37.98106,-21.8758 -53.30108,-32.8968 -6.43441,-4.6288 -19.34892,-13.8093 -28.69892,-20.4012 -35.50862,-25.0338 -46.97359,-35.5435 -69.47096,-63.6828 -25.59286,-32.011 -39.78691,-44.0762 -70.42488,-59.8622 -14.92658,-7.6908 -33.04316,-15.2794 -48.51047,-20.32 -14.15269,-4.6121 -20.50032,-7.5233 -25.30677,-11.6062 -2.17962,-1.8516 -6.18607,-3.5335 -11.8928,-4.9927 -10.89607,-2.7861 -14.44108,-4.2806 -19.28162,-8.1285 -2.13813,-1.6997 -4.83813,-3.0999 -6,-3.1115 -3.44713,-0.034 -15.6237,-4.6869 -20.9783,-8.0155 -3.51351,-2.1841 -5.68833,-2.9156 -7.39488,-2.4873 -2.76858,0.6948 -27.7779,-2.7608 -36.73932,-5.0764 -10.53576,-2.7224 -19.63908,-3.4967 -34,-2.8916 -27.44045,1.156 -38.24662,2.6011 -67.69578,9.0531 -10.17727,2.2298 -18.35179,3.4388 -23.25,3.4388 -6.52411,0 -7.55555,0.2386 -7.56399,1.75 -0.0147,2.6428 -4.31996,11.3237 -7.46085,15.0438 -5.49772,6.5117 -14.48551,8.926 -21.8115,5.8591 -2.92702,-1.2254 -9.16368,-7.1924 -11.34154,-10.8512 -0.7275,-1.2222 -2.40492,-1.3345 -9.87634,-0.661 -4.95,0.4461 -19.8,1.7519 -33,2.9016 -13.2,1.1498 -34.574995,3.3942 -47.499995,4.9877 -39.256922,4.8398 -68.216861,7.9693 -73.7500004,7.9697 -6.703006,4e-4 -9.51122502,-2.3893 -9.05696902,-7.7073 0.539492,-6.3159 2.52167802,-7.0153 27.81794842,-9.8153 12.368961,-1.3691 33.514021,-3.8227 46.989021,-5.4525 29.020315,-3.5099 49.040105,-5.5442 73.330205,-7.4516 9.80662,-0.77 18.03418,-1.6041 18.28348,-1.8534 0.2493,-0.2493 -0.44886,-3.7757 -1.55145,-7.8364 -2.86194,-10.5402 -4.46958,-20.6242 -8.43378,-52.9014 -4.08877,-33.2915 -5.63349,-48.7362 -5.49905,-54.9818 0.0533,-2.475 -0.63191,-14.4 -1.52263,-26.5 -2.8103,-38.1764 -3.67492,-61.5126 -4.27936,-115.5 -0.62214,-55.5694 0.002,-71.9588 3.76355,-98.8547 4.66567,-33.359 11.02856,-57.9063 21.36254,-82.4143 l 1.58925,-3.7691 -10.77138,0.6463 c -26.81781,1.609 -87.983845,-4.7236 -121.991731,-12.6301 -11.31822,-2.6314 -14.279644,-4.6836 -14.279644,-9.8957 0,-3.8168 1.652546,-6.1209 5.328205,-7.429 1.005513,-0.3579 6.630513,0.4506 12.5,1.7966 22.648797,5.1938 48.269595,8.8373 77.67179,11.0457 23.4915,1.7644 41.09646,1.8193 51.40654,0.1601 l 7.40655,-1.1919 4.37951,-10.4819 c 8.74475,-20.9298 13.07988,-27.0358 20.64004,-29.0716 9.80176,-2.6393 18.85834,3.9845 23.12046,16.91 l 1.75438,5.3203 4.14626,-0.6826 c 12.2663,-2.0197 41.08247,-12.2266 66.14626,-23.4295 18.18707,-8.1292 35.93076,-14.4222 46.66859,-16.5514 4.03227,-0.7996 16.89391,-1.7553 28.58141,-2.1239 l 21.25,-0.6701 v -14.2621 c 0,-24.2035 2.06885,-48.0174 10.59198,-121.9211 3.54279,-30.7193 13.70898,-103.87088 17.92772,-128.99998 7.94778,-47.3415 18.2559,-84.4729 33.09605,-119.2172 18.87326,-44.18659 62.00329,-116.85198 96.73677,-162.98186 30.25915,-40.18748 68.04215,-77.43067 97.26942,-95.87973 20.34261,-12.84081 46.17617,-24.20444 67.0608,-29.49861 20.16546,-5.11186 32.16657,-6.37078 60.31726,-6.32728 38.05905,0.0588 49.88965,1.49318 110.5,13.39735 22,4.3209 46.975,9.21171 55.5,10.86845 17.8984,3.47836 31.8661,7.6264 32.6617,9.69963 0.7912,2.06179 1.6162,1.92954 19.5965,-3.14144 19.01491,-5.36275 37.21151,-9.7975 77.74181,-18.94667 33.3768,-7.53436 57.6396,-14.31163 86,-24.02215 22.3497,-7.65248 28.848,-9.74606 110.5,-35.60039 33,-10.44914 67.65,-20.95918 77,-23.35566 30.767,-7.88582 50.4584,-9.28346 63,-4.47155 7.9729,3.05901 17.1656,12.12921 20.5002,20.22707 1.3023,3.1625 2.6414,5.75 2.9758,5.75 1.266,0 19.1799,-10.68041 36.024,-21.47782 25.2684,-16.19754 31.6132,-19.72507 81.6608,-45.4006 50.8858,-26.10557 62.5323,-31.7214 74.6713,-36.00596 26.6554,-9.40816 51.2069,-4.67876 67.0028,12.90684 2.9291,3.26101 6.9579,9.73731 10.2208,16.43013 6.0354,12.37954 23.5301,63.44809 25.4872,74.39936 1.1362,6.35818 1.4762,7.00187 3.9604,7.49871 1.4946,0.29892 4.0178,1.62621 5.6071,2.94953 3.672,3.0575 10.3787,5.21443 22.3896,7.20063 5.225,0.86405 11.75,1.99669 14.5,2.51698 21.8031,4.1251 73.0969,4.87054 75.4295,1.0962 0.7256,-1.17396 4.3196,-21.54316 9.107,-51.614 2.3308,-14.64042 3.5394,-19.22477 5.73,-21.73356 1.3528,-1.54931 1.3392,-2.61226 -0.1282,-10.00092 -4.9446,-24.89787 -4.1414,-53.55362 2.0516,-73.19078 4.9974,-15.84636 17.841,-37.89835 30.9659,-53.16745 l 5.2371,-6.0927 1.5353,-11.9073 c 0.8444,-6.54901 2.4518,-23.15729 3.5721,-36.90729 1.1203,-13.75 3.3703,-38.725 5,-55.5 1.6297,-16.775 3.654,-38.12813 4.4984,-47.451394 1.0264,-11.33305 2.0441,-17.72803 3.0705,-19.29464 2.1916,-3.34471 5.9868,-4.57589 9.264,-3.0052 4.4367,2.12645 5.1852,5.07675 4.1319,16.28486 -0.5152,5.4815 -2.7343,28.866374 -4.9313,51.966374 -2.1971,23.1 -4.6791,50.55 -5.5155,61 -1.3521,16.89139 -3.6089,39.61303 -4.9166,49.5 -0.2546,1.925 -1.5717,8.207 -2.9268,13.96001 -1.9277,8.18389 -3.0081,10.90391 -4.9648,12.5 -3.4804,2.83892 -4.0764,9.77908 -2.781,32.38655 2.8378,49.53005 22.4,108.44707 49.8753,150.21391 10.711,16.28249 18.5273,26.08492 30.0419,37.67573 21.7077,21.85137 49.8126,40.7478 89.6537,60.27884 24.931,12.22179 33.1597,15.62545 55.8357,23.09555 37.5342,12.3648 85.9466,22.09192 129.1643,25.95196 15.8542,1.41604 60.3653,1.40261 85.5,-0.0258 40.5831,-2.30633 74.4087,-8.85505 102,-19.74748 29.7883,-11.75971 58.4897,-29.56013 75.6454,-46.91469 7.1252,-7.20774 22.4439,-26.9856 32.1864,-41.55565 2.8249,-4.22459 5.6002,-7.96786 6.1673,-8.31838 0.5672,-0.35052 1.6495,-2.11705 2.4051,-3.92563 0.7557,-1.80857 2.5961,-4.42154 4.0899,-5.80661 2.6573,-2.464 2.6785,-2.57529 0.9832,-5.16267 -2.2771,-3.47523 -1.6007,-7.35597 3.1081,-17.83206 3.4495,-7.67436 24.7443,-48.65436 40.4142,-77.77358 3.6997,-6.875 14.9572,-28.475 25.0167,-48 22.49,-43.65168 43.8175,-82.27907 66.8083,-121 42.7228,-71.95359 59.2717,-102.59623 76.4183,-141.500004 22.9642,-52.10323 28.9716,-65.1571603 30.5081,-66.2934303 3.2469,-2.40117001 6.292,-2.56454001 9.0861,-0.48749 5.0869,3.78156 4.4345,6.54979 -8.3601,35.4739103 -6.4002,14.46885 -14.3941,32.60701 -17.7642,40.30701 -13.8376,31.616714 -35.3271,71.752414 -66.66,124.500004 -33.0273,55.60011 -48.1207,82.59284 -71.1809,127.29892 -8.2844,16.06059 -26.5718,50.96596 -40.6387,77.56748 -17.6619,33.39996 -25.291,48.75942 -24.6547,49.63653 0.5068,0.69857 2.1971,2.87615 3.7562,4.83907 1.5591,1.96291 4.0026,6.85147 5.43,10.86347 2.2159,6.2282 2.5971,8.97563 2.6076,18.79453 0.014,13.19816 -1.6325,20.59507 -6.9238,31.10232 -4.5543,9.04357 -21.9055,34.72176 -29.1781,43.18088 l -5.8317,6.78319 1.1927,10.71681 c 0.656,5.89424 1.7068,18.3668 2.3351,27.7168 0.6283,9.35 2.6807,34.775 4.561,56.5 1.8802,21.725 4.5628,54.35 5.9613,72.5 2.9037,37.68504 3.0793,39.25214 9.0215,80.50004 2.4166,16.775 5.31,38.557 6.4296,48.4045 1.1197,9.8475 2.2531,18.1217 2.5186,18.3872 0.2654,0.2655 6.6834,-3.5852 14.2621,-8.5571 7.5787,-4.972 26.1544,-16.6566 41.2794,-25.9658 15.125,-9.3093 38.75,-24.1363 52.5,-32.949 79.3027,-50.82683 114.7268,-70.30274 183.0456,-100.63706 42.6406,-18.93295 124.1191,-51.36847 131.6833,-52.4214 7.1131,-0.99014 11.4867,4.5203 8.3706,10.54628 -1.2884,2.49147 -3.281,3.68025 -11.3314,6.76028 -141.7151,54.21927 -198.3657,81.90057 -296.2681,144.7662 -14.575,9.359 -40.675,25.7623 -58,36.4518 -17.325,10.6896 -39.0686,24.4482 -48.3191,30.5748 l -16.8192,11.1393 0.5359,5.5 c 0.2947,3.025 0.794,11.35 1.1096,18.5 0.3156,7.15 1.3121,24.7 2.2145,39 2.2724,36.00948 2.2388,86.38468 -0.07,105.34678 -5.0818,41.7327 -13.8894,68.8201 -56.6267,174.1532 -16.2011,39.9302 -21.8418,52.5015 -30.5809,68.1542 -15.2193,27.2595 -57.9964,92.2137 -67.0503,101.8113 -13.0897,13.8758 -26.5224,19.9555 -59.8937,27.1079 -5.5,1.1788 -19.225,5.0456 -30.5,8.5929 -41.3498,13.0093 -64.1874,17.5698 -71.9281,14.3635 -2.7839,-1.1531 -3.4465,-0.9979 -7.8775,1.8455 -2.6609,1.7075 -6.2321,3.5905 -7.936,4.1845 -1.7039,0.594 -3.3424,1.7167 -3.641,2.4948 -0.2986,0.7782 -1.0072,10.0843 -1.5746,20.6802 -1.5814,29.5294 -2.038,33.4894 -4.1751,36.2063 -1.4452,1.8373 -2.4903,6.9896 -4.4082,21.7335 -3.2249,24.7914 -6.2363,45.3347 -8.0365,54.8254 -0.7825,4.125 -1.4227,7.8762 -1.4228,8.3361 -10e-5,0.4598 4.8373,-3.3904 10.7498,-8.5562 5.9125,-5.1657 17.725,-15.214 26.25,-22.3296 8.525,-7.1155 22.925,-19.4865 32,-27.4912 28.2498,-24.9177 61.4913,-52.09 121.0469,-98.9461 10.1274,-7.9679 26.0354,-20.6804 35.351,-28.25 18.128,-14.7302 20.696,-15.9368 25.5513,-12.0052 2.5543,2.0683 3.0326,7.1781 0.9517,10.1676 -1.6071,2.309 -16.3572,14.4343 -46.3165,38.0746 -69.9902,55.2281 -93.4909,74.4117 -125.5844,102.5151 -10.725,9.3915 -29.3924,25.3801 -41.483,35.5302 -12.0907,10.1501 -26.2657,22.7297 -31.5,27.9547 -11.092,11.0722 -13.6035,12.9845 -17.0648,12.9934 -1.8468,0 -5.1483,2.5109 -12,9.1089 -5.1987,5.0062 -16.4272,14.9969 -24.9522,22.2016 -30.2149,25.5352 -35.474,30.3269 -46.3108,42.1961 -6.026,6.6 -16.912,19.425 -24.1912,28.5 -18.0492,22.5019 -24.3107,29.3221 -45.0928,49.1157 -20.5777,19.5989 -29.2431,28.3781 -49.2786,49.926 -7.9054,8.502 -29.3328,30.3083 -47.6165,48.4583 -25.1025,24.919 -40.4034,41.2034 -62.4833,66.5 -40.5787,46.4902 -51.1,60.815 -64.6344,88 -12.7265,25.5622 -17.1236,45.1045 -18.9698,84.3089 -0.7682,16.3108 -1.4585,18.2098 -7.0094,19.2805 -2.3984,0.4625 -3.7367,0.035 -6,-1.9153 z m -331.2821,-79.1144 c 17.6485,-3.7407 28.6155,-14.2863 29.632,-28.493 0.578,-8.0778 -0.6414,-12.471 -5.6226,-20.2576 -3.425,-5.354 -3.966,-5.7586 -9.1405,-6.8353 -73.0078,-15.1911 -76.6102,-16.057 -118.5,-28.485 -32.8625,-9.7498 -54.0539,-16.364 -86.5,-26.9985 -19.359,-6.3451 -84.9307,-26.3971 -116.5,-35.6261 -5.5,-1.6078 -28.7918,-7.6381 -51.7595,-13.4007 -44.9247,-11.2714 -55.3203,-14.3102 -70.4755,-20.6014 -22.3338,-9.2712 -39.8382,-19.8138 -62.7801,-37.8114 -7.14171,-5.6025 -23.75331,-18.5934 -36.91481,-28.8686 -29.41815,-22.9669 -40.58383,-33.3532 -40.57574,-37.7435 0.008,-4.2153 3.24054,-7.4386 7.4604,-7.4386 2.79106,0 4.99605,1.4071 12.71104,8.1112 5.13381,4.4612 20.0375,16.4987 33.1193,26.75 13.0818,10.2513 27.93181,21.9241 33.00001,25.9394 28.2884,22.4119 55.9111,36.8982 87.1336,45.6959 6.7677,1.907 27.7796,7.2822 46.6931,11.945 18.9135,4.6628 41.1382,10.4685 49.3882,12.9017 42.7549,12.6098 89.7674,27.0446 121.5,37.3055 43.8094,14.166 100.5032,31.2705 120.5,36.3547 8.25,2.0976 30.3,6.9748 49,10.8382 75.1509,15.5262 102.0676,18.0296 119.5907,11.1226 14.5717,-5.7436 24.9031,-18.2781 26.842,-32.5658 1.8426,-13.5782 -3.3205,-24.6306 -18.9027,-40.4639 -5.7915,-5.8849 -13.0398,-12.3397 -16.1074,-14.3441 l -5.5773,-3.6443 -6.6885,4.485 c -6.9962,4.6916 -19.3398,9.1809 -32.1568,11.6955 -21.4151,4.2016 -73.7785,-1.9958 -116.3194,-13.7668 -6.9743,-1.9297 -23.7056,-6.421 -37.1806,-9.9806 -47.9343,-12.6623 -59.8215,-16.6003 -97,-32.1348 -32.9694,-13.7758 -75.344,-26.833 -107.9258,-33.2561 -20.8135,-4.1032 -30.51,-6.8236 -46.5742,-13.0667 -18.9283,-7.3561 -29.3651,-14.0025 -109.5,-69.7316 -19.6894,-13.6928 -33.7844,-24.189 -52.00001,-38.7228 -7.425,-5.9242 -18.7164,-14.7131 -25.09203,-19.5308 -12.84359,-9.7052 -15.05909,-12.7624 -12.74602,-17.5884 1.54067,-3.2145 5.41428,-4.9222 9.07899,-4.0024 2.6014,0.6529 19.99126,13.5825 41.16517,30.6068 22.5128,18.1008 35.4104,27.3007 108.8802,77.6645 35.924,24.6261 53.495,31.9993 94.9318,39.8356 18.1212,3.4269 63.319,16.4741 84.2819,24.3295 4.4,1.6488 17.675,7.0375 29.5,11.9749 24.8658,10.3824 41.178,15.8741 70.5,23.7349 11.55,3.0964 27.525,7.4172 35.5,9.6019 33.9301,9.2947 46.6623,12.1332 70,15.606 39.1354,5.8237 59.928,4.9736 77.7331,-3.1778 11.7824,-5.3941 18.9828,-14.3631 21.8396,-27.2039 5.1305,-23.0608 -7.3683,-56.7258 -27.7481,-74.7386 -7.4746,-6.6064 -20.1084,-14.8927 -28.3421,-18.5891 -11.9299,-5.3558 -85.6156,-29.662 -113.9825,-37.5986 -42.4667,-11.8816 -64.0726,-19.3326 -99,-34.1411 -36.7101,-15.5643 -52.1286,-24.8226 -89,-53.4413 -22.2064,-17.2361 -35.6337,-29.7481 -41.6501,-38.811 -5.4949,-8.2774 -36.7285,-38.3539 -59.8499,-57.6328 -26.7625,-22.3148 -43.6736,-38.0547 -64.4427,-59.9798 -58.4207,-61.6721 -79.49261,-82.805 -89.28231,-89.5405 -7.333,-5.0452 -17.91383,-9.3962 -34.775,-14.3 -8.88426,-2.5839 -20.44734,-6.7914 -26,-9.4607 -19.7386,-9.4889 -37.1942,-24.624 -43.74416,-37.9289 -3.02184,-6.1382 -3.25499,-7.3338 -3.24395,-16.6346 0.0108,-9.1163 0.29079,-10.6078 3.10118,-16.521 8.81696,-18.5513 25.47735,-32.4084 48.01795,-39.9386 5.02206,-1.6777 20.32206,-5.7381 34,-9.0231 44.32769,-10.6461 59.40069,-15.2214 76.20129,-23.1302 20.8689,-9.824 33.246,-20.056 56.1506,-46.4191 14.9296,-17.184 16.0171,-18.7064 16.0171,-22.4234 0,-4.8468 2.9498,-8.0546 7.4386,-8.0891 2.5899,-0.02 3.9085,-1.1034 8.5614,-7.0345 17.1314,-21.8377 26.9402,-41.7039 31.0989,-62.9862 1.9899,-10.1836 1.4722,-29.9384 -1.0341,-39.4558 -4.447,-16.8871 -15.5674,-33.6079 -26.6841,-40.1228 -8.724,-5.1126 -19.9535,-3.9979 -33.3807,3.3135 -3.575,1.9466 -19.775,11.9632 -36,22.259 -16.225,10.2958 -31.975,20.1126 -35,21.8152 -10.0154,5.637 -21.30361,9.4665 -38.00001,12.8914 -9.075,1.8616 -19.875,4.479 -24,5.8166 -4.125,1.3376 -10.425,3.1711 -14,4.0745 -18.35865,4.6391 -18.41572,4.6431 -78.5,5.4522 -62.83426,0.8462 -78.16447,1.7329 -130.5,7.5475 -70.62974,7.8473 -70.98992,7.9287 -168,37.9866 -25.575,7.9242 -53.025,15.9682 -61,17.8755 -36.49736,8.7287 -63.11194,13.6586 -83.79365,15.5213 -7.0295,0.6332 -12.11632,1.5935 -13.47251,2.5434 -2.86226,2.0048 -8.13837,1.9485 -9.84261,-0.105 -1.20291,-1.4494 -3.86145,-1.5723 -23.87245,-1.1038 -29.78015,0.6971 -36.17001,2.312 -72.01878,18.2003 -31.23573,13.8439 -58.28451,22.7173 -74.05703,24.2947 l -7.39818,0.7399 -3.62493,6 c -1.99371,3.3 -5.28365,9.825 -7.31098,14.5 -5.52076,12.7308 -10.67067,16.0291 -16.27581,10.424 -2.14346,-2.1435 -2.48882,-3.2261 -2.05673,-6.4476 0.70486,-5.2551 9.6469,-23.7135 15.37994,-31.7476 l 4.67223,-6.5476 -1.41425,-4.0797 c -1.89295,-5.4605 -4.27201,-5.7829 -6.75045,-0.9147 -4.93255,9.6886 -26.39606,63.0404 -29.52259,73.3841 -7.59359,25.1226 -12.94307,60.1782 -14.64235,95.9528 -0.99861,21.0238 0.083,105.2098 1.49647,116.4763 0.27601,2.2 0.96099,14.35 1.52219,27 0.56119,12.65 1.74756,30.65 2.63637,40 0.88881,9.35 1.56608,19.7 1.50505,23 -0.11084,5.9927 5.54883,55.5329 8.39694,73.5 3.50554,22.1144 10.85045,43.5 14.94015,43.5 2.45827,0 6.50396,-5.9429 6.50396,-9.554 0,-1.5171 -3.11785,-10.1911 -6.92856,-19.2757 -10.72753,-25.574 -15.55417,-42.3242 -16.76202,-58.1703 -0.46944,-6.1588 -0.27103,-7.3305 1.65109,-9.75 1.57988,-1.9887 3.08519,-2.75 5.43776,-2.75 5.16052,0 7.37751,3.2156 8.64902,12.5448 2.11296,15.503 6.56176,30.7442 13.99779,47.9552 2.61392,6.05 5.47315,12.7426 6.35385,14.8724 1.18684,2.8701 1.92476,3.6133 2.85117,2.8714 0.68744,-0.5505 4.3999,-1.314 8.2499,-1.6967 3.85,-0.3826 11.725,-1.7525 17.5,-3.0441 16.24464,-3.6331 30.67977,-6.3413 40,-7.5044 14.6086,-1.823 42.56318,-2.7836 55.28476,-1.8996 13.41488,0.9321 16.97953,1.5179 20.71524,3.4042 1.375,0.6943 4.8625,1.5823 7.75,1.9734 5.04275,0.683 5.2499,0.6186 5.24743,-1.6328 -0.001,-1.2891 -1.64014,-5.0438 -3.64162,-8.3438 -12.7091,-20.9546 -19.14264,-52.6664 -21.43577,-105.66 -2.17807,-50.3347 2.97989,-112.8512 15.08531,-182.84 4.29625,-24.8393 4.82556,-26 11.85633,-26 3.38925,0 7.14211,3.8856 7.13253,7.3849 -0.003,1.1633 -1.99666,14.0401 -4.42994,28.6151 -8.67558,51.9654 -13.17876,94.5195 -14.18021,134 -1.45988,57.5532 5.0009,107.9135 16.87029,131.5 6.21207,12.3444 17.81126,26.9312 23.93236,30.0966 3.82768,1.9793 3.89668,1.8912 2.22631,-2.8431 -5.16137,-14.6289 -6.28999,-44.6896 -2.48745,-66.2535 1.7529,-9.9406 9.13764,-41.823 13.14372,-56.7459 2.01133,-7.4923 8.6663,-10.1094 13.47616,-5.2996 1.35,1.35 2.45311,3.4875 2.45135,4.75 -0.002,1.2625 -2.48523,12.3856 -5.51883,24.7179 -6.67085,27.1187 -9.20019,40.7573 -10.07874,54.3463 -1.15459,17.8587 2.28261,38.242 8.52583,50.5599 3.43591,6.7791 6.55737,9.884 11.73013,11.6677 l 3.84481,1.3258 0.66323,-10.161 c 0.77567,-11.8838 3.2436,-21.6606 9.49523,-37.6161 8.96228,-22.8735 21.66336,-44.3617 42.97384,-72.7048 12.48502,-16.6052 17.13297,-21.3402 20.94795,-21.3402 3.05735,0 7.41975,4.1275 7.41975,7.0203 0,3.0556 -0.7336,4.1873 -14.70926,22.691 -6.97418,9.2338 -15.76402,21.5137 -19.53297,27.2887 -9.4924,14.5448 -20.53189,37.0346 -25.77049,52.5 -4.07586,12.0328 -4.4066,13.7812 -4.44538,23.5 -0.0664,16.6405 2.16207,18.9327 26.18254,26.9317 26.86735,8.947 56.03286,22.7089 75.27501,35.5189 18.3536,12.2185 29.21751,23.0826 54.04872,54.0494 18.064,22.5275 29.1712,32.6047 58.95183,53.4853 5.775,4.0491 17.475,12.4163 26,18.5938 19.29659,13.9828 32.61906,22.2612 64.85576,40.3003 13.94566,7.8038 35.32066,20.3969 47.5,27.9847 12.17933,7.5879 29.79424,18.3022 39.14424,23.8096 9.35,5.5075 24.63003,14.6589 33.95562,20.3365 9.3256,5.6776 21.49596,12.4646 27.04525,15.0822 19.11812,9.018 43.64837,15.8654 79.99913,22.3311 7.7,1.3696 27.95001,5.0181 45.00001,8.1077 56.5247,10.2429 70.7347,12.4128 101.5,15.4994 16.775,1.683 41.039,4.1631 53.92,5.5114 12.881,1.3482 23.5652,2.3061 23.7426,2.1287 0.1775,-0.1775 -5.1865,-1.3304 -11.92,-2.5621 -15.2039,-2.7812 -52.1696,-10.6255 -81.2426,-17.2402 -61.1056,-13.9027 -98.345,-24.8812 -120.00001,-35.3768 -26.5423,-12.8644 -119.39334,-74.8182 -123.42707,-82.3553 -2.59252,-4.8442 0.83449,-11.1363 6.06539,-11.1363 3.99154,0 4.67848,0.4147 22.20235,13.4041 8.33763,6.1802 20.10933,14.6393 26.15933,18.7979 12.31249,8.4634 59.9183,38.6572 68.6589,43.5467 22.59261,12.6383 67.96551,25.5971 158.34111,45.2232 67.3834,14.6332 132.4529,25.177 191.5,31.0304 11.825,1.1723 34.775,4.3805 51,7.1295 16.225,2.749 33.55,5.6814 38.5,6.5164 26.1713,4.4151 47.601,5.4614 59.6311,2.9115 z M 176.98149,1501.6294 c -1.2374,-1.1528 -2.65762,-3.1687 -3.15605,-4.4796 -2.04565,-5.3805 -3.22096,-34.511 -2.63964,-65.4244 0.74487,-39.6101 3.37227,-64.8297 10.8289,-103.9431 2.53293,-13.2863 3.5776,-16.8859 5.44165,-18.75 3.80578,-3.8057 9.49169,-2.9599 11.94093,1.7764 1.32799,2.5681 1.23076,4.0695 -1.01203,15.6288 -3.56426,18.3703 -6.27014,35.6307 -8.61102,54.9284 -2.66623,21.9799 -3.77906,80.5133 -1.88901,99.3595 0.68949,6.875 1.26541,14.0319 1.27983,15.9043 0.0486,6.3117 -7.46554,9.3952 -12.18356,4.9997 z m 124.64708,-42.9758 -3.07178,-3.0717 0.5991,-19.6783 c 1.29366,-42.4918 8.55573,-83.7754 21.67284,-123.2062 9.26117,-27.8396 29.67313,-73.6536 34.9253,-78.3887 4.72675,-4.2614 12.10016,-0.9852 12.10016,5.3764 0,1.5059 -3.20254,9.4435 -7.11675,17.6392 -15.23188,31.8926 -26.54189,62.1185 -33.26536,88.9011 -7.62671,30.3807 -12.58234,67.9268 -12.7801,96.828 -0.0908,13.2773 -0.2193,14.1444 -2.42141,16.3465 -3.22538,3.2254 -6.93012,2.9656 -10.642,-0.7463 z m 1258.75073,587.1463 c 27.4224,-6.6994 64.2901,-22.5409 86.7044,-37.2555 7.2106,-4.7336 12.3222,-9.1971 19.7435,-17.2402 10.8799,-11.7913 15.0565,-18.8306 15.807,-26.6409 l 0.472,-4.9123 -13.0309,-12.7628 c -18.5004,-18.1198 -26.563,-30.7623 -34.9243,-54.7628 -10.6893,-30.683 -19.9872,-50.0208 -31.2208,-64.9336 -4.1401,-5.4961 -18.0434,-20.8094 -30.8962,-34.0296 -41.1492,-42.3257 -42.2327,-43.3174 -60.334,-55.2241 -23.2109,-15.2677 -20.33,-14.3763 -27.934,-8.6436 -7.7496,5.8425 -17.969,10.6675 -27.4118,12.9424 -3.85,0.9275 -7.675,1.8967 -8.5,2.1538 -0.825,0.2572 1.2,1.3551 4.5,2.4398 41.8436,13.7547 84.8262,28.7952 92.0861,32.2229 17.4286,8.2287 35.4097,22.6668 44.9238,36.072 13.5442,19.0837 21.6501,45.4158 20.0091,65 -0.6281,7.4966 -4.4821,21.5456 -6.6156,24.1164 -0.665,0.8013 0.9473,2.5547 5.3213,5.7871 9.3059,6.8773 25.2438,23.0941 30.7545,31.2928 6.7715,10.0746 9.2129,16.9759 9.7953,27.6892 0.7772,14.2953 -2.4408,24.8025 -11.0605,36.1145 -8.0602,10.5778 -20.4144,18.4403 -34.714,22.0928 -5.408,1.3814 -9.776,1.5657 -26,1.0975 -10.725,-0.3096 -23.9523,-1.2768 -29.394,-2.1493 -5.4416,-0.8725 -10.0342,-1.4461 -10.2057,-1.2747 -0.1714,0.1715 0.4001,2.3192 1.27,4.7727 0.87,2.4536 1.8092,7.7235 2.0872,11.711 l 0.5055,7.25 h 3.1436 c 1.729,0 8.5323,-1.3165 15.1185,-2.9255 z m 161.9749,-100.0051 c 32.4535,-5.8031 63.9792,-9.0539 91,-9.3836 22.1943,-0.2708 60.5243,1.0718 78.5,2.7495 9.075,0.847 19.9599,1.5456 24.1886,1.5524 l 7.6886,0.012 11.4377,-12.75 c 16.716,-18.6338 24.0306,-26.1426 45.2754,-46.4774 10.4997,-10.0499 29.0835,-28.9473 41.2972,-41.9942 l 22.2068,-23.7217 -1.5034,-5.0625 c -0.8269,-2.7844 -2.4733,-6.4247 -3.6588,-8.0895 l -2.1553,-3.0269 -5.3603,11.1145 c -12.4226,25.7582 -35.857,53.9215 -53.4904,64.2842 -24.916,14.6425 -61.751,10.0407 -84.4933,-10.5557 -7.0426,-6.3781 -12.0159,-14.1048 -15.7483,-24.4674 l -3.0813,-8.5548 -2.5045,3.4007 c -12.517,16.9966 -29.4155,25.0245 -53.0987,25.2254 -9.3625,0.079 -12.894,-0.3307 -19,-2.2066 -33.4812,-10.2862 -53.3831,-37.1661 -63.0214,-85.1181 -3.6618,-18.2185 -5.6562,-37.8661 -6.9534,-68.5 -2.0547,-48.5265 -3.2826,-76.0034 -3.4024,-76.1359 -0.068,-0.075 -5.0728,0.3006 -11.1228,0.8341 -6.05,0.5335 -23.6,0.7514 -39,0.4841 -37.1347,-0.6444 -50.6272,-3.3731 -54.3046,-10.9828 -1.6641,-3.4435 0.083,-7.5868 3.9872,-9.4583 2.2535,-1.08 3.7947,-0.9728 9.9909,0.695 13.1965,3.5519 23.315,4.4413 48.8265,4.2913 13.475,-0.079 28.1,-0.5003 32.5,-0.9357 l 8,-0.7918 -0.2294,-18 c -0.1262,-9.9 -1.1171,-45.9 -2.2021,-80 -2.9597,-93.0291 -4.4812,-210.1573 -3.7475,-288.5 0.3584,-38.2755 0.2262,-79.0896 -0.2998,-92.5 -0.5177,-13.2 -1.4202,-40.65 -2.0056,-61 -1.2614,-43.8473 -3.484,-90.21208 -5.4889,-114.49998 -5.1262,-62.1028 -5.3838,-92.6237 -1.0426,-123.5495 5.0872,-36.2397 18.3612,-70.68794 47.6127,-123.56278 17.1695,-31.03543 24.522,-48.53842 46.2761,-110.16267 6.2567,-17.7238 17.005,-47.07509 23.8852,-65.22509 12.4304,-32.79175 17.9143,-48.25667 19.1484,-54 l 0.6447,-3 -22.7205,0.30462 c -24.8344,0.33297 -35.9656,-0.4896 -59.0594,-4.36433 -12.8615,-2.15794 -18.7774,-3.48853 -29.1034,-6.54588 -0.8035,-0.23789 -1.7956,0.98987 -2.5,3.09386 -2.138,6.38565 -9.4167,7.3771 -13.0828,1.78203 -0.8356,-1.27544 -3.1351,-10.16348 -5.1099,-19.7512 -5.6609,-27.48449 -22.7565,-77.22233 -30.5578,-88.90487 -10.7315,-16.07056 -28.9236,-20.78468 -52.1256,-13.50727 -5.0447,1.5823 -27.2595,12.19038 -56.7277,27.08877 -60.9536,30.8166 -70.0265,35.72732 -92.3953,50.00907 -36.1948,23.10917 -47.6574,29.32161 -75.5039,40.92128 -29.7225,12.38109 -48.765,17.65108 -55.6135,15.39088 -8.9459,-2.95242 -7.2816,-14.89026 2.0891,-14.98516 4.8305,-0.0489 20.7053,-4.48811 32.3595,-9.04897 12.6465,-4.94917 32,-13.07 32,-13.42736 0,-1.58147 -2.9095,-7.92689 -5.1381,-11.20578 -4.2439,-6.24387 -11.1969,-9.34939 -20.9329,-9.34939 -9.8083,0 -28.6622,3.20176 -44.8006,7.60801 -16.7024,4.56024 -126.0927,39.08014 -177.1284,55.89577 -47.8401,15.76273 -56.525,18.20264 -98,27.53184 -86.43351,19.44196 -139.04487,36.03586 -189.00001,59.61159 l -11.5,5.42729 -4.6251,14.21275 c -5.93725,18.24491 -10.67711,29.16683 -28.20244,64.986 -15.26651,31.20248 -26.10796,51.46584 -47.2086,88.23589 -21.28037,37.0833 -28.7909,53.1772 -38.49575,82.4909 -12.63378,38.1605 -16.45438,65.8604 -16.4135,119 0.0214,27.7811 0.3437,34.851 2.21986,48.6917 4.0444,29.83608 9.6851,49.25528 22.25141,76.60488 l 7.25806,15.7965 6.60803,-0.5909 c 24.21234,-2.1653 39.18533,-2.7121 83.60803,-3.0536 27.5,-0.2114 53.06988,-0.63 56.82195,-0.9301 8.63873,-0.6912 22.0826,-3.652 36.17805,-7.9678 6.05,-1.8524 17.8747,-4.7705 26.2772,-6.4847 23.71871,-4.8387 26.06921,-5.9812 70.40791,-34.2212 34.5531,-22.0074 42.3942,-26.2277 52.8567,-28.449 14.0019,-2.9728 25.774,-0.013 37.7178,9.4839 10.6157,8.4407 20.6014,24.5129 25.8969,41.6819 2.6057,8.4481 2.7579,10.008 2.7743,28.4384 0.015,17.2746 -0.2505,20.5271 -2.3302,28.5 -5.6938,21.8287 -16.3917,42.1399 -33.122,62.8857 l -6.3593,7.8858 1.8492,3.1142 c 1.0171,1.7129 6.6648,12.3393 12.5505,23.6143 35.7163,68.4203 50.0621,87.0849 85.481,111.2154 27.8511,18.9746 54.5539,31.9599 89.3015,43.4264 20.3812,6.7256 24.8108,9.0371 33.2651,17.3582 7.2635,7.1491 13.116,16.3153 18.5967,29.1262 7.0426,16.4616 5.4633,27.9877 -5.1658,37.7021 -10.5626,9.6536 -23.9689,15.0265 -45.2526,18.1359 -16.5185,2.4133 -28.3291,2.8476 -44.3368,1.6305 -18.5246,-1.4086 -35.5992,1.514 -52.492,8.9848 -27.3908,12.1135 -47.681,40.5984 -49.1436,68.9911 -0.57,11.0655 0.734,17.518 5.4333,26.8867 3.3298,6.6382 13.9664,20.888 19.8126,26.5427 2.5589,2.475 5.9764,7.0992 7.5945,10.2759 4.183,8.2122 14.9899,19.1168 32.8871,33.1844 33.7691,26.5434 46.4144,35.213 64.8665,44.4727 10.4621,5.2502 39.9163,18.0542 50.632,22.0103 l 5.9984,2.2146 -2.2484,-2.3934 c -2.6936,-2.8672 -2.8935,-6.752 -0.4985,-9.6888 1.2867,-1.5778 4.3175,-2.6687 11.449,-4.1209 12.9831,-2.6438 24.8585,-6.9034 39.1405,-14.0393 6.5118,-3.2535 12.6386,-5.9155 13.6152,-5.9155 0.9766,0 2.9613,0.9327 4.4104,2.0726 3.5727,2.8103 3.6218,8.0314 0.1086,11.5446 -5.9569,5.9569 -38.4914,19.1655 -53.7136,21.8071 -4.3375,0.7527 -8.0772,1.5594 -8.3105,1.7928 -1.1349,1.1349 56.7105,19.7829 61.3659,19.7829 0.6515,0 1.1845,-0.8749 1.1845,-1.9442 0,-1.0694 1.0299,-3.1416 2.2886,-4.6049 2.1001,-2.4415 3.1503,-2.7267 12.75,-3.4623 13.3936,-1.0263 21.9931,-3.7842 31.383,-10.0645 14.7185,-9.8444 27.9846,-28.7273 42.0408,-59.8408 9.1761,-20.3115 12.3033,-24.8659 28.6344,-41.7033 12.3559,-12.7389 15.2747,-16.3532 18.5343,-22.9511 3.5632,-7.2124 3.8623,-8.4671 3.7854,-15.88 -0.1036,-9.9859 -3.0416,-18.1356 -10.7665,-29.865 -10.7156,-16.2705 -23.7329,-29.1049 -38.0056,-37.4716 -8.6878,-5.0928 -11.1842,-7.9256 -10.2531,-11.6351 1.4408,-5.7409 6.6747,-7.7478 12.9119,-4.9512 23.1219,10.3675 51.0627,41.8636 59.7688,67.374 1.6599,4.8637 2.2287,8.8915 2.2595,16 0.077,17.7823 -6.5493,30.1771 -27.3209,51.1042 -14.0372,14.1423 -16.2771,17.471 -25.9278,38.5321 -7.3779,16.1008 -11.3211,23.2307 -20.1162,36.3731 l -5.6946,8.5093 15.6034,9.9907 c 20.0879,12.8619 29.2127,20.6234 47.6246,40.5091 8.25,8.9103 18.375,19.3971 22.5,23.3039 17.064,16.1614 32.0111,34.3365 40.5262,49.2787 5.5095,9.668 11.7408,24.2901 20.4151,47.9052 7.3254,19.9429 11.2767,27.6787 20.1596,39.4672 6.868,9.1144 12.6685,14.4787 18.3991,17.0152 2.89,1.2793 4.6828,3.0433 6.4606,6.3571 1.9334,3.6038 2.8977,4.487 4.5,4.122 1.1217,-0.2555 11.9394,-2.2347 24.0394,-4.3984 z M 1430.197,1643.1591 c -3.4883,-3.4883 -2.7381,-6.4878 3.7686,-15.0668 6.5795,-8.6751 11.2684,-18.5027 14.0114,-29.3669 4.2424,-16.8034 0.8242,-34.1029 -11.1882,-56.6226 -3.2676,-6.1259 -6.6097,-11.6928 -7.4269,-12.371 -2.2846,-1.8961 -7.8256,-0.4032 -17.7452,4.7809 -14.5879,7.6238 -25.5776,7.0104 -34.8028,-1.9424 -5.6082,-5.4425 -8.6988,-12.652 -11.1851,-26.0916 -2.5608,-13.8419 -2.5353,-15.7189 0.2438,-17.9693 5.1096,-4.1375 13.2671,0.027 14.3307,7.3155 2.5631,17.5652 4.4817,23.2677 8.86,26.3344 3.7571,2.6316 8.3293,1.878 17.2924,-2.8499 15.5221,-8.1875 26.7318,-8.3507 34.5793,-0.5032 5.0658,5.0658 19.1406,33.4451 22.0298,44.4192 2.8312,10.7537 3.0763,31.0313 0.4895,40.5 -2.62,9.59 -6.8262,18.9042 -12.606,27.9144 -8.8132,13.7391 -14.9875,17.1831 -20.6513,11.5193 z m -90.7196,-12.9016 c -15.6162,-9.4036 -26.6604,-21.5334 -39.0803,-42.9215 -6.9731,-12.0081 -15.5482,-30.8628 -17.7064,-38.9322 l -1.2784,-4.7795 -4.029,0.6166 c -10.7306,1.6423 -10.5291,1.5603 -10.5291,4.2819 0,5.3992 3.3641,16.0842 8.1358,25.8409 3.7571,7.6819 4.7982,10.7767 4.297,12.7733 -1.4057,5.6009 -8.2666,7.3253 -12.7209,3.1972 -5.3088,-4.92 -14.6784,-27.5621 -14.7272,-35.5887 -0.028,-4.5634 -1.1312,-5.2325 -5.8715,-3.5601 -10.5458,3.7208 -14.6113,9.8764 -13.895,21.0383 0.6182,9.6334 4.808,17.3613 15.5911,28.7572 7.6414,8.0758 8.2844,9.0735 8,12.4137 -0.4176,4.9045 -4.2247,7.8377 -8.8533,6.8211 -4.0032,-0.8792 -15.7136,-12.3094 -21.3149,-20.8048 -7.1445,-10.8361 -9.0436,-16.8254 -9.0953,-28.6855 -0.038,-8.7154 0.3215,-11.2947 2.1151,-15.1757 2.8778,-6.2269 9.6861,-13.4597 15.3908,-16.3505 15.97,-8.0926 59.6796,-14.5529 88.9483,-13.1466 12.5362,0.6024 26.4028,3.2784 32.0083,6.1771 5.4489,2.8177 6.6289,8.609 2.5372,12.453 -2.0972,1.9702 -3.1527,2.221 -7.25,1.7224 -2.6375,-0.3209 -7.2705,-1.3396 -10.2955,-2.2638 -3.9455,-1.2054 -10.6582,-1.8152 -23.75,-2.1577 -16.5559,-0.4332 -18.25,-0.3228 -18.25,1.1888 0,2.6003 6.5951,18.0054 12.5485,29.3114 11.3819,21.6149 21.3404,33.7494 35.1731,42.8589 10.9539,7.2138 12.7934,10.9586 7.8239,15.9282 -3.3794,3.3793 -7.074,3.1103 -13.9223,-1.0134 z M 1095.6776,842.94692 c -3.8904,-2.5657 -6.5027,-6.2402 -10.2722,-14.4484 -4.213,-9.1742 -13.465,-37.5473 -18.8388,-57.77314 l -4.1182,-15.5 -0.047,-21.5 c -0.052,-23.67977 0.9546,-30.75658 6.6845,-47 9.3244,-26.43337 25.455,-47.43265 62.1832,-80.95196 31.1086,-28.39076 46.5742,-38.43223 72.5878,-47.12978 19.3916,-6.48351 33.3641,-6.33359 42.2626,0.45349 6.1062,4.65738 8.7061,9.78609 8.6829,17.12825 -0.024,7.53893 -1.2118,9.65578 -7.8853,14.0508 -2.9444,1.93909 -13.5005,9.94729 -23.4581,17.79599 -9.9576,7.8487 -25.0797,19.63242 -33.6047,26.18604 -18.5784,14.28219 -47.8025,42.91666 -55.8338,54.70726 -13.7801,20.23036 -19.8649,38.66594 -20.8797,63.25991 -0.4302,10.42882 0.01,17.54901 2.2035,36.00004 3.3215,27.8833 3.1501,38.2378 -0.7748,46.8108 -4.0455,8.8365 -12.2676,12.2794 -18.8918,7.9107 z m 3.999,-51.2215 c -5.2742,-40.53555 -2.0156,-68.67964 10.9416,-94.50004 10.9934,-21.90713 33.5967,-47.138 63.068,-70.39942 24.2478,-19.13858 60.912,-47.68666 63.1653,-49.18278 3.0368,-2.01634 1.9572,-5.38942 -2.1874,-6.83422 -12.7704,-4.45178 -43.041,6.73949 -67.2233,24.85295 -9.6552,7.23209 -29.956,25.5564 -44.3848,40.06347 -20.113,20.22218 -30.6305,34.81823 -37.1095,51.5 -9.7836,25.19029 -11.1215,50.65736 -4.1186,78.39588 4.1047,16.25856 12.4454,42.81856 16.3625,52.10416 l 3.1638,7.5 0.2997,-8 c 0.1656,-4.4204 -0.7191,-15.8306 -1.9773,-25.5 z m 157.2502,27.3651 c -3.2381,-4.1165 -2.5784,-7.2603 3.5591,-16.9626 17.5016,-27.6668 16.5489,-25.9932 22.4307,-39.40254 2.2918,-5.225 7.3277,-16.7 11.1908,-25.5 15.4163,-35.11766 26.5694,-54.5247 37.6593,-65.52893 4.2884,-4.25533 10.1704,-8.88904 13.5279,-10.65704 l 5.9403,-3.1281 -3.6098,-1.50831 c -6.166,-2.57631 -7.5593,-7.98017 -3.1852,-12.3542 2.3454,-2.34545 3.1119,-2.53413 8.25,-2.03097 12.6846,1.24217 22.1643,6.50061 22.1643,12.2947 0,3.48375 2.0817,3.91109 10.8434,2.22598 11.2866,-2.17071 15.7027,0.008 14.9665,7.3842 -0.426,4.26799 -3.8307,6.49928 -12.8099,8.39501 -8.6944,1.83562 -15.7655,1.33359 -20.4915,-1.45484 l -3.2725,-1.93079 -7.368,4.03023 c -4.0524,2.21663 -9.2615,5.5597 -11.5758,7.42904 -5.7121,4.61381 -14.5094,18.05673 -23.5277,35.95199 -7.9649,15.80485 -9.6365,19.45841 -23.2796,50.88203 -4.7759,11.00004 -9.4844,20.90004 -10.4635,22.00004 -0.979,1.1 -5.7122,8.3 -10.5181,16 -4.8059,7.7 -9.4462,14.5625 -10.3118,15.25 -2.7921,2.2176 -7.8272,1.5285 -10.1189,-1.3849 z m -28.9676,-31.1151 c -5.283,-5.3 -8.924,-33.17836 -7.1183,-54.50309 1.9139,-22.6018 8.5092,-41.86514 19.0363,-55.60056 2.2567,-2.94448 3.9188,-5.53788 3.6936,-5.76312 -0.2252,-0.22524 -2.0392,0.27138 -4.0309,1.1036 -5.3375,2.23015 -9.37,1.91978 -12.2312,-0.94142 -3.0732,-3.0732 -3.1395,-6.95137 -0.1696,-9.92121 4.0366,-4.03665 29.9242,-12.68945 53.1778,-17.77441 12.7259,-2.78283 17.5373,-1.0729 17.5373,6.23258 0,5.07634 -2.9106,7.22388 -11.9895,8.84638 -6.1586,1.10061 -7.4138,1.68604 -8.918,4.15955 -0.9629,1.58326 -4.6508,5.07411 -8.1954,7.75743 -16.765,12.69145 -26.2468,28.14079 -30.5512,49.77911 -2.6045,13.09275 -2.3759,36.62563 0.4859,50.0322 2.7301,12.78916 2.7114,13.89066 -0.2863,16.88836 -3.2439,3.2438 -7.0191,3.137 -10.4405,-0.2954 z m 195.2281,-47.82607 c -2.8763,-2.87626 -2.8699,-4.61257 0.066,-17.99113 3.8261,-17.43351 4.1681,-31.73852 0.9752,-40.7884 -1.928,-5.46426 -1.7703,-6.4026 1.6506,-9.82345 2.446,-2.44602 3.5468,-2.89571 5.75,-2.34895 7.4479,1.84835 10.2248,9.21104 10.2248,27.11009 0,13.71762 -2.8596,33.05137 -5.9077,39.94217 -3.0364,6.86416 -8.2127,8.44623 -12.7592,3.89967 z m 187.9845,-141.36171 c -11.0178,-3.96628 -27.3176,-17.34082 -27.3176,-22.41507 0,-6.35885 4.6908,-9.66591 10.2978,-7.26012 1.7612,0.75567 6.1272,3.74912 9.7022,6.65212 9.4877,7.70423 13.6549,9.29658 22.9133,8.75544 13.0697,-0.76392 20.763,-5.44566 40.6326,-24.72691 10.5312,-10.21936 13.8045,-11.99363 18.5221,-10.03957 3.127,1.29526 5.4283,5.83294 4.4774,8.82875 -0.8133,2.56249 -22.1676,23.12803 -30.0454,28.93561 -7.6498,5.63951 -15.941,9.82684 -23.2032,11.7184 -7.9108,2.06049 -19.5683,1.85917 -25.9792,-0.44865 z m 40.9076,-67.66526 c -5.568,-2.84081 -13.0042,-12.00434 -17.6725,-21.77749 -7.8555,-16.44577 -11.001,-30.25869 -10.9576,-48.11951 0.028,-11.5006 0.3471,-13.92271 2.7675,-21 4.2225,-12.34635 9.9649,-23.16478 17.3746,-32.73252 3.7195,-4.80289 7.5713,-9.86539 8.5595,-11.25 1.4154,-1.9832 2.6603,-2.51748 5.866,-2.51748 10.8717,0 24.2828,18.41647 30.3367,41.65905 2.2667,8.70235 1.9903,14.53228 -0.8139,17.16664 -3.9587,3.71909 -9.4404,2.48274 -12.1402,-2.73816 -0.8116,-1.56937 -2.6444,-3.14657 -4.0733,-3.50521 -5.1287,-1.28721 -6.1817,-8.93066 -1.8845,-13.67898 1.2788,-1.41305 0.9779,-2.54004 -2.571,-9.63052 -2.2106,-4.41661 -4.6634,-8.56485 -5.4508,-9.21831 -3.3619,-2.79009 -17.8061,21.22861 -21.0154,34.94549 -0.8364,3.575 -1.5274,9.48779 -1.5355,13.13953 -0.035,15.94341 7.2232,39.38654 15.6861,50.66045 l 2.4771,3.29998 2.3633,-2.54998 c 3.2916,-3.55176 8.5564,-3.51251 11.3861,0.0849 3.5928,4.56744 2.2773,11.04895 -3.2998,16.2588 -3.3507,3.13013 -10.7906,3.85629 -15.4024,1.50334 z M 1956.055,1866.6001 c 7.0188,-1.4904 15.1092,-5.6474 22.1443,-11.3782 12.8424,-10.4613 30.486,-33.8813 39.1956,-52.0281 10.1939,-21.2395 23.5825,-68.937 29.8853,-106.4684 3.5331,-21.0387 10.5274,-74.0776 15.0332,-114 2.5235,-22.3588 9.8776,-107.0765 9.3281,-107.4583 -0.158,-0.1098 -4.5623,0.1392 -9.7873,0.5534 -21.3639,1.6936 -47.704,2.0724 -70.5,1.0141 -32.8128,-1.5233 -48.474,-4.2216 -64.7822,-11.1614 -3.8578,-1.6416 -7.1065,-2.864 -7.2195,-2.7163 -1.0837,1.417 -5.8391,34.1534 -8.3916,57.7685 -2.6621,24.6285 -3.8584,40.7927 -5.1068,69 -3.6242,81.887 -10.4811,158.1178 -17.9376,199.4191 -1.0843,6.0054 -1.7812,11.2267 -1.5488,11.6027 0.2323,0.376 0.6279,4.6874 0.8791,9.5809 0.511,9.958 4.2278,24.0918 8.3057,31.5843 9.9023,18.1937 37.6892,29.532 60.5025,24.6877 z m -125.4086,-23.4654 c 28.2099,-5.8216 37.9798,-23.7562 45.7096,-83.9093 6.8693,-53.457 10.0443,-94.0261 14.5172,-185.5 1.1819,-24.1695 3.0361,-45.6701 6.0369,-70 2.3993,-19.4537 6.5154,-44.7422 7.8566,-48.2698 0.8041,-2.1151 0.4919,-2.9234 -2.0704,-5.3604 -5.3213,-5.061 -13.3904,-18.3967 -22.1492,-36.606 -12.7226,-26.4496 -19.2631,-36.5737 -38.6096,-59.7638 -5.7355,-6.875 -16.1697,-20.1867 -23.1871,-29.5815 -14.0948,-18.87 -25.2218,-30.1814 -34.6136,-35.1872 -7.3742,-3.9304 -8.6826,-5.4304 -8.6826,-9.9536 0,-4.0345 3.1091,-7.2777 6.9769,-7.2777 5.8736,0 18.9665,8.4283 29.4371,18.9496 4.1327,4.1527 13.4048,15.4254 20.6046,25.0504 7.1998,9.625 18.152,23.575 24.3382,31 16.2601,19.5163 25.5227,34.0952 38.7535,60.9961 10.9451,22.2538 11.9324,23.872 18.6729,30.6052 8.767,8.7575 19.3066,14.1809 34.6168,17.8128 14.7315,3.4947 26.4876,4.5653 57.5,5.2361 27.2578,0.5897 37.3876,0.123 92.5,-4.2616 24.4769,-1.9473 75.7487,-2.2151 94,-0.4911 6.875,0.6495 19.475,2.2578 28,3.5742 21.8178,3.3689 24.7047,3.6041 31.7416,2.5858 16.5276,-2.3917 26.8622,-12.2583 30.6884,-29.2986 4.8121,-21.4312 1.5561,-43.0029 -9.3298,-61.8121 -5.7859,-9.9972 -18.3217,-25.7611 -29.7786,-37.4468 -17.572,-17.923 -34.2831,-29.6728 -66.8216,-46.9829 -15.5101,-8.2512 -67.8485,-37.5279 -75.9079,-42.4607 -6.545,-4.006 -30.3975,-19.9403 -47.6054,-31.802 -6.143,-4.2345 -10.8762,-6.5898 -17,-8.4595 -4.6677,-1.4251 -13.2117,-4.0368 -18.9867,-5.8037 -28.5308,-8.7292 -51.6097,-21.6396 -99.5756,-55.7029 -22.4257,-15.9258 -55.2666,-37.6287 -68.9244,-45.5486 -11.5668,-6.7075 -13.4358,-8.8751 -12.1318,-14.0704 1.3723,-5.468 7.4926,-6.2862 15.7772,-2.1093 11.0108,5.5514 50.3818,31.4097 78.3546,51.4622 15.5054,11.1151 31.1395,21.5891 42.5819,28.5275 10.003,6.0655 24.253,13.4503 25.9543,13.4503 3.4796,0 -18.0494,-22.4409 -36.0829,-37.6113 -26.2467,-22.0797 -45.5186,-35.1257 -68.7608,-46.5473 -12.582,-6.183 -16.5232,-8.5811 -17.2517,-10.497 -1.9848,-5.2206 1.6118,-10.3444 7.2613,-10.3444 6.3907,0 35.1002,14.8596 53.7979,27.845 12.0114,8.3418 32.4636,24.72 47.0214,37.655 19.3843,17.2235 32.9247,34.5094 33.9441,43.3336 l 0.5345,4.6267 11.8068,3.2978 11.8068,3.2977 2.5781,-2.0279 c 1.4179,-1.1154 3.3941,-2.0279 4.3915,-2.0279 6.0951,0 53.1273,-18.1796 77.69,-30.0299 32.5048,-15.682 57.0859,-34.8072 73.5173,-57.1997 11.715,-15.9651 16.4934,-26.0168 25.7499,-54.1661 6.2673,-19.0593 8.3343,-22.6043 13.1794,-22.6043 3.6481,0 7.7802,4.0152 7.7802,7.5601 0,4.2831 -12.6701,41.0414 -17.9924,52.1992 -11.9426,25.0369 -28.4176,44.6483 -53.1452,63.2628 -14.9291,11.2383 -27.352,18.5514 -46.8624,27.5871 -14.9488,6.9231 -46.293,19.689 -60.25,24.5387 -3.7125,1.29 -6.75,2.6317 -6.75,2.9815 0,2.0396 42.3794,29.6177 65.5,42.6237 l 16,9.0004 1.1821,-7.5471 c 3.3585,-21.4424 21.6496,-40.3826 47.5956,-49.2849 14.718,-5.0498 32.5502,-6.4197 44.17,-3.3931 20.4185,5.3183 52.3906,33.8622 72.0248,64.3017 l 4.728,7.3301 2.2091,-2.0752 c 1.25,-1.1744 6.9275,-3.4002 13.0778,-5.1272 56.8181,-15.9542 124.6048,-59.5507 170.5811,-109.7078 7.3361,-8.0032 8.9139,-9.25 11.7053,-9.25 4.2726,0 7.2262,3.0288 7.2262,7.4102 0,4.5383 -4.7701,10.5858 -21.3961,27.1261 -29.2866,29.1355 -63.8987,54.2511 -104.1039,75.5411 -20.2733,10.7354 -52.0106,23.0665 -67.3512,26.1683 l -6.3512,1.2842 5.1241,7.6611 c 2.8182,4.2136 7.3456,9.5211 10.0609,11.7945 l 4.937,4.1334 12.2902,0.5578 c 28.1516,1.2777 64.8076,-5.3918 89.3941,-16.2651 7.1651,-3.1687 11.9369,-2.9347 14.6525,0.7186 2.7206,3.6598 1.6009,8.3723 -2.6018,10.9504 -14.3981,8.8322 -58.9117,19.9194 -79.9739,19.9194 -4.1595,0 -7.7908,0.3691 -8.0696,0.8203 -0.8993,1.455 10.2032,7.3841 20.3014,10.8415 5.4021,1.8496 14.1922,3.9677 19.5334,4.707 11.0378,1.5276 13.8874,3.3198 13.8874,8.7339 0,3.9019 -4.1218,7.8993 -8.1391,7.8933 -5.4096,-0.01 -20.9418,-2.9967 -28.7168,-5.5256 -8.8466,-2.8773 -22.6867,-9.8862 -28.3196,-14.3415 -2.0118,-1.5912 -8.4083,-6.0394 -14.2145,-9.8848 -11.765,-7.792 -21.192,-16.0682 -26.2938,-23.0842 -1.8637,-2.5629 -6.6428,-10.5099 -10.6202,-17.6599 -10.2915,-18.5007 -16.8001,-27.208 -31.0293,-41.5118 -13.453,-13.5234 -23.2664,-21.4196 -31.9875,-25.738 -4.6291,-2.2922 -7.0536,-2.7723 -15.5,-3.0689 -19.9191,-0.6997 -38.0155,6.1111 -51.0802,19.2246 -8.1205,8.1508 -11.4125,14.2186 -12.1304,22.3584 -0.4251,4.8203 -0.089,6.5597 2.1049,10.8985 2.5487,5.04 2.9971,5.37 18.852,13.877 43.3706,23.2707 62.6751,38.0302 85.7338,65.5488 16.1553,19.2801 23.6284,31.9696 28.6388,48.6296 2.2395,7.4461 2.71,11.2153 3.0938,24.7818 0.4966,17.5535 -0.5908,25.4127 -5.0402,36.4281 l -2.4525,6.0719 h 2.2733 c 7.0996,0 26.003,-4.9852 66.1353,-17.4413 6.1277,-1.9019 17.3777,-4.8764 25,-6.6101 17.6053,-4.0042 30.4908,-8.1396 36.8589,-11.8292 10.3308,-5.9855 14.1124,-10.5259 35.0476,-42.0802 41.5496,-62.6254 49.221,-76.9744 73.7995,-138.0392 40.8196,-101.4154 49.3222,-127.7074 53.8444,-166.5 1.8896,-16.2097 1.6288,-71.1279 -0.5035,-105.99998 -0.9752,-15.95 -2.4381,-40.475 -3.2508,-54.5 -1.7193,-29.6713 -3.7117,-47.6207 -10.5423,-94.9779 -3.3138,-22.9742 -5.7988,-45.16196 -7.448,-66.49995 -1.3612,-17.6122 -4.0408,-50.02219 -5.9546,-72.02219 -1.9138,-22 -4.1581,-49.675 -4.9873,-61.5 -0.8292,-11.825 -1.7818,-23.84623 -2.117,-26.71385 l -0.6094,-5.21384 -3.8495,1.96384 c -4.8915,2.49547 -7.012,2.47308 -10.2942,-0.10873 -2.6073,-2.0509 -3.4109,-5.74169 -2.0323,-9.33431 0.3315,-0.86376 4.071,-4.00081 8.3101,-6.97122 9.7585,-6.83794 17.5256,-15.31719 28.2517,-30.84206 11.689,-16.91859 15.463,-23.2926 17.928,-30.27983 2.0925,-5.93111 3.7072,-19.97389 2.6219,-22.80207 -0.7449,-1.94127 -9.6611,6.24472 -12.8873,11.83191 -9.9567,17.24305 -31.9224,45.63655 -44.1699,57.0955 -20.8186,19.47799 -54.041,38.80891 -85.6571,49.8407 -18.5828,6.4841 -49.0914,13.03364 -72,15.45687 -33.4512,3.53842 -100.4901,3.87213 -127,0.6322 -47.6831,-5.82763 -84.4603,-13.68456 -121.1508,-25.88217 -22.9483,-7.62907 -34.5752,-12.52424 -60.2208,-25.35418 -61.4528,-30.74355 -96.1379,-60.08238 -125.1016,-105.81876 -8.0692,-12.74199 -23.6025,-44.74109 -28.8831,-59.5 -12.9202,-36.11108 -19.4645,-67.04957 -20.5181,-97 l -0.6507,-18.5 -4.2159,8.185 c -5.3289,10.34564 -7.9432,19.76809 -9.3689,33.76745 -2.0152,19.78637 0.66,42.43492 7.6242,64.54755 7.816,24.81695 23.2971,59.39294 34.924,78 3.6399,5.82503 6.5612,11.64044 6.5614,13.06144 6e-4,5.17701 -5.9612,8.42552 -11.5365,6.28608 -3.9708,-1.52374 -18.7961,-27.83831 -31.7455,-56.34752 l -1.5898,-3.5 -0.064,3.62467 c -0.1173,6.64768 4.0707,28.24135 7.6368,39.37533 8.0021,24.9844 18.8789,42.22384 39.9712,63.35319 15.7608,15.78848 16.7969,17.76877 11.8735,22.69226 -4.557,4.55694 -8.4171,3.05041 -20.1614,-7.86854 -19.2123,-17.86225 -34.6119,-40.53012 -43.9357,-64.67252 -3.3987,-8.80034 -8.4484,-27.29088 -8.4484,-30.93561 0,-5.17026 -1.7202,-1.13226 -3.7514,8.80605 -3.7391,18.29494 -8.6492,33.65707 -21.8455,68.34755 -6.9624,18.30269 -16.9004,45.20262 -22.0845,59.77762 -28.6234,80.47391 -32.4522,89.54351 -55.1818,130.71148 -18.8012,34.05285 -29.319,58.64806 -36.4725,85.28856 -9.388,34.9623 -10.5933,66.35 -5.1944,135.2734 3.0056,38.3693 5.1462,82.07728 6.5004,132.72658 0.5661,21.175 1.3215,41.65 1.6786,45.5 0.3571,3.85 0.5559,50.7945 0.4419,104.3212 -0.1141,53.5267 0.2771,126.8767 0.8694,163 1.984,121.01 9.1885,322.9684 12.5782,352.5928 5.942,51.931 20.8306,82.5921 45.92,94.5661 12.3638,5.9008 22.95,7.1912 36.3338,4.4292 z m 659.9705,-637.9746 c -5.1588,-2.7991 -4.9039,-9.8359 0.4897,-13.5204 1.7862,-1.2202 5.7226,-4.6003 8.7476,-7.5114 6.7682,-6.5132 9.4713,-7.665 13.7584,-5.8625 3.5147,1.4779 4.8695,4.7705 3.7892,9.2096 -1.2951,5.3216 -18.0589,19.2782 -23.0476,19.188 -0.55,-0.01 -2.2318,-0.6864 -3.7373,-1.5033 z M 2229.3087,916.27082 c -5.9839,-5.9839 -1.0555,-13.5454 8.8287,-13.5454 1.6416,0 10.3397,-1.6332 19.3291,-3.6293 15.6159,-3.4675 16.4586,-3.5543 18.9106,-1.9477 5.0652,3.3189 5.2025,9.8344 0.2717,12.8981 -4.1741,2.5936 -32.1857,8.6789 -39.9501,8.6789 -3.9067,0 -5.447,-0.5116 -7.39,-2.4546 z m 121.0455,-15.6997 c -2.9966,-1.7988 -4.4328,-4.0439 -4.4682,-6.985 -0.06,-4.9728 2.6713,-6.8194 13.0629,-8.832 16.6298,-3.2207 91.9882,-25.1841 116.9024,-34.0715 6.1014,-2.1765 12.4436,-3.9572 14.0936,-3.9572 3.211,0 7.9093,3.7955 7.9093,6.3894 0,4.1122 -2.1727,6.797 -7.3555,9.0891 -7.9486,3.5152 -45.1255,15.2983 -78.6445,24.926 -47.2468,13.5709 -57.5375,15.8199 -61.5,13.4412 z m -241.0455,-16.3003 c -1.35,-1.35 -2.4545,-3.6204 -2.4545,-5.0454 0,-2.726 3.9725,-7.5 6.2408,-7.5 3.1491,0 45.2989,-4.1585 56.2592,-5.5506 41.3875,-5.2565 102.5404,-17.7043 147.8066,-30.0864 17.6261,-4.8214 20.1021,-5.2763 22.4909,-4.1314 3.9331,1.8851 5.6704,6.012 4.0071,9.5184 -1.8003,3.7948 -5.6981,5.455 -25.2613,10.7592 -42.3438,11.4807 -99.5954,23.2097 -141.1311,28.9134 -17.279,2.3727 -50.9438,5.5774 -58.5901,5.5774 -6.0064,0 -7.2349,-0.3219 -9.3676,-2.4546 z m 95.4686,-53.4685 c -3.6568,-3.6568 -3.7002,-6.4537 -0.1552,-9.9987 2.5062,-2.5062 3.8533,-2.8829 14.25,-3.985 29.2882,-3.1047 40.2444,-4.4424 49.9821,-6.1027 8.9805,-1.5313 10.9652,-1.5973 13.7144,-0.4563 5.2009,2.1584 5.7688,9.7926 0.9628,12.9416 -3.1536,2.0664 -21.6586,5.019 -50.1772,8.0063 -13.2,1.3826 -24.3721,2.5148 -24.8269,2.5159 -0.4548,10e-4 -2.1423,-1.3134 -3.75,-2.9211 z m 50.213,-135.17979 c -37.0782,-2.66648 -80.0006,-12.25743 -116.2828,-25.98329 -41.1137,-15.55361 -98.1865,-41.62353 -113.2422,-51.72711 -7.5049,-5.0364 -8.2824,-12.42341 -1.599,-15.19175 3.4672,-1.43617 5.6297,-0.81564 13.9879,4.01383 26.3766,15.24075 90.5891,43.24163 124.5,54.29019 39.3856,12.83229 76.6454,19.07294 114,19.09387 20.7064,0.0116 24.5955,-0.26505 39,-2.77421 30.3465,-5.28616 52.5522,-10.86072 100,-25.10428 17.8807,-5.36768 36.5365,-11.67772 44.0824,-14.91021 14.6576,-6.27894 18.31,-6.80272 21.9631,-3.14964 2.8831,2.88318 3.1551,6.5021 0.7045,9.3767 -3.9188,4.59692 -27.2111,13.55157 -63.25,24.31622 -83.2107,24.85466 -119.2513,30.95799 -163.8639,27.74968 z M 2079.5412,1780.9754 c 14.4,-14.1957 24.7822,-25.4881 32.8685,-35.75 24.4544,-31.0335 39.8634,-46.9169 69.9432,-72.0964 20.9094,-17.503 38.8417,-34.3438 42.7539,-40.1515 4.0665,-6.0368 9.1407,-35.8511 17.2323,-101.2521 2.4157,-19.525 4.8699,-37.072 5.4537,-38.9934 0.5838,-1.9214 1.0614,-5.8589 1.0614,-8.75 v -5.2566 l -6.75,-0.01 c -3.7125,0 -13.5,-1.1097 -21.75,-2.4589 -25.2199,-4.1241 -36.4673,-4.9251 -69.5,-4.9493 -25.5601,-0.019 -61.4945,1.5753 -62.7005,2.7812 -0.1435,0.1435 -2.0637,21.7422 -4.2672,47.997 -3.9111,46.6002 -7.4811,79.3593 -14.618,134.1359 -6.1821,47.4479 -11.3272,74.1163 -20.1544,104.4646 -6.0116,20.6682 -5.8437,19.1649 -2.6982,24.1654 6.0881,9.6783 10.969,16.8237 11.5075,16.8462 0.3131,0.013 10.0411,-9.3137 21.6178,-20.7262 z m -923.4964,-223.5 c -0.3993,-13.8799 2.327,-25.755 9.2004,-40.0761 19.6978,-41.041 62.5598,-63.2508 113.4618,-58.7924 10.0123,0.877 16.1775,0.9119 23.1472,0.1312 25.4283,-2.8485 36.2809,-5.7734 46.4393,-12.5162 6.2961,-4.1791 8.7636,-7.5234 8.7533,-11.8639 -0.016,-6.679 -9.9347,-26.9183 -16.6023,-33.877 -6.2638,-6.5373 -11.1532,-9.0315 -30.6615,-15.6414 -38.74,-13.1262 -69.673,-28.7189 -98.4288,-49.6162 -32.8732,-23.8895 -48.4472,-44.9358 -85.0861,-114.9838 -7.6615,-14.6476 -9.9874,-18.3406 -10.9061,-17.3162 -0.6423,0.7161 -5.3673,6.252 -10.5,12.302 -30.9801,36.5168 -50.657,50.7063 -87.2857,62.9438 -7.334,2.4503 -29.81171,8.5325 -49.95041,13.5161 -47.77978,11.8237 -56.04416,15.2216 -67.99325,27.9559 -7.66235,8.1659 -11.77998,16.5927 -11.76828,24.0842 0.016,10.2365 8.8399,21.4502 25.71329,32.6774 10.26764,6.8319 19.68115,10.8291 38.10065,16.1788 24.11979,7.0052 34.54179,12.4223 49.8159,25.8932 4.323,3.8126 22.4726,22.1912 40.3323,40.8413 46.0013,48.0369 63.7919,66.0256 77.5277,78.3909 12.3771,11.1421 35.6103,30.8417 36.5071,30.9546 0.279,0.035 0.3615,-4.9987 0.1835,-11.1862 z m -719.33933,-392.36 c 19.07247,-2.4989 61.90461,-11.7521 86.95882,-18.7861 8.62944,-2.4227 18.20391,-4.6979 21.27659,-5.056 3.07268,-0.358 8.24768,-1.9761 11.5,-3.5957 3.42849,-1.7073 7.51712,-2.9463 9.73003,-2.9484 2.48708,0 4.92569,-0.8458 7,-2.4208 3.47654,-2.6396 45.63925,-16.0107 71.18328,-22.5743 19.48365,-5.0065 44.1616,-9.0649 79.5,-13.0743 15.675,-1.7785 28.68267,-3.3864 28.90593,-3.5733 0.22325,-0.1868 -1.7419,-4.9058 -4.36701,-10.4868 -15.25989,-32.4421 -22.62926,-62.1754 -25.49732,-102.87428 -2.84519,-40.3744 0.88149,-93.4076 8.88926,-126.5 8.00933,-33.0989 22.7515,-68.751 42.5906,-103.00004 26.38725,-45.55335 42.97523,-76.7699 59.24934,-111.5 13.59387,-29.0103 18.90246,-42.19439 22.74976,-56.5 2.51723,-9.3599 4.5679,-13.5 6.68681,-13.5 0.49357,0 6.16132,-2.51645 12.59501,-5.59212 22.43928,-10.72723 44.70277,-19.7583 67.69762,-27.4612 l 13,-4.35478 -8,-1.75273 c -20.51558,-4.49478 -101.50586,-19.94202 -114,-21.74316 -18.34096,-2.64402 -38.44239,-4.08691 -57.00613,-4.09194 -63.06424,-0.0171 -113.7398,22.37403 -164.05725,72.48911 -28.27049,28.15678 -49.68246,55.37721 -77.84178,98.95802 -56.80054,87.90746 -78.89076,139.55724 -93.52573,218.67524 -5.47255,29.5851 -18.0528,121.41378 -23.06665,168.37358 -1.70297,15.95 -3.7761,35.075 -4.60695,42.5 -0.83085,7.425 -1.77545,24.6804 -2.0991,38.3452 l -0.58846,24.8453 6.89602,-0.6566 c 3.79282,-0.3612 12.00411,-1.3259 18.24731,-2.1439 z M 2588.2158,473.22538 c -0.3166,-0.825 -0.7524,-1.5 -0.9686,-1.5 -0.2161,0 -0.393,0.675 -0.393,1.5 0,0.825 0.4359,1.5 0.9686,1.5 0.5328,0 0.7096,-0.675 0.393,-1.5 z"
     style="fill:#000000" />
</svg>
