<?xml version="1.0" encoding="UTF-8" standalone="no"?>
<svg
   xmlns:dc="http://purl.org/dc/elements/1.1/"
   xmlns:cc="http://creativecommons.org/ns#"
   xmlns:rdf="http://www.w3.org/1999/02/22-rdf-syntax-ns#"
   xmlns:svg="http://www.w3.org/2000/svg"
   xmlns="http://www.w3.org/2000/svg"
   version="1.1"
   id="svg11085"
   width="427.12756"
   height="349.70407"
   viewBox="0 0 427.12756 349.70407">
  <metadata
     id="metadata11091">
    <rdf:RDF>
      <cc:Work
         rdf:about="">
        <dc:format>image/svg+xml</dc:format>
        <dc:type
           rdf:resource="http://purl.org/dc/dcmitype/StillImage" />
        <dc:title></dc:title>
      </cc:Work>
    </rdf:RDF>
  </metadata>
  <defs
     id="defs11089" />
  <path
     style="fill:#000000"
     d="m 76.1228,348.90361 c -1.85745,-0.43854 -4.51906,-1.64988 -5.91468,-2.69185 -4.94403,-3.69126 -5.43462,-7.43949 -7.2388,-55.30607 -1.06714,-28.31254 -3.92224,-56.45421 -6.92036,-68.21153 -1.08154,-4.24134 -3.61432,-12.94373 -5.62839,-19.33865 l -3.66195,-11.62712 -3.12931,0.57212 c -3.79142,0.69317 -5.18094,-0.0853 -6.542,-3.66517 -0.61956,-1.62957 -1.79134,-2.72965 -2.90757,-2.72965 -2.84204,0 -4.9085,-2.90458 -8.72308,-12.26102 -3.62366,-8.88816 -3.97154,-10.2043 -7.46397,-28.23898 -1.17159,-6.05 -3.67598,-15.725 -5.56531,-21.5 C 7.48064,108.78532 0,79.123573 0,74.629483 0,69.245413 1.90064,62.305583 3.861104,60.531393 9.44794,55.475373 50.40353,43.902493 75,40.429573 c 16.91506,-2.38833 38.73257,-6.36034 49.5,-9.01176 27.19127,-6.6957 54.75095,-11.0782 78.5,-12.48295 24.892,-1.47235 37.1721,-3.41265 51.72258,-8.17237 15.22404,-4.9800502 26.46393,-6.0711302 30.42719,-2.9536302 1.3794,1.08504 3.8225,1.95112 5.42912,1.92462 1.60661,-0.0265 4.22102,0.4640102 5.8098,1.0900002 6.39858,2.5211 3.47834,-1.4060102 -3.38869,-4.5570702 -2.63036,-1.20698 -6.97858,-1.63767 -17.5,-1.73338 -15.85356,-0.1442 -27.79473,1.8865 -45.743,7.7790002 -5.64135,1.85208 -10.48129,3.15653 -10.75543,2.89878 -2.20962,-2.07757 16.79028,-8.3040102 36.49843,-11.9608602 11.71067,-2.17292 15.79876,-2.50758005 25,-2.04659 6.56686,0.329 12.49366,1.18414 14.70624,2.12185 3.5689,1.51255 3.88386,1.47468 8.5,-1.02184 4.47495,-2.42016005 5.44447,-2.55900005 14.57813,-2.08762005 6.5031,0.33562 10.5274,1.02345005 12,2.05103005 6.56205,4.579 6.92045,5.12724 7.25201,11.0936702 0.3403,6.12368 2.28803,15.54524 3.21369,15.54524 0.30282,0 2.84544,-1.11675 5.65026,-2.48167 7.55593,-3.67696 19.21591,-5.76412 29.94671,-5.36051 9.11802,0.34294 9.19004,0.36625 18.86513,6.10367 6.60239,3.91528 10.80978,7.1969 13.14009,10.24882 4.82819,6.32329 11.05998,21.96998 14.1349,35.48969 1.43855,6.325 3.12242,12.85 3.74193,14.5 0.66972,1.78373 1.01874,7.86506 0.86087,14.999997 -0.23493,10.61734 -0.93431,15.33929 -4.65375,31.42031 -0.96362,4.16623 -13.89824,16.56551 -20.25097,19.41285 -13.83953,6.20295 -35.30812,5.98791 -44.34113,-0.44416 -2.66607,-1.89841 -3.34887,-1.97038 -8.12735,-0.85661 -5.82017,1.35656 -26.57024,9.09241 -31.21676,11.63794 -1.65,0.90394 -4.00899,2.1354 -5.2422,2.73659 -1.23321,0.6012 -2.24571,1.47812 -2.25,1.94874 -0.0129,1.41588 2.99887,12.7685 4.94623,18.64434 3.11511,9.39933 4.89241,16.30197 5.53586,21.5 1.00854,8.14739 3.52988,19.64255 5.49211,25.0393 1.00774,2.77161 2.16642,7.27161 2.57484,10 0.40842,2.72838 1.75267,7.8857 2.98722,11.4607 2.90559,8.41393 3.94649,16.21489 2.51939,18.88144 -3.03842,5.67733 -19.96518,10.84604 -44.5918,13.61641 -27.32472,3.07389 -54.84001,9.77114 -73.24737,17.82849 -10.5236,4.60644 -26.734,8.9792 -44.8907,12.10927 -19.49254,3.36037 -46.11247,12.16571 -58.83358,19.46098 -13.89674,7.96947 -18.46734,10.11982 -24.56432,11.55692 -7.08627,1.67028 -7.89817,1.70477 -12.81288,0.54441 z m 5.14605,-11.24792 c -0.3715,-3.13799 -0.32871,-3.18107 1.24166,-1.25 0.89453,1.1 1.97918,2.61285 2.41032,3.36188 0.81249,1.41156 7.07917,0.74454 7.07917,-0.75351 0,-0.40299 -0.98337,-2.72973 -2.18527,-5.17054 -1.91922,-3.89754 -2.19315,-6.14229 -2.25,-18.43783 -0.042,-9.07807 0.41697,-15.65763 1.30543,-18.71499 2.64606,-9.10562 -0.0987,-20.35322 -16.75429,-68.65614 -6.06651,-17.5935 -8.89502,-27.16064 -8.49785,-28.74309 0.85249,-3.39658 1.99839,-2.15324 3.39993,3.68904 l 1.21891,5.081 4.72078,-14.1314 C 77.72106,179.67103 81,173.62697 81,179.10562 c 0,1.44568 -1.60355,6.82961 -3.56345,11.96429 -1.9599,5.13468 -4.02219,11.47328 -4.58287,14.08578 -0.60539,2.82087 -1.56832,4.75 -2.37097,4.75 -1.05219,0 -0.87935,1.3844 0.78029,6.25 l 2.13186,6.25 1.06231,-3.5 c 0.58427,-1.925 1.62042,-4.48292 2.30257,-5.68426 0.68214,-1.20134 1.20473,-3.45134 1.16131,-5 -0.0434,-1.54866 -0.30592,-2.25324 -0.58333,-1.56574 C 76.70794,208.21644 75,208.30097 75,206.77139 c 0,-1.77515 8.95862,-20.24041 9.53851,-19.66052 0.2846,0.28459 0.066,1.70485 -0.48578,3.15613 -0.76136,2.00252 -0.69363,2.63869 0.28089,2.63869 2.26762,0 4.29308,-2.3925 5.6196,-6.63793 0.71111,-2.27586 2.34636,-5.42586 3.63389,-7 2.05378,-2.51095 2.34103,-2.61671 2.34149,-0.86207 2.9e-4,1.1 -0.64258,3.125 -1.4286,4.5 -0.78602,1.375 -1.44508,3.13224 -1.46456,3.90499 -0.0291,1.15496 0.27598,1.13193 1.71456,-0.12941 0.9625,-0.84392 3.2125,-2.27522 5,-3.18067 1.7875,-0.90545 3.25224,-2.19721 3.25497,-2.87059 0.003,-0.67338 1.16382,-2.57432 2.58019,-4.22432 2.36559,-2.75578 2.53435,-2.27854 0.75549,2.13645 -0.46532,1.15488 -0.24461,1.46945 0.75,1.06896 0.77514,-0.31211 3.77185,-1.3557 6.65935,-2.31907 4.26647,-1.42344 5.25,-2.17466 5.25,-4.00995 0,-3.04185 1.69312,-3.91863 2.52229,-1.30617 0.51208,1.61343 1.21283,1.96209 3.02789,1.50654 5.00578,-1.25637 7.44982,-2.5857 7.44982,-4.05201 0,-0.83861 0.1882,-1.52475 0.41821,-1.52475 0.23002,0 1.13002,-0.27314 2,-0.60699 1.05426,-0.40456 1.58179,-0.0486 1.58179,1.06739 0,1.27288 0.53952,1.50996 2.25,0.98871 1.2375,-0.37712 2.9642,-1.31085 3.83711,-2.07497 1.01928,-0.89223 2.68574,-1.16957 4.65779,-0.77516 2.46748,0.4935 3.29214,0.20032 4.19807,-1.49242 1.33851,-2.50103 3.05703,-2.77174 3.05703,-0.48156 0,1.27908 0.65098,1.4948 3.05804,1.01339 1.68192,-0.33638 3.73906,-1.29263 4.57142,-2.125 1.73216,-1.73215 3.37054,-1.98171 3.37054,-0.51339 0,2.15633 4.07462,0.93394 5,-1.5 1.02824,-2.70447 3,-3.40052 3,-1.05902 0,2.48242 1.79918,2.69095 3.8865,0.45047 1.21339,-1.30242 2.757,-1.95643 3.90749,-1.65557 1.04597,0.27352 2.98272,-0.10171 4.30388,-0.83385 1.32117,-0.73214 2.68715,-1.34711 3.0355,-1.36659 1.22497,-0.0685 1.64673,3.90206 0.5134,4.83327 -2.01195,1.65313 -11.69216,3.93076 -28.14677,6.6226 -22.99483,3.76176 -61.04853,16.31177 -72.5612,23.93049 -4.77557,3.16033 -5.63593,5.11653 -6.49584,14.76967 -1.00935,11.33064 2.22988,21.60741 14.25532,45.22646 3.78749,7.43897 6.39983,15.80785 9.39007,30.08207 2.26979,10.83503 2.37736,16.89003 0.47655,26.82466 -1.80698,9.44423 -4.44562,14.65462 -8.98821,17.74857 -3.98586,2.71477 -4.3569,4.35489 -1.7513,7.74153 l 1.78091,2.31476 7.54911,-4.07194 c 10.7875,-5.8187 25.68642,-11.71884 37.84459,-14.98689 5.775,-1.55229 15.675,-4.19971 22,-5.88316 6.325,-1.68345 15.55,-3.50629 20.5,-4.05076 8.96644,-0.98626 17.89467,-3.86603 44,-14.19203 11.86914,-4.69486 19.24441,-6.32625 38,-8.40549 7.7,-0.85362 16.475,-2.1991 19.5,-2.98995 3.025,-0.79084 9.31881,-1.75535 13.98624,-2.14333 8.8832,-0.73843 13.79215,-2.22909 15.96581,-4.84819 0.71106,-0.85678 1.9399,-1.55778 2.73076,-1.55778 1.05011,0 1.35421,-1.01139 1.12756,-3.75 -0.22779,-2.75218 -0.7095,-3.64541 -1.81037,-3.35693 -5.22977,1.37046 -8.31631,-1.40066 -3.78138,-3.39494 1.24833,-0.54897 2.40922,-1.74099 2.57976,-2.64893 0.27978,-1.48957 -0.0615,-1.51828 -3.49416,-0.29389 -8.3181,2.96694 -10.29158,0.53475 -2.30422,-2.83981 2.75,-1.16184 5,-2.52899 5,-3.03811 0,-0.50912 -1.53224,-4.35731 -3.40498,-8.55153 -1.87273,-4.19422 -4.19693,-10.18804 -5.16488,-13.31959 l -1.75991,-5.69372 -4.08511,2.8506 c -2.24682,1.56783 -5.66012,3.28713 -7.58512,3.82067 -1.925,0.53355 -7.86248,2.39353 -13.19439,4.13329 -20.55564,6.70714 -66.45909,17.34823 -86.30561,20.00689 -21.83125,2.92454 -40.80403,5.1053 -41.17645,4.73289 -0.22877,-0.22877 1.74235,-0.72085 4.38025,-1.0935 49.04315,-6.92826 89.19782,-15.28383 117.7962,-24.5116 6.6,-2.1296 14.55757,-4.59133 17.6835,-5.4705 6.95774,-1.95688 11.8165,-5.7826 11.8165,-9.30416 0,-4.54512 -2.29605,-10.45109 -4.35985,-11.21454 -1.33578,-0.49414 -1.60027,-0.9692 -0.81112,-1.45693 1.2636,-0.78094 1.66285,-4.99094 0.42097,-4.43899 -0.4125,0.18333 -4.87051,2.4479 -9.90668,5.03237 -11.117,5.70504 -44.00664,16.26139 -57.34332,18.40508 -5.225,0.83985 -17.825,3.04293 -28,4.89574 -10.56419,1.92368 -23.86204,3.63559 -31,3.99081 -6.875,0.34213 -18.00506,1.49669 -24.73346,2.56569 -20.65981,3.28241 -23.73496,2.25399 -5.05832,-1.69164 6.67172,-1.40947 18.0428,-2.79719 27.79178,-3.3917 9.075,-0.5534 20.55,-1.87976 25.5,-2.94747 4.95,-1.0677 16.425,-3.12542 25.5,-4.57269 18.82368,-3.00199 42.5208,-9.86889 67.76995,-19.63823 10.02693,-3.87959 9.94744,-3.68004 6.76189,-16.97482 -1.49442,-6.2369 -2.96557,-15.57534 -3.26923,-20.7521 -0.49109,-8.37214 -0.70632,-9.20096 -1.9476,-7.5 -4.45582,6.10593 -7.99117,8.41274 -5.36085,3.49794 1.44442,-2.69892 0.94857,-2.67922 -10.90136,0.4331 -5.19595,1.36469 -10.14595,2.46136 -11,2.43705 -2.83607,-0.0807 5.389,-3.74478 13.47708,-6.00369 12.81116,-3.57802 15.4677,-4.93234 15.48543,-7.89456 0.008,-1.40665 0.39492,-3.15635 0.85887,-3.88821 1.12204,-1.76995 2.12538,3.27967 2.12719,10.70566 10e-4,5.82471 1.71074,16.72811 4.4385,28.31214 2.3228,9.86431 2.32923,9.87519 5.08918,8.61767 1.29851,-0.59164 2.55259,-1.57726 2.78684,-2.19026 0.23425,-0.613 -0.66795,-5.38955 -2.00488,-10.61455 -1.33693,-5.225 -2.37744,-11.975 -2.31224,-15 0.19155,-8.88689 0.21269,-13.78514 0.11521,-26.69675 -0.0506,-6.70821 0.19222,-12.93762 0.5397,-13.84314 0.55052,-1.43463 0.13109,-1.39354 -3.26095,0.31944 -2.141,1.0812 -7.04273,2.99781 -10.89273,4.25913 -7.97417,2.61246 -9.49266,3.54317 -9.51803,5.83376 -0.0207,1.86812 -6.62935,7.6628 -10.3544,9.07906 -1.38078,0.52497 -6.02435,1.19061 -10.31904,1.4792 -7.6526,0.51424 -7.72865,0.49674 -3.80853,-0.87614 2.2,-0.77047 5.575,-1.45574 7.5,-1.52281 1.925,-0.0671 4.68143,-0.66416 6.12539,-1.32685 3.78024,-1.7349 8.87461,-6.33366 8.87461,-8.01123 0,-1.65763 -3.94961,-1.11846 -16.20061,2.21156 -9.18726,2.49725 -22.61355,4.97836 -33.15714,6.12728 -4.47824,0.48799 -15.79225,2.03829 -25.14225,3.4451 -9.35,1.40682 -21.725,3.20428 -27.5,3.99437 -12.15912,1.66352 -33.25029,5.79657 -40.5,7.93643 -2.75,0.81171 -15.35,3.76955 -28,6.573 -12.65,2.80344 -24.125,5.3783 -25.5,5.72191 -1.375,0.34362 -2.82171,0.5562 -3.2149,0.47242 C 78.7351,175.64459 49,184.46798 49,185.51312 c 0,0.24337 1.5198,3.46876 3.37733,7.16753 5.1526,10.26001 10.55078,28.1859 12.07594,40.10093 0.74796,5.84326 1.86073,20.29911 2.47282,32.12411 2.9371,56.74156 3.22135,60.63361 4.80525,65.79617 1.81079,5.90209 5.20355,10.20383 8.04772,10.20383 1.52714,0 1.80325,-0.60233 1.48979,-3.25 z m -0.85571,-20.09225 c 0.20425,-3.76324 0.83434,-7.30523 1.4002,-7.87109 1.12339,-1.12339 0.62956,4.96547 -0.90944,11.21334 -0.6705,2.72202 -0.77958,1.97911 -0.49076,-3.34225 z m 50.0708,-20.63177 c 1.16076,-1.87814 10.75808,-3.96579 23.32896,-5.0746 6.9779,-0.61549 18.62582,-2.00521 25.88426,-3.08829 7.25844,-1.08307 17.83344,-2.35282 23.5,-2.82168 5.66656,-0.46885 15.70284,-2.21587 22.30284,-3.88226 6.6,-1.66639 15.6,-3.53749 20,-4.15801 4.4,-0.62052 10.53191,-1.81832 13.62647,-2.66179 3.09456,-0.84347 6.46956,-1.35601 7.5,-1.13899 3.39345,0.71471 -9.65286,4.92685 -21.12647,6.8209 -6.05,0.99873 -15.59446,2.98079 -21.20992,4.40458 -5.61545,1.42379 -15.29045,3.02108 -21.5,3.54953 -6.20954,0.52845 -17.36508,1.87311 -24.79008,2.98812 -7.425,1.11502 -15.81778,2.02937 -18.65063,2.0319 -2.83284,0.003 -10.41506,0.90461 -16.84937,2.00461 -13.66618,2.33635 -12.7791,2.26061 -12.01606,1.02598 z m -48.32949,-8.52598 c -0.1,-1.65 -0.43158,-4.125 -0.73691,-5.5 -0.47745,-2.15012 -0.39726,-2.25267 0.57299,-0.73276 0.62048,0.97198 0.95209,3.44698 0.73691,5.5 -0.33777,3.22264 -0.41607,3.32278 -0.57299,0.73276 z m 46.52689,-68.07298 c 0.64973,-0.30135 7.17473,-1.80547 14.5,-3.34248 7.32526,-1.53702 18.94366,-4.19488 25.81866,-5.90637 6.875,-1.71149 22.175,-4.95545 34,-7.20879 34.63913,-6.60075 49.82012,-9.95794 61,-13.48981 5.775,-1.82439 14.76381,-4.67733 19.97514,-6.33985 5.21133,-1.66252 9.64244,-2.85548 9.84691,-2.65101 0.6754,0.67541 -7.21918,4.24267 -13.32205,6.01972 -3.3,0.96091 -10.725,3.22538 -16.5,5.03217 -12.46136,3.89871 -32.77928,8.74213 -46,10.96555 -5.225,0.87872 -11.3,2.07261 -13.5,2.65307 -2.2,0.58047 -10.75,2.32756 -19,3.88243 -8.25,1.55486 -22.65,4.39691 -32,6.31566 -16.767,3.44082 -27.1247,5.13925 -24.81866,4.06971 z M 67.6055,196.07639 c -1.64854,-2.66739 3.82592,-17.05996 5.75794,-15.13784 0.61065,0.60751 -3.23304,14.02942 -4.38275,15.30427 -0.41522,0.46043 -1.03406,0.38553 -1.37519,-0.16643 z M 149.5,190.74717 c 3.3,-1.07735 10.95,-2.62832 17,-3.44661 6.05,-0.81829 19.325,-2.80186 29.5,-4.40794 18.73635,-2.95746 34.91937,-4.71822 33.99367,-3.69862 -0.27849,0.30673 -5.22849,1.0761 -11,1.70971 -5.77152,0.63361 -16.11867,2.20704 -22.99367,3.49651 -6.875,1.28947 -18.575,3.05567 -26,3.92489 -7.425,0.86923 -15.975,2.25011 -19,3.06863 -7.73649,2.09337 -8.66574,1.69282 -1.5,-0.64657 z m -86.48469,-0.0325 c -0.008,-0.93004 0.43469,-1.9691 0.98469,-2.30902 1.2656,-0.78218 1.2656,0.54163 0,2.5 -0.8354,1.29269 -0.97149,1.26629 -0.98469,-0.19098 z m 48.65924,-14.5266 c -0.66278,-1.07239 1.842,-5.0992 2.66186,-4.27934 0.27497,0.27496 -0.0741,1.57255 -0.77572,2.88353 -0.70162,1.31097 -1.55038,1.93909 -1.88614,1.39581 z M 95.13682,325.90569 c 1.62716,0 5.85305,-10.77116 7.40229,-18.86733 1.81245,-9.47169 1.82725,-12.83795 0.0879,-19.98833 -0.75523,-3.10438 -1.949,-8.34434 -2.65289,-11.64434 l -1.27979,-6 -1.83785,8 c -1.01082,4.4 -2.46332,10.925 -3.22779,14.5 -0.76447,3.575 -1.92008,7.8363 -2.56804,9.46955 -1.75799,4.43125 -0.34012,25.85167 1.66037,25.08401 0.79341,-0.30446 1.88051,-0.55356 2.4158,-0.55356 z m -1.92776,-2.87079 c -0.95422,-0.58974 -0.97362,-1.50616 -0.0858,-4.05302 0.92403,-2.65066 0.87772,-3.4629 -0.23802,-4.17467 -1.43257,-0.91389 0.46807,-5.16457 6.78041,-15.16396 3.69621,-5.85517 3.91128,-3.82347 0.34346,3.24436 -1.71701,3.40137 -3.56992,7.36287 -4.11758,8.80333 -0.98528,2.59148 -0.97417,2.5995 1.05635,0.7619 2.52556,-2.2856 2.56131,-1.41632 0.21568,5.24432 -2.14753,6.09812 -2.32864,6.34258 -3.95452,5.33774 z m 0.37139,-20.99905 c -1.11694,-1.80723 3.87162,-18.13016 5.54087,-18.13016 1.3643,0 1.03935,5.08666 -0.70708,11.0685 -1.71746,5.88262 -3.73809,8.83455 -4.83379,7.06166 z m 0.39669,-25.38016 c 0.57983,-2.3375 1.56415,-5.9222 2.18739,-7.96601 0.94578,-3.10155 0.82545,-4.50704 -0.72774,-8.5 l -1.86089,-4.78399 -1.19195,5 c -0.65558,2.75 -1.21754,6.125 -1.24881,7.5 -0.0507,2.22735 0.10414,2.12905 1.41935,-0.90132 0.81192,-1.87072 1.70987,-3.16766 1.99544,-2.88208 0.48841,0.48841 -0.63134,7.9152 -2.11584,14.0334 -0.36698,1.5125 -0.40713,2.75 -0.0892,2.75 0.31792,0 1.05244,-1.9125 1.63226,-4.25 z m 232.0886,-6.78518 C 327.40028,269.15628 328,267.77305 328,265.40923 c 0,-5.04268 -3.57615,-19.50488 -6.34331,-25.65282 -3.03346,-6.73958 -3.75714,-9.20113 -7.67346,-26.10072 -1.75253,-7.5625 -3.33641,-13.75 -3.51973,-13.75 -1.5994,0 -5.4635,2.19086 -5.4635,3.09769 0,0.77393 0.54898,0.70064 1.68723,-0.22525 1.50468,-1.22394 1.59228,-1.15604 0.80965,0.62756 -1.23371,2.81162 -1.04408,7.13944 0.58057,13.25 1.16342,4.37581 1.77273,5.25 3.6592,5.25 2.79778,0 2.9918,1.99674 0.26335,2.71025 -1.1,0.28766 -2,1.07508 -2,1.74983 0,3.38126 8.64796,24.4283 10.69948,26.03992 0.75084,0.58984 1.54419,4.58886 1.93426,9.75 0.36372,4.8125 0.84951,8.75 1.07953,8.75 0.23002,0 1.28863,-0.46583 2.35247,-1.03518 z M 88.7096,256.79582 c -0.4808,-0.33543 -0.57914,-2.58543 -0.21855,-5 0.41504,-2.77917 0.18128,-5.49098 -0.63703,-7.39013 l -1.29266,-3 -0.34959,4.48357 c -0.19228,2.46597 -0.77709,4.74778 -1.29958,5.0707 -0.57227,0.35368 -0.33943,2.34827 0.58558,5.01643 2.59092,7.47341 2.76092,7.69159 3.45121,4.4293 0.34913,-1.65 0.24141,-3.27444 -0.23938,-3.60987 z m -4.44078,-13.93786 c 0.41677,-4.243 0.15525,-6.06569 -1.11195,-7.7501 -1.58948,-2.11277 -1.64482,-1.92779 -1.36057,4.54774 0.47941,10.92146 1.57494,12.34037 2.47252,3.20236 z M 80.2933,232.17047 c 0.29266,-1.52063 0.045,-5.19814 -0.55027,-8.17225 -0.9095,-4.54378 -1.21415,-5.05126 -1.90738,-3.17728 -1.77395,4.79544 -0.92697,15.87726 1.11694,14.61405 0.44474,-0.27486 1.04805,-1.74389 1.34071,-3.26452 z M 44.5,186.90569 c 0.35191,-0.5694 -0.50929,-1 -2,-1 -1.49071,0 -2.35191,0.4306 -2,1 0.33992,0.55 1.23992,1 2,1 0.76008,0 1.66008,-0.45 2,-1 z m -4.5,-8.5 c 0.60591,-1.59366 0.59693,-3.42994 -0.0248,-5.0651 -1.26617,-3.33027 -1.26213,-11.4349 0.006,-11.4349 0.53952,0 1.24049,1.2375 1.55771,2.75 0.31723,1.5125 1.0008,4.63677 1.51906,6.94282 0.51825,2.30605 0.94228,5.25017 0.94228,6.54249 0,2.30234 0.11032,2.32946 5.47687,1.34636 l 5.47688,-1.00331 -1.56974,-2.39573 c -0.86336,-1.31765 -2.38564,-5.16028 -3.38285,-8.53918 -0.9972,-3.3789 -4.11732,-11.76845 -6.93358,-18.64345 -7.40485,-18.07656 -12.70979,-35.35626 -16.09942,-52.440367 -2.55356,-12.8702 -1.94727,-16.61476 3.45862,-21.3612 3.66266,-3.21585 16.78633,-8.70169 24.39181,-10.19603 2.57478,-0.5059 7.15641,-1.61682 10.18141,-2.46872 13.89607,-3.91339 21.12381,-5.41697 29,-6.03283 17.18663,-1.34387 59.81858,-7.79915 92.5,-14.00623 7.15,-1.35798 22,-3.60136 33,-4.98528 22.19397,-2.79226 24.25179,-3.13315 30,-4.96965 2.2,-0.70288 6.3625,-1.57735 9.25,-1.94327 4.83097,-0.6122 5.25,-0.50293 5.25,1.36914 0,1.59057 0.64986,2.03444 2.97856,2.03444 2.81556,0 2.91612,-0.13704 1.83756,-2.50423 -1.45995,-3.20424 -0.3768,-4.31316 2.05941,-2.10841 3.98547,3.60679 5.92091,14.79639 8.0625,46.61264 0.81949,12.17469 1.62436,16.72422 5.01899,28.369637 4.42567,15.18246 4.88356,19.06057 2.41368,20.44278 -3.04526,1.70422 -1.10981,3.05175 2.6293,1.83062 2.42566,-0.79218 3.59809,-1.83369 3.81955,-3.39304 0.20536,-1.44596 1.0094,-2.25 2.25,-2.25 1.90952,0 2.32365,0.8786 1.98817,4.218 -0.15001,1.49322 0.22949,1.57784 2.90047,0.64673 5.258,-1.83303 6.04156,-4.02183 6.04156,-16.87714 0,-7.23903 -0.58163,-13.797577 -1.55437,-17.527487 -1.51489,-5.8087 -2.66616,-13.17455 -4.44825,-28.4601 -1.09088,-9.35686 -3.2502,-18.64468 -5.23801,-22.53008 -0.83568,-1.63346 -3.21891,-7.91992 -5.29606,-13.96992 -2.07715,-6.05 -4.21123,-11.5625 -4.74241,-12.25 -1.40456,-1.8179 -7.93156,-1.53127 -14.50245,0.63687 -7.5674,2.49696 -21.06813,4.83707 -35.21845,6.10451 -6.325,0.56653 -16.45,1.6841 -22.5,2.48351 -6.05,0.7994 -18.2,2.15856 -27,3.02035 -19.45551,1.90528 -33.92944,4.49696 -50.62079,9.06405 -6.94143,1.89932 -17.30503,4.11085 -23.03023,4.91453 -5.72519,0.80367 -13.54584,2.1034 -17.37921,2.88828 C 90.6364,44.052683 84.35,44.997273 80.5,45.366893 62.22025,47.121863 45.8483,50.234553 32.74924,54.445433 11.56733,61.254673 5,65.304343 5,71.556693 c 0,4.26736 2.09707,11.33274 6.48498,21.849 3.62301,8.683057 6.0037,17.146187 7.03253,24.999997 0.36024,2.75 1.49331,8.15 2.51792,12 1.02461,3.85 2.37055,10.825 2.99097,15.5 2.04777,15.43037 6.07155,29.21241 9.70761,33.25 2.27137,2.5222 5.15304,2.17728 6.26599,-0.75 z m -4.88094,-23.25 c -0.52692,-2.0625 -1.23337,-5.775 -1.56989,-8.25 l -0.61186,-4.5 1.60062,2.82127 c 1.47275,2.59588 4.42591,11.17339 4.45125,12.92873 0.006,0.4125 -0.64684,0.75 -1.45064,0.75 -0.85181,0 -1.86109,-1.56431 -2.41948,-3.75 z m -7.99482,-30.32346 c -1.50801,-4.32586 -1.45272,-8.2027 0.10954,-7.68195 1.6255,0.54184 3.23949,8.68214 1.97261,9.94902 -0.61056,0.61056 -1.36559,-0.21153 -2.08215,-2.26707 z M 21.07185,98.368183 c -2.31508,-6.18761 -2.6192,-8.81161 -0.95703,-8.25755 1.25695,0.41898 4.88312,9.36127 4.88437,12.045057 0.002,3.47009 -1.89699,1.63908 -3.92734,-3.787507 z M 78.9481,168.83253 c 10.84185,-1.36052 22.59027,-4.0209 41.5519,-9.40927 8.25,-2.34442 17.025,-4.57173 19.5,-4.94957 8.65925,-1.32195 19.56279,-3.74862 27,-6.00908 21.00229,-6.3834 21.48598,-6.49517 41.5,-9.58888 3.85,-0.59512 10.15,-1.50009 14,-2.01104 3.85,-0.51095 8.78049,-1.35933 10.95664,-1.88529 2.17615,-0.52597 9.82615,-1.51759 17,-2.20362 8.53663,-0.81635 13.31967,-1.70044 13.84305,-2.55871 0.43983,-0.72126 1.61808,-1.31138 2.61833,-1.31138 1.35329,0 1.95054,-0.98337 2.33411,-3.84309 0.62914,-4.69057 4.9015,-14.25972 5.42571,-12.15239 0.20584,0.82748 -0.26842,3.63998 -1.05392,6.25 -1.12451,3.73643 -1.15953,4.74548 -0.16472,4.74548 0.83112,0 1.08813,0.91714 0.75109,2.68026 l -0.51236,2.68026 3.40103,-2.01286 c 3.39081,-2.0068 3.40035,-2.03365 3.1718,-8.93026 -0.23807,-7.18405 -1.4056,-14.01165 -3.20557,-18.745937 -1.02674,-2.70052 -1.13238,-2.59182 -5.3811,5.536967 -2.38358,4.56036 -5.15258,10.4391 -6.15331,13.06386 -1.00074,2.62477 -2.05203,4.53979 -2.33621,4.25561 -0.92705,-0.92704 2.08278,-11.89706 4.8091,-17.5279 1.46464,-3.025 3.6604,-8.013957 4.87947,-11.086587 l 2.2165,-5.58659 -1.98462,-5.03502 c -2.46278,-6.24811 -9.37742,-15.6347 -12.59842,-17.10228 -1.32595,-0.60415 -3.14612,-2.22066 -4.04483,-3.59225 -0.8987,-1.3716 -3.63979,-3.25983 -6.09131,-4.19607 -3.82166,-1.45951 -5.22035,-1.5315 -9.80796,-0.50484 -5.05745,1.13181 -10.5725,0.71205 -10.5725,-0.80469 0,-0.94828 10.74198,-3.09167 15.49447,-3.09167 3.97738,0 12.50553,3.46631 12.50553,5.08293 0,0.49749 1.9125,2.27901 4.25,3.95894 2.3375,1.67993 5.375,4.68418 6.75,6.67611 3.16399,4.58361 5.45739,5.61525 4.00794,1.8029 C 272.45357,69.968483 272,64.142593 272,58.480163 c 0,-5.66243 -0.27632,-12.31129 -0.61404,-14.77525 -0.54326,-3.96351 -1.00458,-4.62114 -4.00198,-5.70501 -2.75005,-0.99443 -4.84674,-0.94177 -11.13596,0.27968 -8.63344,1.67673 -16.89992,2.9968 -31.74802,5.06981 -9.36231,1.30712 -44.74032,7.88596 -48.36059,8.99307 -5.42817,1.65997 -21.64023,3.84647 -34.13941,4.60432 -24.64436,1.49425 -52.21222,3.85329 -58.5,5.00598 -6.62345,1.21423 -39.60506,11.23744 -46.1334,14.02007 -4.15541,1.77121 -8.03284,5.85955 -6.52825,6.88337 1.24397,0.84647 2.16228,3.85189 3.78084,12.37383 1.44694,7.618297 7.82736,28.171597 9.36751,30.175657 0.42269,0.55 1.10523,2.125 1.51676,3.5 0.41152,1.375 2.4916,6.07837 4.62238,10.45193 2.13079,4.37357 3.87416,9.01556 3.87416,10.31554 0,3.06816 6.5667,17.36132 8.72113,18.98253 2.03257,1.52951 5.17481,1.56375 16.22697,0.17684 z m 7.30207,-21.21135 c -2.88741,-1.21852 -6.57208,-3.38797 -8.18816,-4.82099 -2.25248,-1.99735 -4.37961,-2.7362 -9.11316,-3.16542 -5.60597,-0.50833 -6.52025,-0.93033 -9.92407,-4.58059 -5.0839,-5.452 -6.72704,-14.956 -3.62338,-20.95782 2.37732,-4.59722 10.10778,-9.43136 15.30623,-9.57155 l 4.52005,-0.12189 4.33594,-8.498617 c 2.38476,-4.67423 4.35853,-8.15112 4.38616,-7.72641 0.0276,0.42471 -1.73451,4.32184 -3.91584,8.66029 l -3.96606,7.888097 2.20214,4.0203 c 2.56587,4.68434 1.854,6.02186 -2.35871,4.43173 -2.77403,-1.04707 -3.08748,-0.93945 -3.96184,1.36027 C 71.42726,115.9121 71,117.90659 71,118.97079 c 0,1.06419 -0.40122,1.9349 -0.89159,1.9349 -0.49038,0 -1.18728,1.1781 -1.54867,2.618 -0.36139,1.4399 -0.90149,2.37359 -1.20021,2.07487 -0.63474,-0.63475 1.28897,-7.02003 3.26795,-10.84716 1.83794,-3.55437 1.76134,-3.84571 -1.01112,-3.84571 -1.52401,0 -3.72769,1.48771 -6.11052,4.12522 -3.22076,3.56499 -3.65018,4.59789 -3.16207,7.60577 0.77863,4.79813 3.57472,9.00717 4.75039,7.1509 0.65141,-1.02853 0.87913,-0.80655 0.89053,0.86811 0.01,1.47628 0.61709,2.24473 1.76531,2.23469 3.22493,-0.0282 4.74557,-1.77578 4.51977,-5.19423 -0.21724,-3.28889 -0.21685,-3.28917 0.82105,-0.59664 0.70779,1.83618 1.53213,2.50436 2.58919,2.09873 1.23183,-0.4727 1.41357,-0.10121 0.88361,1.80618 -0.64457,2.31989 -0.61443,2.33527 0.88929,0.45373 0.85606,-1.07115 1.29903,-2.75865 0.98439,-3.75 -0.42713,-1.34579 -0.04033,-1.80246 1.5267,-1.80246 1.15432,0 2.32801,0.5974 2.6082,1.32755 0.69447,1.80975 -1.26453,6.70175 -3.74358,9.34842 -1.12099,1.19679 -1.73323,2.66936 -1.36054,3.27238 0.37269,0.60302 3.332,2.43634 6.57625,4.07403 6.7026,3.38346 11.26281,3.71733 20.45567,1.49762 3.3,-0.79682 9.825,-1.46966 14.5,-1.4952 4.675,-0.0256 10.70902,-0.71658 13.40893,-1.53562 2.69991,-0.81905 5.62491,-1.45712 6.5,-1.41794 3.88256,0.17385 -12.20611,3.87508 -19.40893,4.46507 -4.4,0.36041 -10.475,1.24423 -13.5,1.96405 -10.7226,2.55153 -14.12564,2.5886 -19.74983,0.21513 z M 73,134.88664 c 0,-0.60496 -1.11746,-0.75097 -2.75,-0.35933 -3.92599,0.94185 -4.05794,1.37838 -0.41667,1.37838 1.74167,0 3.16667,-0.45857 3.16667,-1.01905 z m 69.8125,5.33594 c 0.72187,-0.28887 1.58437,-0.25335 1.91667,0.0789 0.33229,0.33229 -0.25834,0.56864 -1.3125,0.52522 -1.16495,-0.048 -1.4019,-0.28494 -0.60417,-0.60416 z m 7.6875,-1.37426 c 5.06556,-1.04778 9.15859,-1.00081 5,0.0574 -1.65,0.41985 -4.35,0.76486 -6,0.76669 -2.52234,0.003 -2.36313,-0.12842 1,-0.82406 z m -66.47005,-0.19931 c -0.0165,-0.41617 1.60424,-4.88929 3.60159,-9.94025 l 3.63155,-9.18357 -1.27707,-8.20934 c -0.70238,-4.51514 -1.04095,-8.82464 -0.75237,-9.57667 0.28858,-0.75203 3.31536,-1.986427 6.72617,-2.743117 4.11145,-0.91212 6.59558,-2.04293 7.37083,-3.35531 3.62349,-6.13395 9.62959,-15.12196 9.64795,-14.43796 0.0118,0.43841 -1.81927,4.15091 -4.06899,8.25 l -4.09038,7.4529 h 2.89038 c 1.58972,0 3.43039,0.54 4.09039,1.2 1.43215,1.43215 1.60542,12.173947 0.23759,14.729757 -0.52932,0.98905 -3.67932,2.81433 -7,4.05618 C 101.71692,118.13348 99,119.52801 99,119.99059 c 0,0.46258 0.83681,2.99522 1.85958,5.62808 1.91562,4.9313 1.8502,7.28702 -0.20237,7.28702 -0.64686,0 -1.75954,0.93421 -2.47261,2.07601 -1.73723,2.78175 -3.75436,1.10057 -4.63331,-3.86164 -1.45075,-8.19036 -1.66346,-8.17967 -5.68804,0.28563 -2.09184,4.4 -3.81683,7.65949 -3.8333,7.24332 z m 19.62341,-25.67312 c 5.21489,-2.36788 6.39525,-5.37361 3.1729,-8.07961 -1.27944,-1.07442 -2.98908,-1.84552 -3.7992,-1.71356 -1.70238,0.27731 -5.98628,7.38529 -6.01061,9.97297 -0.0209,2.2193 1.44044,2.17971 6.63691,-0.1798 z M 98,105.82155 c 0,-0.72052 -3.07246,-2.18069 -3.55482,-1.6894 -0.14772,0.15045 -0.0171,1.58268 0.29013,3.18274 0.52231,2.71968 0.64684,2.78866 1.9117,1.05887 C 97.39115,107.35608 98,106.20758 98,105.82155 Z m 144.63948,24.39029 C 242.28777,129.86012 242,128.80539 242,127.86798 c 0,-1.77293 7.998,-20.43123 10.79421,-25.18152 1.8891,-3.209247 0.84598,-5.000677 -1.28554,-2.20777 -1.2738,1.66905 -1.60502,1.72621 -2.47435,0.427 -1.64668,-2.460927 -1.18129,-5.498627 1.39449,-9.102117 C 254.57799,85.998893 258,79.730493 258,77.934723 c 0,-5.21057 -7.97895,-6.3641 -10.20632,-1.47555 -1.48891,3.2678 -3.21319,2.60758 -3.60709,-1.38114 -0.26517,-2.68523 0.11956,-3.34367 2.5,-4.27854 4.32584,-1.6989 10.08891,-1.40695 12.33399,0.62482 1.39926,1.26632 1.97942,3.07654 1.97942,6.17621 0,4.19356 -2.83763,11.46875 -4.99282,12.80073 -0.56177,0.3472 -1.69822,1.94008 -2.52544,3.53975 -1.47112,2.84484 -1.45455,2.8907 0.75711,2.09564 1.24363,-0.44707 3.72365,-3.01678 5.51115,-5.71046 3.18555,-4.80049 4.56445,-4.34386 1.75,0.57951 -2.10277,3.67842 -1.89589,4 2.57332,4 3.34021,0 4.01308,0.31497 3.7386,1.75 -0.24348,1.2729 -1.62536,1.89871 -5.06879,2.29546 -2.60373,0.30001 -5.10078,0.97501 -5.549,1.499997 -1.62426,1.90249 -11.19904,23.22907 -11.81771,26.32244 -0.66012,3.30058 -1.64161,4.53357 -2.73694,3.43825 z m -113.6043,-5.24041 C 128.46583,123.90759 128,121.39568 128,119.3894 c 0,-2.00627 -1.15173,-6.98462 -2.55939,-11.06299 -2.07612,-6.01505 -2.40124,-8.21825 -1.7218,-11.667967 0.79829,-4.05313 1.09444,-4.33887 6.3094,-6.0875 3.00948,-1.00911 8.39679,-2.06885 11.97179,-2.35498 5.98537,-0.47903 6.6842,-0.32222 8.82647,1.98061 2.63136,2.82856 2.74509,8.20912 0.17353,8.20912 -1.93326,0 -2.96547,1.44469 -2.98469,4.177417 -0.008,1.19758 -1.14628,3.06704 -2.52859,4.15436 l -2.51327,1.97695 5.26327,4.20964 c 2.89481,2.3153 5.82578,4.43148 6.51328,4.70262 1.76662,0.69673 1.55926,4.27901 -0.24769,4.27901 -1.69372,0 -10.47005,-5.9271 -15.01685,-10.14165 -2.14747,-1.99054 -3.65753,-2.62611 -5.25,-2.20967 -2.5358,0.66312 -2.81871,3.1097 -1.18096,10.21265 1.37948,5.98283 -1.56337,9.79338 -4.01932,5.20441 z M 139.25,104.26976 c 4.56244,-1.38463 4.74903,-1.5881 4.7254,-5.152807 -0.0213,-3.20477 -0.48399,-3.93952 -3.39065,-5.3838 -3.05942,-1.52018 -3.83149,-1.5361 -8.4754,-0.17478 -2.81014,0.82377 -5.10935,1.63234 -5.10935,1.79681 0,0.26461 2.19271,6.736347 3.5251,10.404257 0.30554,0.84113 1.15125,1.08833 2.23333,0.65282 0.95786,-0.38552 3.87907,-1.34964 6.49157,-2.1425 z m 39.38837,11.13593 c -0.42366,-1.10404 0.14204,-1.5058 2.14301,-1.52196 2.43911,-0.0197 2.28009,-0.22101 -1.54662,-1.95793 -3.94685,-1.79145 -6.21475,-4.37346 -4.95123,-5.63697 0.29184,-0.29184 1.95289,0.20488 3.69122,1.1038 3.90929,2.02157 6.87167,1.65564 8.67263,-1.07128 1.21459,-1.83907 1.10626,-2.48547 -0.92057,-5.49308 -1.26343,-1.874797 -3.18132,-3.568027 -4.26198,-3.762717 -4.01598,-0.72353 -4.02761,-2.18763 -0.0439,-5.53212 4.26703,-3.58243 4.17348,-5.62774 -0.25744,-5.62774 -3.78309,0 -7.16349,2.62217 -7.16349,5.5567 0,3.00405 -1.66333,3.1375 -4.09922,0.32889 -1.64396,-1.89549 -1.68654,-2.3992 -0.41135,-4.86515 2.79543,-5.40577 11.39369,-7.2941 17.74216,-3.8965 2.23393,1.19557 2.30308,5.66771 0.13548,8.76238 -0.89811,1.28224 -1.23561,2.61986 -0.75,2.97251 C 189.4015,96.786533 192,102.19344 192,105.9652 c 0,3.37546 -0.62821,4.7687 -3.4,7.54049 -3.68308,3.68308 -8.89587,4.67733 -9.96163,1.9 z m 56.40419,-6.03884 c -0.0522,-2.49894 16.05167,-35.383507 16.60253,-33.902927 0.21655,0.58203 -3.42085,8.90703 -8.08311,18.5 -4.66227,9.592967 -8.496,16.524287 -8.51942,15.402927 z M 56.51874,106.90569 c 0.9054,-5.98843 15.18995,-33.853487 18.95716,-36.979997 2.56194,-2.12622 1.78907,-0.27691 -5.36799,12.84444 -3.79065,6.94956 -8.518,16.01056 -10.50522,20.135557 -2.85101,5.91804 -3.50151,6.76175 -3.08395,4 z m 146.64251,-2.44089 c -2.25141,-2.4425 -4.30933,-5.479997 -4.57315,-6.749997 -2.00554,-9.65445 -0.009,-21.2044 3.97874,-23.02152 6.17918,-2.81542 13.08994,2.29266 16.93974,12.52098 1.56797,4.16588 1.64987,5.50177 0.61272,9.99493 -0.65843,2.852497 -2.19214,6.648067 -3.40823,8.434597 -1.8081,2.65624 -2.8713,3.24948 -5.83371,3.25507 -3.00937,0.006 -4.31562,-0.74496 -7.71611,-4.43406 z M 213.5,103.14038 c 3.84471,-2.82467 4.5985,-11.253347 1.52252,-17.024527 -3.02992,-5.68478 -4.98422,-7.88928 -5.81201,-6.5561 -0.39078,0.62937 -1.81706,1.30218 -3.16952,1.49512 -2.70906,0.3865 -3.7764,2.86452 -3.94131,9.15048 -0.20878,7.95856 7.0161,16.156057 11.40032,12.935027 z m 19.10699,-2.81648 c -1.19563,-3.115767 -0.64975,-5.418207 1.2846,-5.418207 1.94135,0 3.7284,4.18781 2.57999,6.045987 -0.92079,1.48987 -3.19365,1.12066 -3.86459,-0.62778 z M 230.38,83.453583 c -0.71221,-1.85601 0.32689,-3.54789 2.17902,-3.54789 0.87038,0 1.44098,0.98995 1.44098,2.5 0,2.74771 -2.67102,3.52089 -3.62,1.04789 z m -83.29667,-10.94117 c 0.94217,-0.88927 22.22278,-4.74187 36.69699,-6.64355 9.63277,-1.26559 18.90376,-3.15816 24.49223,-4.99981 7.67398,-2.52891 19.22014,-4.12271 17.51516,-2.41774 -1.23377,1.23378 -29.36949,7.35248 -40.8934,8.89313 -6.81687,0.91136 -17.02965,2.53547 -22.69507,3.60913 -9.56938,1.81351 -16.09916,2.4869 -15.11591,1.55884 z M 56.65289,162.26406 c -1.35503,-3.2221 -3.13992,-8.45113 -3.96641,-11.62006 -0.8265,-3.16893 -2.50254,-7.44393 -3.72453,-9.5 -4.65124,-7.82593 -11.93814,-27.66592 -15.36975,-41.847117 -0.83201,-3.43827 -1.46026,-4.79583 -1.50889,-3.26047 -0.0458,1.4469 1.71205,9.750537 3.90638,18.452517 3.26125,12.93305 5.34331,18.66046 11.40357,31.36928 4.07763,8.55111 8.13818,17.30407 9.02344,19.45102 0.88525,2.14695 1.85488,3.65821 2.15472,3.35837 0.29984,-0.29984 -0.56349,-3.18143 -1.91853,-6.40354 z m 311.49504,-10.87042 c -4.34947,-2.48646 -8.80594,-3.36165 -7.65777,-1.50387 0.55742,0.90192 8.66527,3.79916 11.00984,3.93422 0.55,0.0317 -0.95843,-1.06197 -3.35207,-2.43035 z m 33.15173,-2.10492 c 4.36445,-2.20515 7.65136,-5.3471 7.09916,-6.78611 -0.4409,-1.14896 1.65165,-5.57717 7.60657,-16.09692 2.64321,-4.6694 6.59887,-17.22908 5.70713,-18.12082 -0.21977,-0.21976 -1.2145,1.40761 -2.21052,3.61638 -0.99601,2.20877 -2.43764,4.53606 -3.20361,5.17176 -0.76596,0.63569 -2.49894,3.49428 -3.85105,6.35241 -3.0871,6.52559 -11.14375,17.2359 -16.13992,21.456 -2.84701,2.40479 -3.24212,3.04942 -1.56637,2.55559 3.18972,-0.93998 4.80442,0.33785 2.56879,2.03288 -2.55497,1.93714 0.0295,1.81978 3.98982,-0.18117 z M 322,147.78766 c 0,-0.55 -0.45,-0.72189 -1,-0.38197 -0.55,0.33992 -1,1.06803 -1,1.61803 0,0.55 0.45,0.72189 1,0.38197 0.55,-0.33992 1,-1.06803 1,-1.61803 z m -111.5,-3.42548 c 23.66163,-3.77647 34.35542,-5.3666 43.5,-6.46831 4.675,-0.56323 10.75,-1.68612 13.5,-2.49532 3.643,-1.07197 4.0501,-1.34079 1.5,-0.9905 -1.925,0.26443 -9.82233,1.14499 -17.54961,1.95679 -7.72729,0.81181 -16.27729,1.90474 -19,2.42874 -2.72272,0.524 -10.12539,1.70184 -16.45039,2.61742 -19.82146,2.86929 -28.37733,4.47202 -29.4156,5.51029 -1.21745,1.21745 3.24578,0.73986 23.9156,-2.55911 z m 178,0.19581 c 10.47299,-5.80177 20.7426,-20.51682 23.83484,-34.1523 4.40098,-19.406497 4.45355,-22.320617 0.66343,-36.774507 -3.48524,-13.29123 -5.04299,-16.89242 -10.49747,-24.26797 -7.26512,-9.82391 -12.83774,-14.14182 -22.0105,-17.05471 -9.02111,-2.86474 -12.65128,-2.95575 -22.20811,-0.5568 -7.92254,1.98871 -11.13641,1.41503 -7.05485,-1.25932 2.70954,-1.77535 14.41746,-4.54146 19.34029,-4.56933 3.90379,-0.0221 15.49811,3.09373 21.73432,5.84081 2.64107,1.16341 7.25357,4.56691 10.25,7.56334 6.09555,6.09555 7.2659,6.06224 2.02745,-0.0577 -4.45176,-5.20089 -18.8309,-13.91869 -24.32189,-14.7459 -5.14814,-0.77557 -19.90308,0.79071 -26.83154,2.84824 -5.31592,1.57866 -17.60269,9.64162 -15.67273,10.28494 0.61864,0.20621 2.32183,-0.40938 3.78485,-1.368 C 344.99898,34.021113 359,33.257363 359,35.336233 c 0,0.74552 -0.72169,1.63242 -1.60375,1.9709 -1.06275,0.40781 -1.36397,1.20292 -0.89294,2.35699 0.78973,1.9349 4.33073,14.34713 10.33911,36.24157 2.18853,7.975 4.88624,16.975 5.9949,20 3.27777,8.943457 8.61808,32.006107 9.5382,41.191667 0.54003,5.39115 -0.13994,6.23405 -5.86289,7.26778 -3.7283,0.67344 -3.86208,0.81186 -2.05887,2.13039 3.08388,2.25499 7.60356,1.63155 14.04624,-1.93754 z m -52.69313,-8.17876 c -0.30789,-0.30789 -0.86705,0.24711 -1.24258,1.23333 -0.54268,1.4252 -0.42782,1.54006 0.5598,0.5598 0.68342,-0.67834 0.99067,-1.48524 0.68278,-1.79313 z m 41.87624,-0.66104 c -0.31922,-0.79773 -0.55618,-0.56078 -0.60416,0.60417 -0.0434,1.05416 0.19293,1.64479 0.52522,1.3125 0.33229,-0.3323 0.36781,-1.1948 0.0789,-1.91667 z M 346.5,131.89199 c 0,-2.1435 -2.90567,-1.8339 -3.32712,0.35451 -0.25736,1.3364 0.14991,1.74367 1.48631,1.48631 1.01244,-0.19498 1.84081,-1.02335 1.84081,-1.84082 z m -5.5,-3.9863 c 0.5887,-1.1 0.84537,-2 0.57037,-2 -0.275,0 -0.98167,0.9 -1.57037,2 -0.5887,1.1 -0.84537,2 -0.57037,2 0.275,0 0.98167,-0.9 1.57037,-2 z m -2.00497,-6.25 c 0.003,-0.4125 -0.43347,-0.75 -0.96935,-0.75 -0.97177,0 -4.05796,5.18295 -3.98972,6.70034 0.0443,0.98418 4.95215,-4.90474 4.95907,-5.95034 z m 13.00497,4.25 c 0,-0.55 -0.70156,-1 -1.55902,-1 -0.85746,0 -1.2809,0.45 -0.94098,1 0.33992,0.55 1.04148,1 1.55902,1 0.51754,0 0.94098,-0.45 0.94098,-1 z m 3.55385,-5.08713 c 1.03052,-1.66742 -1.28721,-3.57951 -2.66672,-2.2 -1.15392,1.15392 -0.43172,3.28713 1.11287,3.28713 0.48508,0 1.18431,-0.48921 1.55385,-1.08713 z m -26.21171,-2.91492 c 1.83132,-3.10017 1.52976,-4.99795 -0.79417,-4.99795 -1.55802,0 -2.54797,2.16866 -2.54797,5.58179 0,3.25479 1.19826,3.04547 3.34214,-0.58384 z M 350,115.84667 c 0,-0.51754 -0.45,-0.94098 -1,-0.94098 -0.55,0 -1,0.70156 -1,1.55902 0,0.85746 0.45,1.2809 1,0.94098 0.55,-0.33992 1,-1.04148 1,-1.55902 z M 12.10057,106.84333 c -0.92404,-2.3131 -0.97704,-2.32686 -1.03718,-0.26943 -0.0349,1.19252 0.26082,2.99252 0.65707,4 0.5927,1.50697 0.77662,1.55475 1.03718,0.26943 0.17421,-0.8593 -0.12147,-2.6593 -0.65707,-4 z m 336.05324,0.81236 c 0.84484,-0.6875 2.56117,-2.74717 3.81408,-4.57704 1.68496,-2.46089 1.98567,-3.619397 1.15507,-4.449997 -1.36265,-1.36265 -1.9779,-0.75379 -5.58504,5.527037 -2.67361,4.65537 -2.43941,5.9863 0.61589,3.5 z M 358,104.22423 c 0,-1.27119 -0.27832,-1.33244 -1.48899,-0.32768 -0.81894,0.67967 -1.23785,1.64211 -0.9309,2.13876 0.7889,1.27647 2.41989,0.0558 2.41989,-1.81108 z m -13.68468,-3.61735 c -0.27903,-0.45148 -1.09922,-0.0114 -1.82265,0.97794 -0.72342,0.98935 -1.08702,2.1682 -0.80799,2.61968 0.27903,0.45148 1.09922,0.0114 1.82265,-0.97794 0.72342,-0.98935 1.08702,-2.1682 0.80799,-2.61968 z m -4.70025,-4.261927 c -0.30377,-0.79159 -0.96828,-1.43926 -1.4767,-1.43926 -1.57293,0 -2.2371,3.17611 -0.98074,4.68994 1.02842,1.239157 1.31695,1.213407 2.10094,-0.18749 0.49983,-0.89316 0.66026,-2.27159 0.3565,-3.06319 z M 328,95.964713 c 0,-0.51754 -0.45,-1.2191 -1,-1.55902 -0.55,-0.33992 -1,0.0835 -1,0.94098 0,0.85746 0.45,1.55902 1,1.55902 0.55,0 1,-0.42344 1,-0.94098 z m 28,-1.5 c 0,-0.24254 -0.45,-0.7191 -1,-1.05902 -0.55,-0.33992 -1,-0.14148 -1,0.44098 0,0.58246 0.45,1.05902 1,1.05902 0.55,0 1,-0.19844 1,-0.44098 z M 31.54897,88.244783 c -0.94764,-3.77569 -1.87068,-2.06773 -0.99409,1.8394 0.40987,1.82683 0.94663,2.7397 1.1928,2.0286 0.24618,-0.7111 0.15676,-2.4517 -0.19871,-3.868 z m 327.0671,0.84841 C 357.2176,87.694723 357,87.681013 357,88.991403 c 0,2.05451 2.33994,4.39446 2.85357,2.85358 0.20822,-0.62465 -0.34866,-1.86295 -1.2375,-2.75179 z m -26.80774,1.7375 c -0.19708,-0.59125 -0.78583,-1.075 -1.30833,-1.075 -0.5225,0 -1.11125,0.48375 -1.30833,1.075 -0.19709,0.59125 0.39166,1.075 1.30833,1.075 0.91667,0 1.50542,-0.48375 1.30833,-1.075 z m 14.42638,-2.03755 c 1.90342,-2.54942 1.50238,-6.29981 -0.59875,-5.59944 -1.70925,0.56975 -4.87548,6.51542 -4.12032,7.73729 0.93148,1.50718 2.54259,0.7773 4.71907,-2.13785 z M 351,90.405693 c 0,-0.825 -0.17686,-1.5 -0.39301,-1.5 -0.21616,0 -0.65203,0.675 -0.96862,1.5 -0.31658,0.825 -0.13972,1.5 0.39301,1.5 0.53274,0 0.96862,-0.675 0.96862,-1.5 z m 70,-5.05902 c 0,-0.85746 -0.45,-1.2809 -1,-0.94098 -0.55,0.33992 -1,1.04148 -1,1.55902 0,0.51754 0.45,0.94098 1,0.94098 0.55,0 1,-0.70156 1,-1.55902 z m -65.5,-0.44098 c 0.33992,-0.55 0.14148,-1 -0.44098,-1 -0.58246,0 -1.05902,0.45 -1.05902,1 0,0.55 0.19844,1 0.44098,1 0.24254,0 0.7191,-0.45 1.05902,-1 z m -3.5,-3.84501 c 0,-1.30193 -3.5809,-4.24076 -4.29597,-3.52569 -0.99057,0.99057 1.19893,4.3707 2.83115,4.3707 0.80565,0 1.46482,-0.38026 1.46482,-0.84501 z m -10.39769,-4.13022 c 1.44687,-2.18638 2.36738,-4.66138 2.04557,-5.5 C 342.78592,69.184223 341,69.576303 341,72.011773 c 0,1.15834 -1.125,2.991 -2.5,4.07258 -1.375,1.08158 -2.5,2.60884 -2.5,3.39392 0,2.75235 2.99671,1.38951 5.60231,-2.54781 z m 13.04138,-3.6077 c -0.34549,-2.52061 -0.89986,-5.02254 -1.23193,-5.55984 -0.65398,-1.05817 -3.32737,1.91417 -3.37996,3.75791 -0.0345,1.20908 3.75661,6.38486 4.6767,6.38486 0.30984,0 0.28068,-2.06232 -0.0648,-4.58293 z m -27.90559,1.89245 c -0.92977,-0.92976 -1.97126,-1.4097 -2.31443,-1.06653 -0.98418,0.98419 0.52669,2.75701 2.34963,2.75701 1.52648,0 1.52374,-0.13153 -0.0352,-1.69048 z m 3.01237,-2.55952 c -0.22891,-0.6875 -1.26459,-1.4144 -2.3015,-1.61534 -1.6311,-0.31608 -1.70455,-0.14754 -0.54469,1.25 1.5862,1.91126 3.44015,2.14923 2.84619,0.36534 z M 322,70.987483 c 0,-0.50502 0.26174,-1.74252 0.58164,-2.75 0.53223,-1.67622 0.44731,-1.66694 -1,0.10934 -1.81125,2.22292 -2.02958,3.55887 -0.58164,3.55887 0.55,0 1,-0.4132 1,-0.91821 z m 22.95416,-3.16744 c -0.61391,-1.1471 -1.36033,-1.84151 -1.65872,-1.54312 -0.82426,0.82426 0.49605,3.62877 1.70836,3.62877 0.73956,0 0.72434,-0.63946 -0.0496,-2.08565 z m -29.8861,-3.04152 c 0.88104,-1.64624 0.84327,-2.3096 -0.16707,-2.93402 -1.8576,-1.14806 -2.90099,-0.20567 -2.90099,2.62021 0,3.00731 1.54213,3.16504 3.06806,0.31381 z m 22.34729,-3.23749 c 2.32037,-3.74451 2.66073,-4.95268 1.66775,-5.91999 -1.77543,-1.72955 -7.0831,4.69997 -7.0831,8.58021 0,3.97886 1.87074,3.05988 5.41535,-2.66022 z m 11.27171,-0.74534 -1.43294,-3.39 -0.73873,2.76299 c -0.47271,1.76805 -0.28166,3.31371 0.53056,4.29238 2.11671,2.55048 3.22356,0.0784 1.64111,-3.66537 z M 332,54.794913 c 0,-1.62001 -1.86348,-0.92222 -3.40159,1.27375 -2.10965,3.01194 -0.71504,4.69929 1.56093,1.88858 C 331.1717,56.707023 332,55.283973 332,54.794913 Z m -14.5,3.11078 c -0.33992,-0.55 -1.04148,-1 -1.55902,-1 -0.51754,0 -0.94098,0.45 -0.94098,1 0,0.55 0.70156,1 1.55902,1 0.85746,0 1.2809,-0.45 0.94098,-1 z m -5.16359,-4.99692 c -0.81986,-0.81986 -3.32464,3.20695 -2.66186,4.27934 0.33576,0.54328 1.18452,-0.0848 1.88614,-1.39581 0.70161,-1.31098 1.05069,-2.60857 0.77572,-2.88353 z m 6.64353,1.47275 c -0.69572,-0.83829 -1.52528,-1.26382 -1.84348,-0.94562 -0.3182,0.31819 0.0834,0.99718 0.8925,1.50885 2.11697,1.33881 2.39358,1.17499 0.95098,-0.56323 z M 352,52.987483 c 0,-2.21065 -1.27682,-3.91279 -2.56445,-3.41869 -1.04468,0.40089 -1.14142,1.01796 -0.38205,2.43686 1.0519,1.9655 2.9465,2.59682 2.9465,0.98183 z m -27.38094,-3.49626 c 2.09931,-3.29877 2.10017,-3.32487 0.0921,-2.79974 -2.6565,0.69469 -5.94661,4.02418 -5.18859,5.25068 1.10633,1.79008 2.96703,0.89527 5.09652,-2.45094 z M 343,51.978273 c 0,-1.45177 -5.06775,-5.07258 -7.09967,-5.07258 -1.84707,0 -4.5522,3.68147 -3.48748,4.74618 0.31619,0.31619 1.40058,-0.17235 2.40976,-1.08564 2.43305,-2.20188 3.83033,-2.0957 4.46714,0.33946 0.51376,1.96462 3.71025,2.88868 3.71025,1.07258 z m -183.27083,-0.67675 c -0.3323,-0.33229 -1.1948,-0.36781 -1.91667,-0.0789 -0.79773,0.31922 -0.56078,0.55618 0.60417,0.60416 1.05416,0.0434 1.64479,-0.19293 1.3125,-0.52522 z m 6,-1 c -0.33229,-0.33229 -1.1948,-0.36781 -1.91667,-0.0789 -0.79773,0.31922 -0.56078,0.55618 0.60417,0.60416 1.05416,0.0434 1.64479,-0.19293 1.3125,-0.52522 z m 165.02784,-4.97216 C 329.77282,44.345183 328,45.856053 328,47.678993 c 0,1.52648 0.13153,1.52374 1.69048,-0.0352 0.92976,-0.92977 1.4097,-1.97126 1.06653,-2.31443 z m 12.44688,0.007 c -1.23261,-0.86336 -3.02024,-1.36556 -3.9725,-1.116 -1.31426,0.34442 -1.20353,0.48168 0.45959,0.56974 1.20504,0.0638 2.4691,0.566 2.80902,1.116 0.33992,0.55 1.1416,1 1.78152,1 0.63992,0 0.15499,-0.70638 -1.07763,-1.56974 z M 350.5,40.905693 c -0.33992,-0.55 -1.06803,-1 -1.61803,-1 -0.55,0 -0.72189,0.45 -0.38197,1 0.33992,0.55 1.06803,1 1.61803,1 0.55,0 0.72189,-0.45 0.38197,-1 z m -48.23439,-19.89025 c 0.98347,-1.0031 0.62457,-1.7517 -1.76561,-3.68271 -2.76901,-2.23707 -3.09624,-2.2936 -4.25,-0.73423 -0.6875,0.9292 -1.25,2.33354 -1.25,3.12076 0,1.21471 0.24883,1.2248 1.64425,0.0667 1.4526,-1.20556 1.56744,-1.12263 0.98531,0.71152 -0.52666,1.65933 -0.25135,2.04609 1.37136,1.92654 1.11667,-0.0823 2.58578,-0.71614 3.26469,-1.4086 z m 7.23994,-0.11588 c 2.67346,-2.95414 1.24222,-3.41874 -1.50925,-0.48993 -1.28971,1.37283 -1.88623,2.49606 -1.3256,2.49606 0.56063,0 1.83631,-0.90276 2.83485,-2.00613 z m -15.14978,-5.47862 c 0.33491,-0.87274 -0.23928,-1.91772 -1.39301,-2.53518 -2.04649,-1.09525 -2.44006,-0.38747 -1.35577,2.43814 0.76317,1.98879 2.00601,2.03267 2.74878,0.097 z m 21.48986,-3.35719 c 2.46516,-1.71063 9.02041,-5.1580602 9.80801,-5.1580602 0.1905,0 0.29307,0.3375 0.22794,0.75 -0.0651,0.4125 -0.0651,1.78289 0,3.0453102 0.10804,2.09419 0.44702,2.23591 3.86842,1.61734 2.0625,-0.37288 3.97348,-0.87925 4.24661,-1.12525 0.27314,-0.24601 -1.10423,-1.9143502 -3.06081,-3.7074302 C 323.85454,0.99617275 307,2.0636728 307,9.0016628 c 0,2.3688102 1.99694,3.5181202 3.09649,1.7821502 0.64788,-1.0228902 0.87683,-0.7981402 0.8882,0.87188 0.0186,2.73183 1.35103,2.84368 4.86094,0.40806 z"
     id="path11638" />
</svg>
