<?xml version="1.0" encoding="UTF-8" standalone="no"?>
<svg
   xmlns:dc="http://purl.org/dc/elements/1.1/"
   xmlns:cc="http://creativecommons.org/ns#"
   xmlns:rdf="http://www.w3.org/1999/02/22-rdf-syntax-ns#"
   xmlns:svg="http://www.w3.org/2000/svg"
   xmlns="http://www.w3.org/2000/svg"
   viewBox="0 0 2947.5452 1074.309"
   height="1074.309"
   width="2947.5452"
   id="svg211"
   version="1.1">
  <metadata
     id="metadata217">
    <rdf:RDF>
      <cc:Work
         rdf:about="">
        <dc:format>image/svg+xml</dc:format>
        <dc:type
           rdf:resource="http://purl.org/dc/dcmitype/StillImage" />
        <dc:title></dc:title>
      </cc:Work>
    </rdf:RDF>
  </metadata>
  <defs
     id="defs215" />
  <path
     id="path291"
     d="m 1532.2131,1073.6872 c -19.0403,-1.0887 -47.7442,-3.8812 -91.5,-8.9016 -18.975,-2.1771 -56.55,-5.9774 -83.5,-8.445 -71.451,-6.5424 -116.3871,-10.8463 -177.6211,-17.0123 -29.9084,-3.0116 -68.7789,-6.5964 -86.3789,-7.9661 -54.2085,-4.2189 -89.1773,-7.4646 -135.5,-12.577 -24.475,-2.7012 -54.84997,-5.844 -67.49997,-6.984 -40.01826,-3.6066 -34.75584,-2.5141 -74.5,-15.46607 -31.34583,-10.2151 -83.80502,-30.9727 -126.39167,-50.0121 -7.75958,-3.4691 -27.14399,-11.5769 -43.07646,-18.0174 -15.93248,-6.4405 -35.28248,-14.5428 -43,-18.0052 -16.53286,-7.4173 -72.29655,-34.3931 -107.36364,-51.9374 -13.61214,-6.8103 -27.17527,-13.1027 -30.14029,-13.9833 -10.62909,-3.1565 -18.2714,-1.5297 -22.06842,4.6976 -1.67958,2.7546 -1.95376,5.0858 -1.96433,16.7015 -0.0232,25.4357 -2.62834,45.5407 -8.06885,62.2699 -8.44054,25.9541 -28.98809,58.4749 -48.19923,76.28537 -10.66389,9.8864 -28.91314,21.5838 -41.11741,26.3554 -12.21564,4.7761 -33.96412,10.3685 -48.73804,12.5325 -12.37514,1.8127 -40.56542,2.0705 -56.01571,0.5124 -22.49634,-2.2686 -45.89083,-8.4544 -74.35595,-19.6605 C 122.30798,1007.1832 82.179246,979.74963 55.805866,949.27883 22.314229,910.58393 4.5161591,871.36933 0.64674911,827.74653 c -1.32128,-14.8959 -0.69987,-25.5464 2.62366999,-44.9677 3.44081,-20.1065 4.77427,-24.711 10.3703299,-35.8095 6.54159,-12.9737 13.00132,-21.8724 23.760547,-32.7316 20.76686,-20.96 38.64384,-32.707 62.23365,-40.8941 23.102514,-8.018 41.633084,-11.5305 64.777994,-12.2789 39.03171,-1.262 85.43124,7.6846 128.30019,24.7386 22.83582,9.0844 67.83758,31.6012 95.5,47.7837 6.05,3.5393 19.55,10.9453 30,16.4578 10.45,5.5125 28,15.2078 39,21.5451 11,6.3372 32.80228,17.7807 48.44952,25.43 15.64723,7.6493 37.02223,18.5752 47.5,24.2797 10.47776,5.7045 28.50048,14.623 40.05048,19.819 11.55,5.1959 30.45,13.8237 42,19.1729 77.69174,35.9814 166.75547,70.4453 200,77.3915 22.25359,4.6497 51.80345,7.317 100.49997,9.0714 16.775,0.6043 38.375,1.5232 48,2.042 9.625,0.5188 31.9,1.6341 49.5,2.4785 17.6,0.8444 43.025,2.4185 56.5,3.4981 13.475,1.0795 35.525,2.6601 49,3.5123 38.6258,2.443 75.9978,6.284 117,12.0251 30.8196,4.3153 64.5364,8.4879 67.9177,8.4052 1.589,-0.039 -0.6873,-1.2299 -5.9177,-3.0964 -4.675,-1.6684 -10.75,-4.0678 -13.5,-5.3322 -2.75,-1.2644 -6.575,-2.7345 -8.5,-3.267 -11.2149,-3.1023 -72.6933,-27.1273 -107.5499,-42.0293 -20.9005,-8.9354 -68.4526,-32.1645 -83.8935,-40.9819 -25.8981,-14.7887 -50.6584,-34.4203 -66.4142,-52.6573 -13.1184,-15.1844 -20.1995,-25.8733 -36.2209,-54.6754 -12.6585,-22.7563 -17.4048,-30.3837 -30.7389,-49.3973 -11.152,-15.9021 -23.1328,-31.3106 -38.1974,-49.1256 -9.81817,-11.6108 -63.56589,-65.4626 -83.48517,-83.647 -13.36726,-12.203 -45.17715,-38.183 -80,-65.3382 -12.65,-9.8646 -28.85,-22.8384 -36,-28.8307 -16.26234,-13.6292 -59.44972,-46.0211 -78,-58.5024 -7.7,-5.1808 -23.225,-16.0068 -34.5,-24.0577 -11.275,-8.051 -28.15,-19.9716 -37.5,-26.4902 -41.76087,-29.1148 -93.99615,-72.816 -129.01554,-107.9373 -26.33217,-26.4088 -33.92478,-36.6071 -46.41821,-62.3483 -15.85937,-32.6764 -20.05446,-48.4118 -20.05446,-75.2226 0,-42.30381 14.24477,-77.224377 43.50161,-106.642667 14.07808,-14.15577 28.04254,-22.2444 51.46296,-29.8088903 24.77754,-8.00281 47.87193,-10.67423 75.28957,-8.70903002 18.98489,1.36077002 29.19625,3.02508002 47.72092,7.77785002 27.67038,7.0992403 57.07562,18.3918903 75.45957,28.9791203 21.20001,12.209 44.4168,30.14314 62.58557,48.34511 35.5554,35.620377 51.32333,62.806007 59.48504,102.558507 3.57628,17.4188 3.58481,40.3446 0.0207,55.6588 -4.80575,20.6491 -16.52132,43.1342 -33.26373,63.8412 -5.17772,6.4039 -24.1819,24.5324 -32.27399,30.787 -5.95897,4.6058 -18.19801,12.2563 -26.8335,16.7733 -5.44246,2.8468 -10.80589,6.5119 -12.86534,8.7915 -3.17759,3.5172 -3.48225,4.3492 -3.03749,8.2952 0.34109,3.0261 1.633,5.8534 4.16698,9.1194 5.42192,6.9882 23.70381,25.3487 34.56935,34.718 10.19002,8.7867 54.73501,44.0629 72,57.0184 5.775,4.3335 14.71423,11.2178 19.86495,15.2983 5.15072,4.0806 20.67572,15.9932 34.5,26.4723 13.82428,10.4792 32.11004,24.748 40.63504,31.7084 8.525,6.9605 22.25,18.0105 30.49997,24.5555 41.5779,32.9854 54.9952,47.3693 96.5097,103.4627 22.671,30.6324 27.6601,38.0672 43.9536,65.5 6.2067,10.45 12.6667,21.025 14.3554,23.5 6.7634,9.9122 21.0866,27.2004 26.9583,32.539 20.7548,18.8698 58.5221,37.1337 128.223,62.0071 7.15,2.5516 25.825,9.7082 41.5,15.9036 101.3965,40.0763 138.3372,53.7852 174,64.5726 35.6105,10.7717 52.409,13.928 74.2922,13.9594 16.1394,0.023 24.5553,-1.668 41.2078,-8.2802 15.87,-6.3015 91.8787,-43.9261 114.2894,-56.5736 8.9592,-5.0562 25.3144,-14.158 36.3449,-20.2264 45.6184,-25.0965 74.1819,-43.1475 108.5309,-68.5872 23.2232,-17.1995 60.0193,-42.8796 63.1252,-44.0552 2.6553,-1.0049 51.0203,-32.5289 67.2096,-43.8066 7.975,-5.5556 20.125,-13.8583 27,-18.4506 6.875,-4.5923 19.925,-13.5802 29,-19.9732 30.9864,-21.8285 54.041,-36.3021 136,-85.3804 62.7671,-37.586 73.0846,-44.03 103.8333,-64.8512 47.7162,-32.3108 73.9135,-49.7545 99.1667,-66.0314 14.025,-9.0397 34.05,-21.9821 44.5,-28.7609 10.45,-6.7787 25.975,-16.5916 34.5,-21.8063 8.525,-5.2147 21.35,-13.173 28.5,-17.6852 23.9564,-15.1182 90.5962,-55.5012 110.5768,-67.0082 10.8753,-6.2633 25.9945,-15.2995 33.5983,-20.0805 7.6037,-4.7809 24.6249,-15.4522 37.8249,-23.7139 41.1576,-25.76 82.4321,-54.1042 87.2642,-59.9266 0.9443,-1.1378 0.7796,-2.2561 -0.7844,-5.3237 -2.3836,-4.6753 -2.4772,-8.1214 -0.4347,-16.0003 3.7873,-14.6094 12.6323,-28.4916 28.8296,-45.2478 22.0916,-22.85397 35.0088,-29.61218 70.2509,-36.75474 13.9166,-2.82048 23.7941,-3.11599 31.1488,-0.93188 15.6988,4.66206 23.0688,20.11975 17.4011,36.49682 -6.6828,19.3101 -19.9213,34.6718 -50.2327,58.2889 -17.9879,14.0152 -24.9852,18.7845 -75.4428,51.4214 -18.7,12.0955 -43.45,28.1964 -55,35.7797 -21.6509,14.2152 -91.8735,58.4141 -117.5,73.9557 -7.975,4.8366 -20.575,12.7161 -28,17.51 -7.425,4.7938 -24.3,15.3722 -37.5,23.5074 -13.2,8.1352 -34.8,21.8669 -48,30.5148 -13.2,8.648 -41.325,26.7429 -62.5,40.2111 -21.175,13.4681 -49.422,31.9817 -62.771,41.1412 -41.906,28.754 -67.5041,45.5482 -107.229,70.3501 -76.6493,47.8554 -84.5162,53.0153 -90.6371,59.4488 -3.8507,4.0473 -13.3287,19.8484 -11.9058,19.8484 1.722,0 23.9376,-11.1833 49.5429,-24.9397 45.1513,-24.2575 45.6723,-24.5271 62.5,-32.34 57.81,-26.8405 167.9729,-83.7009 214,-110.4559 26.7882,-15.5717 90.2676,-50.3647 124.5,-68.2386 12.925,-6.7485 33.625,-17.7694 46,-24.4908 23.8211,-12.9383 50.0858,-26.8316 87,-46.0204 47.7836,-24.839 90.1419,-47.9112 91.0396,-49.5886 0.516,-0.964 1.822,-5.5042 2.9023,-10.0894 3.8721,-16.4347 10.7456,-32.8542 19.2822,-46.0621 16.7206,-25.8699 54.11,-46.7745 83.6598,-46.7745 13.8563,0 24.8941,5.1717 30.5084,14.2945 3.7285,6.0587 4.4034,12.8974 2.134,21.6256 -4.8439,18.6302 -12.8438,27.0204 -55.5263,58.2351 -43.9585,32.1478 -77.2252,51.8641 -135.4611,80.284 -16.2806,7.9452 -30.5996,14.7609 -31.82,15.146 -5.228,1.65 -78.7222,45.5102 -112.7189,67.2689 -15.6831,10.0376 -38.6454,24.1365 -96,58.9442 -40.5584,24.6144 -62.4342,37.3497 -81.84,47.6441 -9.9476,5.2771 -24.5156,13.3255 -32.3733,17.8855 -7.8577,4.5599 -24.4946,14.2202 -36.9709,21.4674 -12.4763,7.2472 -31.8263,18.9415 -43,25.9875 -11.1737,7.0459 -26.8408,16.5717 -34.8158,21.1683 -34.2086,19.7171 -76.8405,45.2014 -108.1869,64.6716 -27.3744,17.0031 -77.9016,45.8394 -105.3131,60.1032 -12.65,6.5826 -28.175,14.896 -34.5,18.4742 -6.325,3.5783 -22.3,12.2656 -35.5,19.3052 -22.2027,11.8407 -57.8203,31.5482 -85.5,47.3077 -6.325,3.6012 -20.275,12.2536 -31,19.2275 -10.725,6.974 -30.3,19.1951 -43.5,27.1582 -13.2,7.963 -33,20.0955 -44,26.9611 -11,6.8656 -24.05,14.8953 -29,17.8439 -4.95,2.9485 -28.7495,17.9246 -52.8879,33.2803 -52.6824,33.51397 -60.5796,38.09957 -94.1121,54.64837 -25.2586,12.4654 -40.7265,18.9985 -50.3238,21.2551 -6.3059,1.4826 -21.5193,1.759 -39.6762,0.7209 z m 44.6532,-13.4876 c 17.4463,-6.035 65.008,-29.4569 87.8468,-43.2604 4.125,-2.4931 21.675,-13.589 39,-24.65747 17.325,-11.0685 39.5031,-25.0472 49.2846,-31.0637 9.7816,-6.0166 27.7816,-17.1658 40,-24.7761 12.2185,-7.6104 31.6654,-19.5036 43.2154,-26.4295 11.55,-6.9259 29.775,-18.3147 40.5,-25.3084 19.0885,-12.4477 37.2246,-23.1004 81.5,-47.8712 28.4971,-15.9434 35.746,-20.4112 55.5748,-34.2534 9.0339,-6.3064 22.7252,-15.6688 30.4252,-20.8054 18.034,-12.0303 36.1685,-25.7146 40.2747,-30.3914 4.1198,-4.6922 7.5585,-11.5044 11.8804,-23.5357 1.8904,-5.2625 5.0737,-13.8431 7.074,-19.0681 4.898,-12.794 26.2339,-55.3561 30.6448,-61.1319 5.9146,-7.7448 15.5776,-14.2181 97.319,-65.1955 37.8331,-23.5943 56.6091,-35.9059 104.8071,-68.7234 15.95,-10.8601 48.35,-32.0808 72,-47.157 23.65,-15.0762 49.075,-31.4705 56.5,-36.4318 7.425,-4.9613 26.1,-16.8079 41.5,-26.3258 15.4,-9.5179 34.1623,-21.2824 41.6939,-26.1434 7.5316,-4.8609 20.1316,-12.7503 28,-17.5319 30.1443,-18.3188 94.6054,-58.9566 124.3061,-78.3655 17.05,-11.1418 41.8,-27.2495 55,-35.7949 13.2,-8.5453 29.175,-18.8941 35.5,-22.9971 12.6288,-8.1925 39.7736,-28.7579 50.014,-37.8917 35.6537,-31.8009 40.7358,-62.31006 10.3795,-62.31006 -14.1298,0 -43.0726,7.10553 -55.4872,13.62224 -7.5261,3.95062 -22.5404,16.82292 -31.47,26.98032 -12.2049,13.883 -17.6325,22.5695 -20.8248,33.3289 -2.2651,7.6344 -2.0851,10.7121 0.7344,12.5595 3.5915,2.3533 4.9593,6.0971 3.4125,9.3403 -3.4039,7.1371 -44.0846,35.919 -100.2584,70.9335 -8.8,5.4853 -22.75,14.2465 -31,19.4695 -8.25,5.2229 -25.125,15.3473 -37.5,22.4985 -21.6069,12.4861 -84.8199,50.7706 -113,68.4377 -7.425,4.6549 -21.375,13.3503 -31,19.323 -9.625,5.9727 -28.975,18.3402 -43,27.4834 -14.025,9.1431 -37.3133,24.2512 -51.7517,33.5735 -14.4384,9.3223 -38.5134,25.4174 -53.5,35.767 -14.9866,10.3496 -34.6733,23.5942 -43.7483,29.4326 -23.321,15.0034 -89.3084,55.1382 -127,77.2437 -29.5478,17.3294 -67.7637,41.8485 -93.5,59.9891 -9.9,6.9782 -22.95,15.981 -29,20.0063 -6.05,4.0253 -16.625,11.2593 -23.5,16.0757 -14.4781,10.1428 -66.4918,44.1158 -71.2661,46.5478 -5.779,2.9439 -32.0118,21.5265 -40.7339,28.8549 -4.675,3.928 -18.7652,15.1233 -31.3116,24.8785 -12.5464,9.7552 -28.2879,22.272 -34.9812,27.8152 -6.6932,5.5431 -20.1344,15.8987 -29.8693,23.0122 -9.735,7.1136 -25.2684,19.2768 -34.5189,27.0293 -9.2504,7.7526 -25.8086,20.8637 -36.7958,29.1359 -25.3421,19.0798 -95.3609,66.6929 -106.2427,72.2455 -4.5407,2.31687 -14.6739,6.33437 -22.5182,8.92777 l -14.2623,4.7153 -17.5,-0.616 c -9.625,-0.3388 -19.3,-1.0522 -21.5,-1.5853 -2.2,-0.5332 -10.75,-1.6771 -19,-2.5421 -8.25,-0.8649 -26.925,-2.8795 -41.5,-4.4767 -14.575,-1.5973 -44.95,-4.73977 -67.5,-6.98337 -51.3665,-5.1106 -85.1942,-9.0413 -121,-14.0598 -45.7191,-6.4081 -78.6012,-9.8282 -120,-12.4813 -13.2,-0.8459 -35.0439,-2.4269 -48.5419,-3.5133 -13.498,-1.0864 -38.698,-2.647 -56,-3.4681 -17.302,-0.821 -40.0081,-1.9527 -50.4581,-2.5148 -10.45,-0.5621 -35.65,-1.7 -55.99997,-2.5287 -43.55243,-1.7736 -74.00553,-3.8589 -77.5,-5.3069 -1.375,-0.5698 -5.65,-1.534 -9.5,-2.1427 -17.56232,-2.7768 -37.04547,-8.7601 -75.21081,-23.0972 -44.16805,-16.592 -80.54091,-31.6711 -122.78919,-50.9044 -64.52772,-29.376 -80.59324,-36.9966 -97.88473,-46.4309 -10.82013,-5.9036 -27.11155,-14.2948 -36.20315,-18.6472 -26.87051,-12.8637 -35.76233,-17.4914 -58.41212,-30.3998 -11.825,-6.7392 -29.6,-16.5373 -39.5,-21.7736 -9.9,-5.2362 -23.04855,-12.4749 -29.21901,-16.0859 -26.83915,-15.7064 -70.82135,-37.7048 -93.28099,-46.6558 -18.96146,-7.5569 -44.78225,-15.2525 -61.96977,-18.4695 -39.75001,-7.44 -74.55648,-7.2902 -104.46277,0.4494 -32.501194,8.4112 -50.829684,18.5056 -73.435634,40.4445 -16.34177,15.8597 -21.683337,23.5936 -27.682617,40.0809 -15.8167199,43.4679 -13.1224999,87.7143 8.04482,132.1179 10.281637,21.5682 23.552637,40.3016 41.956297,59.2256 14.84705,15.2668 26.14184,24.6028 43.956774,36.3335 23.76367,15.64787 49.87811,27.87617 79.36585,37.16377 27.7087,8.7272 45.9052,11.1264 78.47122,10.3465 23.13829,-0.5541 30.17895,-1.5855 52.35606,-7.6697 17.98146,-4.9331 35.66728,-14.5646 51.04061,-27.79597 17.34004,-14.9241 38.6953,-47.9389 46.72778,-72.2402 5.23864,-15.8489 7.61424,-34.3197 7.65251,-59.5 0.025,-16.4458 1.14789,-20.8862 6.78782,-26.8416 4.99256,-5.2718 9.84917,-7.1235 18.69105,-7.1264 10.55652,0 14.16679,1.3116 42.5,15.4802 34.03912,17.022 89.9236,44.0616 107.41018,51.9703 8.2994,3.7536 28.13982,12.0998 44.08982,18.547 15.95,6.4473 36.875,15.206 46.5,19.4637 54.04134,23.9057 109.37554,45.273 141.19464,54.5222 16.19524,4.7076 24.78382,6.1318 51.30536,8.50787 12.65,1.1333 41,4.0634 62.99997,6.5115 41.6299,4.6323 101.5377,10.232 138.5,12.9459 23.144,1.6992 63.2613,5.4468 117.5,10.9763 38.8744,3.9631 78.1569,7.7091 147.7057,14.0854 26.7882,2.4559 68.6382,6.6942 93,9.4183 62.6657,7.0073 80.9786,8.5298 106.9475,8.8911 9.8297,0.1367 11.4531,-0.1285 21,-3.431 z M 236.24056,1012.1909 c -13.97061,-2.1708 -24.53942,-5.0776 -44.02743,-12.1094 -21.57332,-7.78407 -36.51344,-14.73547 -53.42041,-24.85537 -15.77715,-9.4437 -24.21056,-16.1687 -40.414184,-32.2275 -19.77907,-19.6022 -36.02661,-41.8494 -48.64272,-66.6048 -8.15745,-16.0065 -10.01397,-20.8653 -15.32768,-40.115 -3.910897,-14.1678 -4.136377,-15.7213 -4.064037,-28 0.0651,-11.0472 0.474827,-14.3192 2.727657,-21.7818 8.75593,-29.0047 31.08033,-56.9451 60.01229,-75.1091 13.643254,-8.5655 33.608664,-15.0891 54.018444,-17.6502 11.18616,-1.4037 44.26926,-0.7731 56.5586,1.0781 22.85553,3.4427 68.02005,18.8124 90.05204,30.6452 10.32884,5.5473 30.38181,19.0876 42.22077,28.5086 16.438,13.0808 37.5741,37.334 47.0941,54.0394 5.64524,9.9061 13.89344,30.6118 17.03751,42.7698 8.34671,32.2762 4.12654,67.2198 -11.99636,99.3316 -6.75305,13.4499 -17.74287,25.1089 -33.79197,35.8493 -15.63026,10.4602 -39.30331,20.50407 -57.06405,24.21087 -17.19346,3.5885 -44.95941,4.5085 -60.97257,2.0203 z m 54.72331,-11.8443 c 34.7439,-6.26627 72.22384,-28.56597 85.01728,-50.58307 12.83982,-22.097 19.51,-52.5579 16.91739,-77.2572 -1.44331,-13.7502 -4.72155,-26.2632 -10.74543,-41.0152 -7.83202,-19.1801 -14.83465,-29.9482 -31.90381,-49.0594 -10.53904,-11.7998 -23.10789,-22.3912 -40.87629,-34.4452 -17.36517,-11.7804 -25.06294,-15.8822 -44.19054,-23.5468 -26.85384,-10.7606 -51.98593,-17.7715 -70.32529,-19.6181 -27.50758,-2.7698 -55.71763,-0.5577 -74.14405,5.8141 -13.05856,4.5156 -15.73862,5.8256 -26.500004,12.9531 -18.94046,12.5447 -35.68897,31.7982 -45.40093,52.1914 -5.26432,11.054 -7.1576,18.337 -7.81319,30.0554 -0.47141,8.4262 -0.1613,11.0878 2.62148,22.5 4.46276,18.3016 6.52668,24.1965 13.63484,38.9432 11.5574,23.9772 27.45006,46.4639 46.860324,66.3033 13.92256,14.2304 23.57118,22.1401 37.8862,31.0583 26.19253,16.3178 69.05938,32.8457 96.21128,37.09557 8.74842,1.3693 42.36385,0.4839 52.75074,-1.3894 z M 1952.0395,776.73443 c -9.1562,-1.8104 -15.1899,-7.5648 -16.0641,-15.3204 -0.6852,-6.0799 1.6187,-10.3373 9.7402,-17.9987 16.4768,-15.5434 36.3122,-18.2647 46.4869,-6.3778 3.1296,3.6562 3.5106,4.7239 3.5106,9.8384 0,10.5253 -6.243,20.1157 -16.674,25.6144 -9.0782,4.7854 -17.5371,6.1151 -26.9996,4.2441 z m 17.1117,-9.3869 c 2.6158,-0.7873 6.4875,-2.5772 8.6037,-3.9776 3.7951,-2.5116 9.4533,-10.6057 8.7949,-12.5811 -0.3286,-0.9856 -38.38,11.3942 -40.2586,13.0978 -1.5747,1.428 7.5599,4.8467 13.013,4.8702 2.8001,0.012 7.2312,-0.6221 9.847,-1.4093 z m 14.5619,-26.6167 c 0,-1.4947 -7.8382,-3.0714 -11.7648,-2.3666 -5.9532,1.0685 -14.2114,5.5282 -19.6805,10.628 l -5.0547,4.7134 18.25,-6.05 c 10.0375,-3.3274 18.25,-6.4436 18.25,-6.9248 z m 789.2116,-534.202 c -0.5684,-0.6875 -1.803,-3.1767 -2.7437,-5.5315 -3.6114,-9.0407 -0.1116,-20.2506 10.8511,-34.7561 10.7894,-14.2762 34.5235,-28.10072 51.5509,-30.02715 14.394,-1.6285 22.1259,8.67915 16.001,21.33155 -6.8358,14.1208 -39.4559,39.1517 -62.1437,47.6856 -7.4259,2.7933 -11.9224,3.225 -13.5156,1.2976 z m 17.2154,-14.6702 c 14.5844,-7.0822 34.525,-21.6713 43.9526,-32.1571 7.0265,-7.8151 7.5534,-12.9227 1.3333,-12.9227 -8.1396,0 -24.0234,7.0522 -35.4685,15.7474 -6.6683,5.0662 -13.5089,13.4689 -17.6862,21.7251 -2.6689,5.275 -3.4181,11.5275 -1.3812,11.5275 0.6473,0 4.8098,-1.7641 9.25,-3.9202 z m -1229.0055,804.2435 c 11.6354,-4.029 23.4577,-9.7189 31.4767,-15.1491 70.3788,-47.6587 99.7182,-68.7621 122.6018,-88.1856 6.05,-5.1352 15.5,-12.9145 21,-17.2872 11.6771,-9.2838 12.1456,-9.7208 7.5,-6.9953 -1.925,1.1294 -10.475,5.8746 -19,10.5449 -8.525,4.6703 -22.925,12.6527 -32,17.7386 -19.2795,10.8049 -87.7653,45.2161 -106.2599,53.391 -23.8897,10.5598 -35.9911,13.6194 -53.8675,13.6194 -20.7424,0 -37.967,-2.8013 -65.3476,-10.6279 -40.915,-11.6953 -78.5059,-25.4381 -188.525,-68.9224 -15.675,-6.1954 -34.35,-13.352 -41.5,-15.9036 -39.6095,-14.135 -60.8001,-22.7826 -87,-35.5033 -40.3914,-19.6111 -57.8484,-37.0643 -89.0623,-89.0428 -18.0577,-30.0704 -17.9089,-29.8503 -44.2888,-65.5 -23.1552,-31.2918 -29.5008,-39.3719 -41.2306,-52.5 -19.291,-21.5906 -61.83567,-56.3262 -171.26316,-139.8276 -19.06586,-14.5486 -50.49856,-39.2434 -69.5669,-54.6544 -15.11608,-12.2168 -39.71594,-36.4272 -45.40229,-44.6835 -4.77973,-6.94 -6.58398,-14.863 -4.77985,-20.99 1.82939,-6.2127 10.46441,-14.2964 21.09393,-19.7472 27.4284,-14.0653 54.60023,-39.2494 70.3668,-65.219 15.45423,-25.4553 21.08522,-48.2254 18.60173,-75.2203 -2.03618,-22.1328 -10.31467,-48.592 -20.40178,-65.2068 -9.48874,-15.62928 -29.79296,-40.15237 -44.47985,-53.722047 -12.66927,-11.70552 -37.72266,-30.22168 -53.04961,-39.20725 -24.35609,-14.27899 -68.6931,-29.29735 -100.27721,-33.96709 -23.28787,-3.4431303 -51.77373,-3.01564 -71.76008,1.07691 -17.91842,3.66911 -40.31909,12.43596 -51.93987,20.32749 -16.94351,11.50611 -36.51855,36.92179 -45.08788,58.54083 -5.61229,14.158887 -8.01479,26.966167 -8.67267,46.232357 -0.7079,20.7308 0.52212,31.4772 5.31035,46.3953 4.02083,12.5272 19.5376,44.3292 25.08678,51.416 2.13457,2.726 5.05754,6.9813 6.4955,9.4563 7.51594,12.9364 54.36805,58.2724 89.30779,86.4179 27.94627,22.5119 48.9209,38.6109 64,49.123 9.35,6.5181 23.98203,16.8569 32.51562,22.975 8.53358,6.1181 24.28358,17.143 35,24.4999 25.78888,17.7041 66.56694,48.1862 84.81161,63.3975 8.07002,6.7284 20.97277,17.117 28.67277,23.0858 19.67852,15.2542 55.51201,43.8953 69.75562,55.7545 13.17629,10.9704 54.31308,50.3289 78.81468,75.4075 35.25347,36.0837 68.02417,79.9882 91.68797,122.8389 19.2601,34.8764 25.9026,44.2829 44.1803,62.5639 23.4327,23.437 40.9383,35.1837 86.9509,58.3463 44.6371,22.4702 108.0666,48.6194 178.6105,73.6333 4.4,1.5601 16.9043,6.4405 27.7874,10.8453 l 19.7874,8.0086 27.2126,2.539 c 43.3549,4.045 58.3037,5.6077 72.7126,7.601 7.425,1.0272 24.75,2.7867 38.5,3.91 13.75,1.1233 27.025,2.2092 29.5,2.41317 7.9986,0.659 15.1299,-0.47357 25.4215,-4.03727 z m -507.7665,-168.152 c -2.0528,-2.2684 -2.1149,-4.5447 -0.168,-6.1605 3.6649,-3.0416 10.536,2.8468 7.5376,6.4596 -1.7224,2.0754 -5.3541,1.9279 -7.3696,-0.2991 z m -12.8752,-16.4213 c -1.9592,-1.5283 -10.3792,-14.5662 -11.7709,-18.2266 -2.3886,-6.2825 4.5791,-9.3036 7.7876,-3.3766 0.9369,1.7307 3.8972,6.491 6.5783,10.5784 4.2863,6.5345 4.7416,7.724 3.7714,9.8532 -1.2047,2.6442 -3.8537,3.1317 -6.3664,1.1716 z m -21.525,-35 c -3.5197,-4.4435 -9.2343,-30.7827 -9.2457,-42.6147 -0.01,-8.2918 0.3002,-9.9329 2.6906,-14.3248 3.5,-6.4308 9.7028,-10.3328 14.881,-9.3613 3.9491,0.7408 9.7644,5.5515 15.5825,12.8906 4.3559,5.4946 5.1254,10.1164 1.857,11.1538 -2.7218,0.8638 -3.9543,-0.039 -9.9698,-7.3049 -2.8739,-3.4712 -6.3628,-6.8295 -7.753,-7.463 -2.2661,-1.0325 -2.8188,-0.8257 -5.3417,1.9979 -5.2414,5.8661 -4.8138,17.4794 1.4922,40.521 3.594,13.1322 3.4507,15.7554 -0.8606,15.7554 -1.2883,0 -2.788,-0.5625 -3.3325,-1.25 z m 32.9164,-25.2594 c -2.7881,-3.5446 -1.6026,-6.9906 2.405,-6.9906 3.6066,0 6.5703,4.4511 4.8217,7.2414 -1.7487,2.7903 -4.9211,2.6802 -7.2267,-0.2508 z M 618.21313,335.09033 c -24.73436,-3.2059 -49.39191,-12.9722 -81.58668,-32.3146 -32.35822,-19.4407 -53.18848,-35.1715 -71.61271,-54.0814 -4.50966,-4.6285 -10.88279,-10.9636 -14.16252,-14.078 -19.33426,-18.3596 -36.15121,-58.7398 -36.13407,-86.7637 0.01,-16.08042 5.23917,-35.75372 14.61281,-54.974897 4.94731,-10.14475 6.56962,-12.41821 14.7216,-20.63048 18.8609,-19.00039 43.98853,-31.99898 74.66157,-38.62263 9.24393,-1.99617 13.37101,-2.27044 34.5,-2.29274 21.15439,-0.0223 25.36004,0.24838 35.4706,2.28323 35.53207,7.15118 76.49927,26.67852 103.5294,49.3481 37.32484,31.303537 63.2759,69.432417 71.33901,104.815617 3.76743,16.5326 3.87678,40.3076 0.24962,54.2737 -10.64895,41.003 -62.79689,83.5054 -113.01485,92.111 -8.52859,1.4615 -24.86287,1.9263 -32.57378,0.9268 z m 34.77653,-12.3678 c 19.21213,-3.9152 38.66389,-12.9945 56.49093,-26.3676 31.81714,-23.868 46.23887,-48.1739 46.22972,-77.914 -0.01,-31.8614 -9.44962,-57.4117 -32.63436,-88.32972 -7.51039,-10.0155 -25.31347,-28.4396 -36.86282,-38.148697 -25.82503,-21.71011 -63.53482,-40.01816 -97.5,-47.33611 -9.27404,-1.99813 -13.36058,-2.26454 -35,-2.28176 -27.12873,-0.0216 -35.41468,1.14003 -53.68841,7.5266 -23.12784,8.08307 -48.60692,26.02456 -57.15208,40.24454 -4.8868,8.13211 -10.92717,22.670077 -13.96001,33.598957 -2.33434,8.41184 -2.64575,11.31109 -2.58474,24.06409 0.0797,16.6611 2.1667,26.4664 9.23236,43.3765 7.90601,18.9213 11.79246,24.2656 33.17849,45.6235 23.02509,22.9949 29.82182,28.6343 52.47439,43.5387 39.34616,25.8881 66.18371,38.5344 91,42.8807 12.22477,2.1411 28.88979,1.9466 40.77653,-0.4757 z m 1431.72344,446.1603 c 9.9742,-5.1891 71.3515,-40.6629 81.5,-47.1039 22.1985,-14.0888 78.91,-48.0695 108.5,-65.0116 7.975,-4.5662 25.9061,-15.4462 39.8469,-24.1778 13.9408,-8.7316 31.7158,-19.5331 39.5,-24.0033 7.7842,-4.4703 23.1531,-13.3833 34.1531,-19.8068 11,-6.4234 28.7241,-16.3 39.387,-21.9478 18.2399,-9.6613 72.2869,-41.414 105.5357,-62.0024 8.2075,-5.0823 23.5075,-14.4311 34,-20.7752 10.4925,-6.3441 28.7523,-17.7031 40.5773,-25.2423 34.7636,-22.164 111.867,-68.0329 114.36,-68.0329 2.2004,0 63.9234,-30.6152 81.64,-40.4943 28.283,-15.771 52.776,-31.6056 82,-53.0123 22.6973,-16.6259 34.9145,-26.4651 40.0998,-32.2947 5.8257,-6.5493 10.023,-15.8589 10.6452,-23.6107 0.4939,-6.1535 0.4178,-6.402 -3.1831,-10.3877 -5.4849,-6.0712 -10.3671,-7.5658 -22.8007,-6.98 -25.578,1.2051 -55.7366,18.2993 -70.5968,40.0152 -8.1283,11.8783 -15.3612,29.4518 -19.6589,47.7645 -0.968,4.125 -2.5833,8.8715 -3.5894,10.5478 -1.9169,3.1938 -29.2392,18.2458 -103.9161,57.248 -48.5236,25.3428 -64.7936,33.954 -83,43.9292 -9.075,4.9721 -29.775,16.0079 -46,24.5239 -16.225,8.516 -34.225,18.0831 -40,21.2601 -33.6249,18.4982 -68.1141,37.7176 -79,44.0235 -47.3812,27.4467 -156.238,83.6469 -215.5,111.2577 -15.1649,7.0654 -33.5745,16.6031 -67.7349,35.0922 -21.5218,11.6485 -52.8815,27.1176 -54.9742,27.1176 -0.7813,0 -2.2435,1.6875 -3.2495,3.75 -4.6209,9.4743 -10.2061,22.9705 -15.1305,36.5616 -8.7808,24.2346 -12.3515,29.6736 -27.9109,42.5146 -4.697,3.8764 -4.1795,3.7933 4.5,-0.7222 z m 759.4247,-465.6138 c -2.3011,-3.0169 -2.5823,-4.1055 -2.0018,-7.75 1.3302,-8.352 11.5165,-23.7331 22.7151,-34.2994 10.0611,-9.493 29.2693,-21.0037 39.238,-23.5139 8.7135,-2.194 16.8991,1.6923 18.203,8.6424 2.2603,12.0488 -26.6312,39.7029 -58.9546,56.4296 -10.398,5.3807 -15.3733,5.508 -19.1997,0.4913 z m 33.8526,-22.1518 c 16.1874,-10.7159 33.6943,-27.6357 33.719,-32.5884 0.02,-3.9229 -20.5584,5.4487 -32.9507,15.0065 -10.6906,8.2453 -25.0008,26.0152 -25.0362,31.089 -0.012,1.7559 7.6744,-2.5224 24.2679,-13.5071 z"
     style="fill:#000000" />
</svg>
