<?xml version="1.0" encoding="UTF-8" standalone="no"?>
<svg
   xmlns:dc="http://purl.org/dc/elements/1.1/"
   xmlns:cc="http://creativecommons.org/ns#"
   xmlns:rdf="http://www.w3.org/1999/02/22-rdf-syntax-ns#"
   xmlns:svg="http://www.w3.org/2000/svg"
   xmlns="http://www.w3.org/2000/svg"
   viewBox="0 0 2255.1101 1271.6187"
   height="1271.6187"
   width="2255.1101"
   id="svg959"
   version="1.1">
  <metadata
     id="metadata965">
    <rdf:RDF>
      <cc:Work
         rdf:about="">
        <dc:format>image/svg+xml</dc:format>
        <dc:type
           rdf:resource="http://purl.org/dc/dcmitype/StillImage" />
        <dc:title></dc:title>
      </cc:Work>
    </rdf:RDF>
  </metadata>
  <defs
     id="defs963" />
  <path
     id="path969"
     d="m 1498.8364,1270.8509 c -12.925,-0.3747 -54.7949,-0.7414 -93.0443,-0.8148 -86.3642,-0.1657 -119.3175,-1.2231 -206.9557,-6.6412 -53.6936,-3.3194 -73.5548,-4.2752 -114.5,-5.5102 -37.5391,-1.1323 -57.6042,-2.2221 -128.00001,-6.9523 -63.3088,-4.2539 -62.69,-4.1417 -66.7484,-12.1008 -3.9897,-7.8241 -1.4313,-27.0958 5.6242,-42.3665 6.2966,-13.6282 20.8851,-34.1447 30.3755,-42.7188 10.5353,-9.5179 20.0698,-10.0066 94.24871,-4.8305 15.675,1.0938 45.15,2.8883 65.5,3.9878 20.35,1.0995 46,2.6654 57,3.4797 11,0.8143 30.575,2.1752 43.5,3.0242 12.925,0.849 36.55,2.6444 52.5,3.9898 107.1265,9.0359 194.607,10.1909 340.5,4.4954 27.775,-1.0843 65.35,-2.4301 83.5,-2.9907 51.8274,-1.6008 82.7819,-3.7471 115.5,-8.0084 37.5388,-4.8892 70.9326,-9.3915 97,-13.078 49.2608,-6.9666 198.6593,-32.5575 223.5038,-38.2846 8.2479,-1.9013 17.1337,-3.7716 19.7462,-4.1561 2.6125,-0.3846 4.75,-1.1408 4.75,-1.6805 0,-0.5397 -0.9579,-4.1349 -2.1287,-7.9893 -4.0102,-13.2028 -0.9345,-25.3369 7.7058,-30.4005 5.1268,-3.0045 11.4491,-3.1669 15.9119,-0.4087 4.9375,3.0515 10.543,14.9261 14.5218,30.7622 1.0528,4.1901 1.1262,4.2478 4.7792,3.757 2.0405,-0.2741 11.36,-1.6095 20.71,-2.9674 23.5173,-3.4157 32.425,-4.0549 36.7256,-2.6356 5.7397,1.8943 14.1437,11.6028 19.2878,22.2817 7.7859,16.163 14.6828,47.1483 14.7595,66.3089 0.07,17.472 -4.0248,29.5122 -11.5334,33.9125 -6.6944,3.9232 -21.7206,7.4599 -38.6501,9.0972 -8.4759,0.8196 -15.5319,1.4903 -15.6802,1.4903 -0.1483,0 0.149,1.4595 0.6606,3.2434 1.3919,4.8533 1.122,14.3617 -0.5191,18.2895 -4.07,9.7409 -16.2917,14.1913 -26.0283,9.4779 -8.0497,-3.8968 -14.0676,-12.924 -18.5582,-27.8388 -2.1289,-7.0706 -2.2987,-7.304 -4.8353,-6.645 -1.4459,0.3757 -6.1072,0.8276 -10.3585,1.0042 -4.2512,0.1766 -8.5262,0.57 -9.5,0.8743 -5.6944,1.7794 -59.67,8.1288 -192.2704,22.6174 -10.175,1.1118 -34.025,4.2446 -53,6.9619 -64.2818,9.2055 -85.9237,11.295 -145,13.9995 -12.375,0.5666 -40.725,1.9269 -63,3.023 -77.5779,3.8174 -115.1085,4.4743 -168,2.9409 z m 125,-9.4212 c 18.425,-0.7903 47.45,-2.1328 64.5,-2.9832 17.05,-0.8505 40.675,-2.0068 52.5,-2.5695 46.743,-2.2243 71.3412,-4.6739 129.5,-12.8962 23.1,-3.2657 48.525,-6.6411 56.5,-7.5007 58.7263,-6.3303 161.4627,-17.8554 170.5,-19.1269 6.05,-0.8512 16.893,-2.6508 24.0956,-3.9991 7.2027,-1.3483 15.3027,-2.4448 18,-2.4367 8.1682,0.025 9.491,1.2463 12.9936,12.0004 4.0983,12.5831 7.633,19.2898 11.8694,22.5211 8.1442,6.2119 18.4915,0.8846 18.5222,-9.5362 0.01,-1.925 -1.8346,-8.675 -4.0896,-15 -6.8715,-19.2741 -9.7348,-30.3778 -14.9561,-58 -2.7551,-14.575 -5.2012,-27.175 -5.4358,-28 -0.2347,-0.825 -2.0294,-10.1926 -3.9882,-20.8169 -5.1014,-27.6683 -10.0753,-42.0475 -15.7697,-45.5893 -2.1829,-1.3577 -6.1057,0.6385 -9.0524,4.6065 -2.7075,3.6458 -2.6367,12.3255 0.1686,20.68 2.5176,7.4976 2.708,11.4112 0.6551,13.4641 -2.557,2.5571 -33.8067,9.2024 -85.0127,18.0783 -109.7887,19.0305 -157.011,26.6111 -202.5,32.5073 -12.925,1.6754 -34.975,4.6021 -49,6.5039 -46.1316,6.2554 -65.2175,7.6171 -148,10.5594 -15.675,0.5571 -53.025,1.9673 -83,3.1337 -66.1001,2.5721 -189.1492,3.1598 -229,1.0937 -51.1554,-2.6522 -67.9907,-3.7821 -108,-7.248 -12.375,-1.072 -33.525,-2.6341 -47,-3.4713 -13.475,-0.8372 -29.45,-1.9507 -35.5,-2.4744 -6.05,-0.5238 -23.825,-1.6456 -39.5,-2.4929 -38.2387,-2.067 -57.3487,-3.2257 -83.1345,-5.0409 -11.8989,-0.8376 -26.52391,-1.6992 -32.50001,-1.9146 -5.976,-0.2154 -17.8434,-0.7225 -26.372,-1.1269 -21.405,-1.0149 -24.9228,-0.01 -34.3571,9.8564 -7.9346,8.2944 -20.1744,26.1909 -24.624,36.0042 -6.3628,14.033 -8.7533,32.3754 -4.742,36.3866 0.8058,0.8059 5.3117,1.7855 10.8059,2.3493 21.745,2.2316 131.86781,9.0206 161.42371,9.9517 46.0909,1.4519 74.6722,2.7671 120,5.5218 103.3037,6.2781 116.9716,6.7195 216.8035,7.0013 48.8419,0.1378 89.0794,0.5266 89.4166,0.8638 1.1879,1.1879 94.1874,0.5596 127.2799,-0.8598 z m -716.36101,-29.797 c -4.9238,-4.9239 -4.4548,-18.73 0.6362,-18.73 3.3568,0 4.7192,1.844 4.7654,6.45 l 0.041,4.05 2.9566,-3.459 c 3.9538,-4.6255 9.9528,-16.4109 14.2735,-28.041 6.0233,-16.2129 5.9699,-16.5408 -1.4244,-8.75 -3.5236,3.7125 -6.9391,6.75 -7.59,6.75 -0.651,0 -1.8627,-0.9696 -2.6927,-2.1546 -1.9515,-2.7861 -1.3339,-3.9288 8.2233,-15.2148 9.5359,-11.2608 15.3464,-13.9111 18.3195,-8.3558 1.5491,2.8946 0.504,8.6774 -4.1252,22.8248 -5.7457,17.5597 -13.7265,33.4435 -20.254,40.3107 -6.4001,6.7332 -9.647,7.8015 -13.1289,4.3197 z m 1240.07311,-28.1608 c -2.2708,-2.2707 -13.6038,-50.7607 -17.1632,-73.4349 -1.4771,-9.4093 -1.4831,-10.5858 -0.065,-12.75 3.348,-5.1098 6.8812,-1.5262 8.0014,8.1157 0.9329,8.0296 4.4822,25.3897 10.5923,51.8088 2.7741,11.9949 4.9041,23.0199 4.7331,24.5 -0.367,3.1788 -3.7141,4.145 -6.0986,1.7604 z m 57.7879,9.3807 c 19.9932,-1.9346 34.5546,-6.1888 36.8875,-10.7771 4.8133,-9.4664 5.7212,-24.4794 2.5897,-42.8234 -6.8838,-40.3255 -18.9428,-63.2689 -32.4772,-61.7911 -19.5882,2.1386 -50.5,7.0431 -50.5,8.0124 0,0.6466 1.3647,8.3202 3.0326,17.0525 1.668,8.7322 5.0201,26.3553 7.4491,39.1625 4.7214,24.8929 7.0495,34.4673 11.1678,45.9286 l 2.5924,7.2143 4.129,-0.4571 c 2.271,-0.2514 9.0791,-0.9361 15.1291,-1.5216 z M 2072.073,981.38282 c -2.6171,-1.8642 -5.5617,-7.2512 -7.0981,-12.9857 -1.7859,-6.6655 -3.0754,-20.8049 -4.149,-45.4944 -0.5621,-12.925 -2.1336,-36.55 -3.4922,-52.5 -1.3587,-15.95 -3.8366,-46.775 -5.5065,-68.5 -3.1478,-40.9531 -9.8995,-100.2717 -14.9676,-131.5 -4.3361,-26.7181 -19.6134,-104.072 -23.5024,-119 -5.85,-22.4555 -11.4808,-35.8106 -19.9364,-47.2847 -5.9506,-8.075 -20.4106,-24.2153 -21.6942,-24.2153 -3.2847,0 -15.5475,18.6298 -30.8214,46.8243 -7.2476,13.3783 -18.3724,33.1783 -24.7219,44 -6.3495,10.8216 -20.677,35.4432 -31.8389,54.7146 -19.8158,34.2124 -26.2708,44.8218 -41.7376,68.5992 -9.8034,15.0709 -34.232,55.215 -39.47,64.8619 -2.2397,4.125 -9.5377,17.9837 -16.2178,30.797 -24.4031,46.8088 -40.8316,74.6542 -56.2947,95.4162 -11.8151,15.8639 -22.0437,26.5043 -28.2879,29.427 -5.9541,2.7868 -7.2091,2.8601 -12.5289,0.7316 -7.4519,-2.9817 -25.7837,-27.257 -34.5172,-45.7083 -4.9444,-10.446 -6.3946,-15.7997 -6.4295,-23.7354 -0.033,-7.526 2.3167,-13.898 7.1496,-19.3884 8.4,-9.5429 18.7013,-13.2977 39.6374,-14.4478 10.0978,-0.5547 14.7183,-1.1992 15.6933,-2.189 0.76,-0.7716 5.6605,-15.5779 10.89,-32.9029 14.3539,-47.5533 17.7411,-55.9704 44.8701,-111.5 25.8238,-52.8582 27.5535,-56.0928 74.0593,-138.5 12.5053,-22.1591 26.6114,-45.09047 38.283,-62.23425 6.2661,-9.20384 11.3929,-16.98515 11.3929,-17.29181 0,-0.30666 -0.9392,-1.55125 -2.0871,-2.76575 -4.9141,-5.19923 -6.1199,-9.47872 -7.5158,-26.67379 -1.1172,-13.76119 -4.3971,-62.23858 -4.3971,-64.98887 0,-1.16508 -4.9863,-1.64053 -58,-5.53039 -58.0371,-4.25846 -73.811,-5.16344 -113.5,-6.51173 -17.05,-0.57921 -40.675,-1.48898 -52.5,-2.0217 -23.2352,-1.04675 -46.3643,-1.28412 -47.1643,-0.48403 -0.2738,0.27373 0.086,3.31123 0.7985,6.75 2.9498,14.22832 3.4322,39.24314 3.2459,168.35072 -0.103,71.4459 0.1015,138.2266 0.4544,148.4016 0.353,10.175 0.884,33.125 1.1802,51 0.2961,17.875 1.2319,59.95 2.0794,93.5 0.8476,33.55 1.3982,79.225 1.2235,101.5 -0.2948,37.5863 -0.456,40.7789 -2.2414,44.3762 -2.5496,5.137 -10.9627,13.4536 -14.3643,14.1995 -1.4916,0.3271 -4.2901,1.184 -6.2191,1.9043 -5.9559,2.2238 -17.6043,3.3807 -39.9928,3.9719 -11.825,0.3123 -30.95,1.0063 -42.5,1.5423 -30.7809,1.4283 -71.8484,2.926 -97.5,3.5559 -12.375,0.3038 -36,1.2482 -52.5,2.0986 -35.0263,1.8052 -54.2379,1.3503 -95,-2.2496 -32.3209,-2.8544 -36.9759,-3.5377 -48.3908,-7.1031 -14.2188,-4.4413 -23.998,-12.8558 -25.7414,-22.1492 -0.3738,-1.9926 -0.1468,-11.5032 0.5045,-21.1348 5.7428,-84.9275 8.0511,-246.4158 5.1744,-362.012 -2.8622,-115.0141 -2.3367,-196.01945 1.4089,-217.20536 3.7605,-21.26994 8.1121,-27.15614 32.5444,-44.02094 8.4462,-5.83013 39.1266,-22.7737 41.2373,-22.7737 0.4501,0 0.474,-3.0375 0.053,-6.75 -1.343,-11.84279 -0.9449,-71.9294 0.5283,-79.75 2.2928,-12.17105 3.5863,-14.03771 18.0442,-26.03863 l 13.1372,-10.90466 v -4.77836 -4.77835 h -7.4275 c -6.9765,0 -7.5686,0.17463 -9.75,2.87584 -2.8301,3.50434 -5.1076,4.72963 -11.4458,6.15763 -5.3618,1.20802 -56.362,3.07432 -60.8045,2.22508 -1.7062,-0.32616 -7.6472,-5.01625 -15.4237,-12.1761 -6.9567,-6.40508 -13.9467,-12.6439 -15.5334,-13.86403 l -2.8848,-2.21842 -51.1152,-0.0337 c -67.7642,-0.0446 -75.4115,-0.80441 -79.0572,-7.85443 l -1.476,-2.85426 -20.9166,-0.72835 c -20.4269,-0.71131 -28.66991,-0.52783 -69.66531,1.55065 -23.3309,1.18289 -79.4405,5.07671 -114.5,7.94592 -56.7021,4.64041 -107.6332,12.79477 -183.5,29.37941 -20.9,4.56879 -41.6,8.85457 -46,9.52397 -15.19141,2.31114 -87.07244,16.96817 -110.5,22.5317 -35.29927,8.3828 -68.95602,17.60508 -131.5,36.0323 -13.75,4.05113 -34.45,10.1123 -46,13.46925 -42.71096,12.41372 -109.50908,34.91488 -154.8176,52.1508 -38.82914,14.77109 -115.295293,46.65597 -131.910203,55.00396 -4.25029,2.13552 -8.52529,3.88068 -9.5,3.87813 C 24.926927,350.88717 17.789307,341.4316 6.0184174,320.3094 -0.35572258,308.87136 -0.89591258,307.13953 0.87715742,303.82652 2.7669874,300.29536 21.323237,291.8445 90.836387,262.85745 180.10194,225.63364 243.44489,202.47485 315.92394,180.56331 c 45.39242,-13.72283 120.68227,-32.57209 231.91245,-58.06064 22.825,-5.23038 50.05,-11.12953 60.5,-13.10923 10.45,-1.9797 34.075,-6.51204 52.5,-10.071879 18.425,-3.55983 42.725,-7.79957 54,-9.42165 32.1509,-4.62539 102.6616,-14.16347 111.5,-15.08276 20.9082,-2.17469 136.1246,-7.37531 189.34481,-8.54661 31.3152,-0.6892 31.3458,-0.692 32.3797,-2.96125 1.9159,-4.20486 5.8171,-4.9157 26.2755,-4.78761 15.9789,0.10004 79.1308,3.11257 101.5,4.84184 l 6.5,0.50249 12.3469,-9.91708 c 6.7908,-5.45439 14.2891,-10.82998 16.6628,-11.94575 7.0199,-3.29977 15.4622,-4.21689 44.3088,-4.81348 l 27.3186,-0.56499 4.8827,5.20078 4.8828,5.20079 8.9381,0.57908 c 10.5743,0.68507 9.7997,1.45191 13.21,-13.07822 1.2748,-5.43157 3.2474,-11.28157 4.3836,-13 7.7896,-11.7818798 54.9576,-19.8567098 102.0657,-17.4729298 28.5961,1.44703 52.9122,8.2474198 63.8596,17.8593798 5.2096,4.57413 6.6567,9.40281 7.3386,24.48798 l 0.5969,13.20524 13.5105,0.64795 c 7.4309,0.35638 22.8895,0.64796 34.3525,0.64796 h 20.8419 l 0.015,-4.75 c 0.043,-13.98366 7.5006,-30.64417 20.4105,-45.601 6.8823,-7.9734598 10.8614,-9.83354984 22.3238,-10.43560984 10.6502,-0.5594 15.4906,0.79659 22.8231,6.39359004 l 4.4451,3.39302 35.7414,0.002 c 48.3821,0.003 93.2061,1.5747698 159.5722,5.5961898 22.6619,1.37319 26.0358,1.38595 27.5,0.10407 4.5384,-3.97306 8.6225,-5.02994 21.2255,-5.49272 28.084,-1.0312498 143.7594,6.99016 185.8769,12.88948 63.6997,8.9223 100.4293,26.40913 133.6843,63.64666 15.6926,17.571869 23.2875,31.415539 28.4502,51.857219 8.2125,32.51825 7.6827,53.60581 -1.9733,78.53351 -4.2996,11.09984 -10.6284,23.29052 -16.4774,31.73915 -6.7116,9.69474 -6.0599,8.3509 -9.0814,18.72548 -5.7531,19.7534 -6.9686,37.76506 -3.9221,58.11863 2.8962,19.34951 0.172,31.87054 -9.1884,42.23133 -4.8133,5.32782 -10.1926,8.03737 -23.7057,11.9406 -19.9672,5.76748 -28.1341,11.37011 -33.6184,23.06271 -2.3916,5.09892 -2.5983,6.59279 -2.5665,18.54563 0.029,10.89491 0.4863,14.75405 2.8236,23.83219 4.8355,18.78121 11.9726,38.02058 28.4841,76.78367 35.8195,84.0917 50.0932,132.2973 74.2634,250.8051 10.949,53.6837 17.4632,116.154 15.0351,144.1842 -2.1512,24.8328 -5.5543,35.9871 -13.6461,44.7272 -14.6909,15.8679 -33.7154,18.9715 -126.9947,20.7173 -25.6397,0.4799 -29.2623,0.3559 -31.2634,-1.0696 z m 14.7022,-15.8719 c 5.4849,-3.5482 7.2692,-5.3845 9.4144,-9.6894 4.4723,-8.9748 3.9341,-19.4354 -4.9093,-95.4188 -3.0086,-25.85 -5.604,-47.4194 -5.7677,-47.9321 -0.3353,-1.0502 -22.8144,-0.8111 -23.8128,0.2534 -0.6444,0.687 0.451,15.903 4.1518,57.6722 1.1205,12.6464 2.4718,33.3464 3.0029,46 1.5925,37.9429 3.6237,53.0055 7.6974,57.0791 1.5936,1.5937 1.748,1.537 2.5755,-0.9456 0.5597,-1.6792 3.3447,-4.2352 7.6478,-7.0188 z m 84.6561,6.3655 c 15.2397,-1.3113 32.924,-4.4476 39.995,-7.0932 4.2064,-1.5738 7.5179,-3.8283 11.5588,-7.8692 6.6689,-6.6689 8.789,-12.2749 11.4393,-30.249 4.1006,-27.8089 -1.4777,-90.8922 -13.1547,-148.7623 -5.7017,-28.2568 -18.3895,-85.9647 -22.4711,-102.2049 -11.8222,-47.0393 -28.1683,-94.5321 -50.6586,-147.1867 -16.1671,-37.85051 -19.4055,-46.0366 -24.7282,-62.50734 -12.8457,-39.75037 -11.9922,-63.05039 2.8926,-78.96341 5.6561,-6.04686 15.1698,-10.85705 30.1144,-15.22609 16.6117,-4.85642 20.7869,-7.57642 25.1918,-16.41156 4.1319,-8.28737 4.522,-13.83305 2.1551,-30.63459 -2.394,-16.99419 -2.2308,-28.78374 0.6056,-43.73599 0.8707,-4.58966 1.3584,-8.56948 1.0838,-8.84406 -0.2746,-0.27457 -2.6879,1.38605 -5.3629,3.69027 -15.513,13.36257 -50.3176,33.7462 -68.9438,40.37755 -18.3213,6.52282 -20.2855,6.60323 -126.8926,5.19441 l -61.0806,-0.80718 -4.0039,5.9959 c -3.3088,4.95503 -3.7961,6.28003 -2.8071,7.63264 1.6892,2.31006 2.3925,11.88425 3.4694,47.22771 1.0872,35.67968 1.6118,38.52767 8.5102,46.20034 9.4073,10.46322 19.2318,14.85075 53.2477,23.77998 30.7573,8.07385 36.5778,10.73864 47.8362,21.90087 26.0863,25.86345 38.2732,75.40555 49.9414,203.02215 3.6184,39.5748 6.4527,65.4779 15.4397,141.1035 10.6778,89.8537 11.1792,94.7714 11.7405,115.1503 l 0.5579,20.2538 -3.1677,6.4344 c -2.9589,6.0106 -5.0146,8.381 -11.1444,12.8509 -2.3761,1.7326 -1.2824,1.7734 32.5413,1.2141 19.25,-0.3183 39.9927,-1.0083 46.0949,-1.5333 z M 2036.8364,396.52208 c -6.6841,-1.47417 -9.2077,-2.79666 -11.9224,-6.2479 -2.4806,-3.15347 -2.7368,-8.98529 -0.5331,-12.13153 7.3689,-10.52055 43.8416,-22.24839 96.9555,-31.17614 19.4615,-3.27123 48.0308,-7.06347 53.2148,-7.06367 5.001,-1.9e-4 6.9282,5.77168 2.4952,7.47279 -0.8995,0.34516 -8.8522,1.52181 -17.6727,2.61479 -52.4027,6.49338 -99.2849,17.21335 -119.2493,27.26726 -8.2304,4.14478 -10.092,5.97133 -8.294,8.13786 4.0036,4.82401 32.3974,5.36253 69.8221,1.32424 12.1958,-1.31597 13.5304,-0.93619 12.9396,3.68212 -0.3943,3.08268 -5.922,4.33849 -26.4114,6.00027 -21.8063,1.76858 -43.6378,1.81957 -51.3443,0.11991 z m -674.9829,574.38674 c 8.5156,-0.5467 31.6829,-1.4449 51.4829,-1.996 56.5645,-1.5745 91.7362,-2.924 108,-4.1439 8.25,-0.6188 22.2261,-1.0562 31.058,-0.972 24.7542,0.2359 34.7231,-1.563 44.3739,-8.0076 10.2249,-6.8279 9.5923,-2.5984 9.4046,-62.8866 -0.09,-28.875 -0.6582,-70.05 -1.2629,-91.5 -2.8445,-100.9003 -3.4767,-151.3182 -3.5865,-286 -0.117,-143.53432 -0.3741,-156.10896 -3.4738,-169.94086 -3.1041,-13.85104 -4.5745,-15.01386 -44.5133,-35.20264 -34.7836,-17.58289 -41.5,-22.26201 -41.5,-28.91203 0,-2.10312 1.6485,-6.75687 4.1504,-11.71667 2.2827,-4.52529 4.4863,-9.69473 4.8969,-11.48764 0.4136,-1.80612 -0.092,-12.9548 -1.1328,-25 -1.0337,-11.95709 -2.4234,-29.50953 -3.0883,-39.00542 l -1.2088,-17.26527 -10.3417,-8.09818 c -5.6879,-4.454 -11.0456,-9.45951 -11.906,-11.12335 -1.3145,-2.54194 -1.5015,-6.39736 -1.1706,-24.13655 0.5804,-31.11933 0.8309,-31.48336 20.8009,-30.23275 18.4119,1.15303 32.3404,1.61171 51.5,1.69593 l 20,0.0879 v -5.331239 -5.33124 l -24,-0.5 c -13.2,-0.275 -24.5625,-0.86406 -25.25,-1.30902 -1.5377,-0.99519 -1.6382,-4.90277 -0.1641,-6.37689 0.7331,-0.73304 6.5009,-0.93416 17.75,-0.61891 9.1653,0.25685 19.7154,0.093 23.4447,-0.36409 l 6.7806,-0.83109 -2.5354,-5.08025 c -4.9027,-9.82341 -2.762,-9.26871 -38.0482,-9.85896 -17.0377,-0.285 -35.1401,-0.81442 -40.2276,-1.17649 l -9.25,-0.65832 v 15.07191 c 0,8.28955 -0.4389,16.22621 -0.9752,17.637009 -1.3274,3.49116 -5.6907,3.57403 -6.999,0.13293 -0.5086,-1.337689 -0.9149,-15.906299 -0.903,-32.374699 0.024,-33.40733 -0.431,-36.82399 -5.4041,-40.55186 -7.6918,-5.76594 -21.0543,-10.41192 -38.2187,-13.2882 -15.289,-2.56201 -56.6176,-2.56562 -74,-0.006 -21.7994,3.20946 -38.1773,8.21581 -40.274,12.31091 -0.5189,1.01337 -2.2073,7.0007 -3.752,13.30518 -3.8274,15.62125 -4.288,16.03898 -17.6785,16.03172 -13.6848,-0.007 -16.8336,-0.98394 -21.4879,-6.66391 l -3.7659,-4.59578 -22.5208,0.67297 c -27.2219,0.81343 -36.859,1.95659 -42.9454,5.09418 -2.5165,1.29731 -10.0563,6.88815 -16.755,12.42409 -6.6988,5.53594 -12.7738,9.86738 -13.5,9.62542 -0.7263,-0.24195 -10.9955,-0.92364 -22.8205,-1.51486 -11.825,-0.59122 -28.925,-1.51162 -38,-2.04534 -33.3131,-1.9592 -58.8541,-2.98441 -60.3216,-2.42129 -1.274,0.4889 -1.1326,1.29807 0.9181,5.254 2.9157,5.62472 4.1572,15.07903 3.2682,24.88995 -0.495,5.463409 -1.6054,9.176899 -4.5764,15.303949 -2.1575,4.44956 -3.5597,8.31448 -3.116,8.58871 2.1235,1.31234 38.7959,2.37555 80.3277,2.32887 l 46,-0.0517 2,2.31802 c 1.1,1.27491 7.8149,7.6699 14.9221,14.21109 l 12.9221,11.89308 24.5779,-0.62555 c 31.5455,-0.80288 35.2007,-1.40303 40.556,-6.65886 l 4.0976,-4.02146 h 10.7779 c 5.9278,0 11.6286,0.4553 12.6684,1.01177 3.6415,1.94887 5.1755,13.19865 2.6277,19.27035 -0.8674,2.06723 -6.0363,7.09716 -14.455,14.06655 -14.2307,11.78081 -14.2238,11.77047 -16.4174,24.65133 -1.6622,9.75991 -1.5471,60.93842 0.1659,73.79622 l 1.2385,9.29622 -3.5503,3.34838 c -1.9527,1.84161 -10.1577,6.78894 -18.2335,10.99407 -20.8571,10.86047 -41.4621,25.18461 -46.3301,32.20756 -7.0958,10.23689 -8.8523,22.49099 -10.2775,71.69661 -1.1662,40.26517 -1.1449,42.04466 2.2602,189.16099 2.3725,102.499 -0.7392,277.177 -6.0898,341.8558 -1.209,14.6141 -0.4409,18.0742 5.1292,23.1064 8.5753,7.7473 20.0142,10.6097 55.913,13.9916 14.5734,1.3729 28.5221,2.6538 30.9971,2.8465 10.4622,0.8144 56.7326,0.6228 71.0171,-0.2942 z m -70.6331,-696.44769 c -1.7235,-4.49142 2.0872,-7.18387 15.8169,-11.17549 37.6712,-10.95209 97.811,-11.05518 161.2991,-0.27649 17.802,3.02234 22.5,4.56611 22.5,7.39357 0,0.79964 -1.0125,2.10078 -2.25,2.89143 -1.9887,1.2706 -3.8757,1.15802 -16.25,-0.96948 -39.0891,-6.72057 -60.0296,-8.66296 -93,-8.62647 -31.8496,0.0353 -57.3457,3.29432 -75.5623,9.65882 -8.2603,2.88597 -11.752,3.19308 -12.5537,1.10411 z m 3.2269,-22.85366 c -1.5911,-1.16341 -1.8644,-4.3949 -2.6859,-31.75 -0.8421,-28.04354 -0.781,-30.55372 0.7714,-31.70475 2.1147,-1.56797 2.4973,-1.56009 4.7651,0.0982 1.6113,1.17819 1.9431,3.54285 2.631,18.75 0.433,9.57098 0.8143,23.06954 0.8473,29.99679 0.052,10.97891 -0.1745,12.80737 -1.7685,14.25 -2.2001,1.99099 -2.3169,2.00021 -4.5604,0.35974 z m 182.4409,-6.14235 c -0.8588,-1.03478 -1.1219,-7.2693 -0.9388,-22.25 0.1398,-11.44682 0.1393,-24.49401 0,-28.99376 -0.2887,-9.24387 0.8702,-12.60611 4.1809,-12.12932 4.5573,0.65631 4.8853,3.25509 4.2039,33.3083 -0.5338,23.54514 -0.8869,28.2763 -2.2206,29.75 -1.9258,2.12801 -3.6338,2.23093 -5.2241,0.31478 z m -151.4151,-2.8124 c -1.0586,-1.68993 -1.5676,-8.22411 -2.0449,-26.25 -0.3494,-13.2 -0.8856,-26.475 -1.1915,-29.5 -0.6885,-6.80985 0.9164,-9.63931 4.9003,-8.6394 3.5073,0.88028 3.6448,1.90768 4.6335,34.6394 0.6931,22.94578 0.5979,27.87262 -0.5748,29.75 -0.773,1.2375 -2.0597,2.25 -2.8593,2.25 -0.7996,0 -2.0881,-1.0125 -2.8633,-2.25 z m 109.7811,-4.23509 c -1.5545,-2.37241 -1.6432,-5.13802 -0.9842,-30.68515 0.3984,-15.44275 0.9619,-28.69694 1.2524,-29.45374 0.6502,-1.69463 4.485,-1.80503 6.114,-0.17602 1.75,1.74997 1.668,56.3168 -0.09,59.79114 -1.7374,3.43414 -4.2484,3.64316 -6.2923,0.52377 z m -74.4122,-0.008 c -1.2729,-1.53377 -3.9006,-38.41069 -3.9704,-55.72155 -0.031,-7.57095 0.2151,-8.84878 1.8719,-9.73548 1.4446,-0.77308 2.3938,-0.59968 3.9133,0.71481 1.8522,1.60229 2.1348,4.09869 3.6817,32.52603 1.7588,32.32142 1.6558,33.70928 -2.5021,33.70928 -0.9653,0 -2.3128,-0.67197 -2.9944,-1.49327 z m 35.7105,-2.26799 c -1.3747,-1.51899 -1.6206,-5.90426 -1.7877,-31.8809 -0.1065,-16.5658 0.1176,-30.62324 0.498,-31.23874 1.3908,-2.25035 5.5674,-1.24901 6.8025,1.6309 1.7953,4.18601 1.677,59.45353 -0.1319,61.63316 -1.736,2.09172 -3.3976,2.04713 -5.3809,-0.14442 z m 55.7839,-77.80565 c -33.6784,-5.9144 -79.7158,-7.67002 -106.5,-4.06132 -6.875,0.92629 -13.2645,1.91955 -14.1988,2.20726 -0.9568,0.29459 -2.6049,-0.38291 -3.773,-1.55098 -2.7856,-2.78564 -1.26,-5.6233 3.7388,-6.95415 15.0153,-3.99759 67.6853,-4.96025 96.233,-1.75888 20.701,2.32143 39.9834,5.63275 42.75,7.34135 4.0731,2.51547 2.2137,7.47496 -2.7,7.20158 -1.4025,-0.078 -8.4,-1.16921 -15.55,-2.42486 z m -234.4692,-22.37573 c -0.7645,-1.4284 -0.5117,-4.20634 0.9551,-10.49693 1.097,-4.70496 2.5071,-12.90018 3.1335,-18.21159 1.4689,-12.454809 0.627,-38.133039 -1.4675,-44.758149 -1.8196,-5.75565 -0.8765,-8.59087 2.8576,-8.59087 4.2617,0 6.5548,7.35293 7.9526,25.5 1.2525,16.26204 -2.9381,49.998949 -6.9761,56.161719 -1.8623,2.84219 -5.0416,3.03714 -6.4552,0.39582 z m 97.3221,-4.58016 c -0.3213,-0.83745 0.2225,-6.57495 1.2085,-12.75 2.07,-12.96428 2.3489,-37.427439 0.5471,-48.000389 -1.2771,-7.49409 -0.4166,-10.72699 2.8553,-10.72699 5.274,0 6.5991,7.23404 6.4107,35 -0.1266,18.658469 -1.9301,33.554719 -4.4269,36.563149 -1.5743,1.89695 -5.8552,1.84127 -6.5947,-0.0858 z m -32.2677,-12.31817 c -0.6713,-1.2544 -0.4997,-4.99739 0.5388,-11.75 1.4822,-9.638339 1.3816,-29.278199 -0.2054,-40.072249 -0.5172,-3.51778 -0.2983,-4.33096 1.4122,-5.24642 4.575,-2.44847 6.5478,0.80451 8.254,13.61046 1.5685,11.77151 -0.1779,35.860489 -3.1208,43.048999 -1.1446,2.79578 -5.464,3.05274 -6.8788,0.40921 z m -97.7536,-4.73752 c -0.3331,-0.86807 0.131,-4.93086 1.0314,-9.02842 1.945,-8.851659 2.0792,-15.711299 0.4281,-21.884349 -1.0388,-3.88415 -0.9842,-4.74442 0.3885,-6.11713 2.3177,-2.31767 5.3216,-0.94622 7.436,3.39497 3.235,6.64214 1.8885,26.359779 -2.2512,32.963239 -1.6445,2.62327 -6.1199,3.05071 -7.0328,0.67169 z m 62.9184,-6.40753 c -2.9116,-1.22898 -3.0408,-5.52055 -0.2118,-7.03461 5.6178,-3.006529 14.8289,1.16237 11.7092,5.29953 -1.5124,2.00567 -8.3954,3.0444 -11.4974,1.73508 z m -5.1673,-26.859549 c -0.7108,-1.32828 -0.5647,-2.44917 0.5216,-4 1.3948,-1.99136 2.3707,-2.15461 12.881,-2.15461 9.0047,0 11.6989,0.3271 12.9433,1.57143 1.8591,1.85909 1.875,1.99275 0.5362,4.49431 -0.9382,1.75308 -2.1994,1.93426 -13.4648,1.93426 -11.0591,0 -12.5385,-0.20349 -13.4173,-1.84539 z m -4.8827,-21.35461 c -1.7144,-1.71444 -1.4824,-5.47764 0.3818,-6.19301 0.87,-0.33385 8.7195,-0.60699 17.4433,-0.60699 15.1073,0 15.9333,0.10245 17.3706,2.15461 1.0863,1.55083 1.2324,2.67172 0.5216,4 -0.8998,1.6812 -2.4793,1.84539 -17.7525,1.84539 -11.706,0 -17.1269,-0.3621 -17.9648,-1.2 z m 214.9911,-21.82985 c -19.9802,-4.53065 -33.3149,-6.12783 -55.6911,-6.67048 -17.5692,-0.42607 -21.2042,-0.76843 -22.25,-2.0956 -1.6235,-2.06027 -1.5767,-2.73454 0.3214,-4.63264 1.3101,-1.3101 4.5125,-1.57143 19.2562,-1.57143 19.6616,0 36.4617,1.66951 55.083,5.47388 17.2486,3.52393 20.4065,4.43335 21.8394,6.28932 1.6225,2.10155 1.5766,2.7673 -0.3214,4.66537 -2.0151,2.01506 -3.4119,1.90336 -18.2375,-1.45842 z m -105.6696,-5.59153 c -3.442,-3.44198 0.5794,-7.33532 7.6061,-7.36388 3.9411,-0.016 6.2354,1.86177 5.6961,4.6621 -0.75,3.8946 -10.1917,5.81228 -13.3022,2.70178 z m 352.339,874.193579 c 4.0136,-2.0756 14.6004,-13.6402 23.848,-26.0507 15.1955,-20.3929 32.8027,-50.3822 57.5501,-98.0215 17.9363,-34.5277 30.0192,-55.0727 58.5181,-99.5 7.9382,-12.375 15.0493,-23.4791 15.8026,-24.6757 0.7532,-1.1966 10.3036,-17.6216 21.2232,-36.5 10.9195,-18.8784 25.3941,-43.7743 32.1657,-55.3243 6.7716,-11.55 17.0287,-29.775 22.7935,-40.5 18.58,-34.5666 23.4094,-41.87322 37.2363,-56.33637 4.9511,-5.17895 9.002,-9.69692 9.002,-10.03995 0,-0.34302 -0.5812,-0.62368 -1.2915,-0.62368 -3.8931,0 -27.5191,-7.71174 -35.5428,-11.60153 -7.3796,-3.57749 -10.9387,-6.10362 -16.9953,-12.06277 l -7.6609,-7.53765 -3.7523,4.35098 c -10.5577,12.24204 -46.9258,68.71407 -65.2702,101.35097 -4.328,7.7 -12.2181,21.65 -17.5337,31 -17.7635,31.2459 -27.5805,49.7316 -46.3651,87.3069 -33.5213,67.0537 -39.0417,80.4498 -54.1243,131.3413 -8.3223,28.081 -9.9298,32.2718 -13.201,34.4152 -2.0255,1.3272 -6.1348,1.948 -17.2118,2.6004 -26.1439,1.5398 -37.6561,7.4391 -41.0841,21.0529 -2.7888,11.0753 6.5424,32.6241 22.9696,53.0442 11.6785,14.5173 12.9979,15.3757 18.9239,12.3113 z m 378.6236,-103.4307 5.9842,-0.6415 -0.3008,-4 c -0.1654,-2.2 -0.6201,-5.5426 -1.0104,-7.428 l -0.7096,-3.4279 -11.4076,-0.06 -11.4076,-0.06 0.2319,6.488 c 0.3565,9.9724 0.3795,10.005 6.9532,9.8795 3.1254,-0.06 8.3755,-0.3972 11.6667,-0.75 z m 2.8053,-24.8915 c 0.2241,-0.4125 -1.0627,-13.35 -2.8595,-28.75 -1.7968,-15.4 -4.6721,-43.3 -6.3895,-62 -3.9387,-42.8882 -4.7121,-50.5087 -5.1709,-50.9485 -0.2032,-0.1948 -6.375,-0.1072 -13.715,0.1947 l -13.3455,0.5489 0.6393,3.1025 c 4.1931,20.3502 15.0195,99.5175 17.0398,124.6024 0.3323,4.125 0.8287,8.9625 1.1033,10.75 l 0.4992,3.25 h 10.8957 c 5.9926,0 11.079,-0.3375 11.3031,-0.75 z m -23.9242,-150.2413 8.8652,-0.01 -0.7117,-5.75 c -0.3914,-3.1625 -0.7808,-5.8225 -0.8652,-5.9111 -0.1456,-0.1528 -28.0256,2.3835 -28.2692,2.5717 -0.064,0.049 0.2542,2.0019 0.7064,4.3394 0.4522,2.3375 0.8418,4.6502 0.8657,5.1393 0.024,0.4891 2.4061,0.6055 5.2936,0.2587 2.8875,-0.3468 9.2394,-0.6345 14.1152,-0.6393 z m -6.1334,-19.15 c 12.14,-1.1021 12.7108,-1.2535 12.2818,-3.2573 -0.2475,-1.1557 -0.9441,-5.7014 -1.548,-10.1014 -6.4341,-46.879 -12.9104,-72.5574 -24.0449,-95.3377 -5.2437,-10.72807 -7.0344,-13.34193 -13.7256,-20.0344 -5.0826,-5.08362 -9.7321,-8.67317 -13.6951,-10.57302 -6.7063,-3.215 -16.9506,-6.55229 -20,-6.51541 -1.1,0.0133 -4.4495,2.19782 -7.4433,4.85448 l -5.4433,4.83029 7.6553,8.38788 c 12.0464,13.19918 18.432,21.71168 23.1703,30.88788 8.1935,15.8674 15.2588,40.9866 22.7125,80.75 2.941,15.689 3.4198,17.2507 5.291,17.2572 1.1316,0 7.7868,-0.5129 14.7893,-1.1485 z M 1898.7563,431.89905 c -1.055,-0.82701 -2.3741,-3.07701 -2.9314,-5 -2.3855,-8.23207 -4.24,-29.22775 -4.8438,-54.8395 l -0.6447,-27.34318 -2.8323,2.23046 c -2.6687,2.10168 -2.7984,2.55449 -2.2472,7.84317 0.3218,3.087 1.2724,16.63772 2.1125,30.11272 2.8398,45.55053 3.2661,48.68207 7.2488,53.2481 1.4296,1.63908 1.666,1.54553 3.7905,-1.5 2.2217,-3.18504 2.2285,-3.27729 0.3476,-4.75177 z m 14.087,-9.99633 c 1.6271,0 1.7328,-0.39702 0.8657,-3.25 -0.5433,-1.7875 -1.4278,-14.95 -1.9656,-29.25 -2.0127,-53.52065 -1.7102,-50.34685 -4.9596,-52.0272 -4.0201,-2.07889 -6.1694,-1.79169 -8.2802,1.10645 -1.5047,2.06603 -1.6055,2.79016 -0.5632,4.04607 0.9336,1.12489 1.3312,7.92634 1.5027,25.70218 0.1283,13.29488 0.7372,28.8975 1.3531,34.6725 1.1999,11.24912 2.9069,21.97527 3.702,23.26172 0.2685,0.43445 1.8389,-0.34671 3.4899,-1.73591 1.651,-1.38919 3.8358,-2.52581 4.8552,-2.52581 z m -29.2608,-82.75 4.5827,-3.75 -7.4144,-1.18724 c -4.0779,-0.65298 -9.2506,-1.21548 -11.4949,-1.25 -3.7104,-0.0571 -4.3693,0.33947 -7.2658,4.3727 l -3.1853,4.43547 3.2658,0.4045 c 1.7962,0.22247 6.3401,0.47651 10.0975,0.56453 6.5157,0.15264 7.0437,-0.0134 11.4144,-3.58996 z M 36.114907,338.7577 c 14.58552,-7.37312 74.222743,-32.38637 119.221483,-50.0043 46.40781,-18.16961 115.87283,-41.87523 164,-55.96662 13.2,-3.86489 35.25,-10.34718 49,-14.40509 106.73323,-31.49914 149.84457,-41.86512 252,-60.5926 3.3,-0.60497 23.325,-4.84236 44.5,-9.41643 96.8124,-20.9127 136.1899,-25.92401 275.5,-35.06107 17.5816,-1.15314 96.06441,-2.85992 112.13391,-2.4386 0.6236,0.0163 2.1986,-2.55777 3.5,-5.72027 1.9186,-4.66251 2.3661,-7.546719 2.3661,-15.249999 0,-6.51106 -0.4777,-10.44387 -1.5182,-12.5 l -1.5182,-3 -27.4818,0.31105 c -47.36351,0.53608 -164.19561,5.39627 -195.48181,8.13199 -10.2647,0.89756 -56.0374,6.97541 -106.5,14.14138 -15.675,2.22594 -42.45,6.738559 -59.5,10.028029 -17.05,3.28948 -42.61715,8.22784 -56.81588,10.97412 -24.17477,4.67584 -107.92674,23.56018 -130.18412,29.35384 -5.5,1.43167 -18.55,4.57857 -29,6.99312 -23.10715,5.33909 -73.99396,18.09406 -96.5,24.18811 -57.4695,15.56122 -129.21732,39.89558 -199.5,67.66343 -43.10674,17.03096 -124.899243,51.4379 -138.776863,58.37804 l -6.7768596,3.38909 2.6852896,4.7239 c 1.47691,2.59814 3.58271,6.2989 4.67955,8.2239 3.86832,6.78904 12.8732,21 13.3068,21 0.24151,0 3.23878,-1.41526 6.6606,-3.14502 z M 1852.8496,335.22413 c 5.595,-7.08118 6.9065,-9.30287 6.9514,-11.77574 0.02,-1.07488 2.9235,-6.69988 6.4533,-12.5 11.6324,-19.11385 16.2523,-29.88584 20.466,-47.71914 2.4444,-10.34509 3.8076,-14.57713 6.7086,-20.82653 4.182,-9.0092 4.9086,-16.65685 4.8926,-51.5 -0.013,-28.83487 -0.3261,-35.26295 -2.7746,-57 -9.4739,-84.104639 -16.922,-105.873169 -36.2605,-105.978039 -2.2275,-0.0121 -4.5783,-0.55024 -5.224,-1.19592 -1.3445,-1.3445 -9.6379,-1.97378 -62.726,-4.75946 -51.3467,-2.6943 -106.678,-4.27508 -137.2172,-3.9202 -24.7282,0.28736 -25.2712,0.25018 -28,-1.9169 -8.0396,-6.3846398 -11.4529,-7.7341298 -19.2828,-7.6237798 -10.4437,0.14719 -13.501,1.7326798 -20.7735,10.7729298 -7.2012,8.95169 -12.3378,19.26355 -14.6042,29.31878 -2.2996,10.20235 -2.175,12.30259 0.7298,12.30259 5.5741,0 13.7127,8.55264 17.8117,18.71769 2.1414,5.31055 2.3278,7.21008 2.2841,23.282309 -0.05,18.51998 -1.4229,30.08405 -6.0538,51 -1.4003,6.325 -3.5687,13.75 -4.8185,16.5 -2.7064,5.95476 -11.2804,14.69887 -18.9836,19.36026 l -5.5531,3.36026 -3.6455,-2.15089 c -2.005,-1.183 -3.8804,-1.91596 -4.1675,-1.62882 -0.5612,0.56116 1.3354,52.39939 2.8193,77.05919 0.4964,8.25 0.9144,19.16911 0.9287,24.2647 l 0.026,9.2647 3.25,1.98156 c 4.3641,2.66085 5.315,2.50023 3.3104,-0.55919 -1.422,-2.17025 -1.8018,-7.39895 -2.56,-35.25 -0.4897,-17.98597 -1.2067,-38.65045 -1.5933,-45.92106 -0.5356,-10.07149 -0.4005,-13.58379 0.5674,-14.75 1.5741,-1.89668 4.4095,-1.97793 5.9104,-0.16938 1.2234,1.47404 2.7301,27.3758 3.9056,67.13867 l 0.7095,24 6.5,3.19747 c 3.575,1.7586 6.8315,3.2211 7.2366,3.25 1.9392,0.1383 8.4488,-22.20261 11.2026,-38.44747 4.6011,-27.14152 11.0514,-84.57329 13.646,-121.5 1.2005,-17.08521 0.6755,-45.994099 -1.135,-62.499999 -1.1726,-10.69039 -4.4116,-24.33529 -7.1807,-30.25 -2.5744,-5.49868 -5.0846,-5.55979 -10.2695,-0.25 -4.0342,4.13143 -6.2284,4.87162 -8.3,2.8 -2.0578,-2.05782 -1.3355,-4.64424 2.4748,-8.86186 6.3917,-7.07474 12.0138,-8.64496 17.9635,-5.01704 3.7639,2.29512 7.2371,9.31577 10.1807,20.5789 3.9288,15.03321 4.6624,24.43492 4.6427,59.499999 -0.017,30.64521 -0.297,36.18436 -3.2831,65 -8.421,81.26099 -15.7999,118.83737 -24.7129,125.84832 -3.594,2.82707 -4.2583,2.76122 -13.7836,-1.36662 -11.2126,-4.85906 -8.5691,-2.88877 6.2697,4.67297 8.1032,4.12934 14.4062,8.15119 18.0483,11.51629 l 5.5965,5.17095 31.4517,0.50846 c 59.7816,0.96644 122.0202,3.81742 176.9517,8.10567 42.1342,3.28923 37.6811,3.61375 43.0132,-3.13463 z m -236.4418,-17.89284 c -2.0014,-2.0014 -2.0914,-1.0409 1.506,-16.07099 14.4018,-60.172 19.2135,-95.89855 21.1175,-156.7971 1.273,-40.7159 0.3724,-70.839989 -2.7225,-91.060479 -1.8688,-12.21014 -1.4858,-14.5 2.4253,-14.5 3.4977,0 4.5647,2.29754 6.0373,13 2.2421,16.29518 3.0439,32.81849 3.0327,62.499999 -0.025,66.51376 -3.5717,104.76749 -14.6025,157.5 -9.3131,44.52127 -11.577,50.64534 -16.7938,45.42857 z m 293.4286,10.46857 c 0,-0.60657 2.2199,-5.53728 4.9332,-10.95713 6.3672,-12.71864 12.5832,-31.91273 15.0971,-46.61716 1.0941,-6.40009 1.8158,-11.81006 1.6037,-12.02215 -0.5357,-0.53578 -32.9776,-2.12782 -33.8064,-1.659 -0.3698,0.2092 -1.3985,3.6379 -2.2861,7.61933 -3.7033,16.61153 -9.1735,30.04015 -18.9383,46.49047 -3.6317,6.11834 -6.6032,11.55406 -6.6032,12.07939 0,1.46452 1.7364,1.86467 13.5569,3.12414 10.9767,1.16956 24.2899,2.68181 25.6931,2.91847 0.4125,0.0696 0.75,-0.36979 0.75,-0.97636 z m 181.6632,-15.39134 c 11.8822,-1.92716 20.6512,-5.12793 37.8368,-13.81075 26.3419,-13.30899 52.2428,-32.78823 64.9278,-48.83023 13.711,-17.33947 25.0373,-44.86202 27.1052,-65.86482 0.8229,-8.35715 -1.598,-27.07401 -5.5118,-42.6149 -5.6832,-22.56645 -14.9656,-37.62987 -35.9783,-58.385099 -33.7459,-33.33251 -71.1747,-47.18539 -148.5429,-54.97775 -25.1946,-2.53754 -103.6405,-8.2151 -104.3064,-7.54922 -0.2737,0.27376 2.5125,8.19557 6.1916,17.60402 13.7125,35.06606 19.8634,66.944839 25.5506,132.422949 2.5778,29.67912 2.7791,47.6643 0.6427,57.42651 -1.5136,6.91629 -4.1613,16.75028 -5.375,19.96371 -0.4376,1.1586 1.2094,1.27419 9.8857,0.6938 25.8451,-1.7289 54.0349,-7.47083 72.2208,-14.71053 21.5366,-8.57356 32.825,-15.84322 47.94,-30.873 10.3463,-10.28799 12.7279,-13.99428 9,-14.00598 -0.9625,-0.003 -10.9827,4.48503 -22.2672,9.97345 -23.3641,11.3636 -40.1565,17.27927 -55.5289,19.56186 -12.3655,1.83609 -17.3283,1.6458 -18.8106,-0.72128 -1.7192,-2.74537 1.601,-5.45295 7.6503,-6.23879 10.791,-1.40179 28.5229,-5.53371 37.1323,-8.65263 4.9093,-1.77847 16.8754,-7.19406 26.5913,-12.03465 9.7159,-4.84059 19.5017,-9.21368 21.7462,-9.71798 11.0154,-2.47499 16.8555,3.63179 12.7865,13.37034 -2.0979,5.02099 -19.2291,22.24208 -29.3578,29.51184 -10.4352,7.48974 -28.7339,16.46991 -43.4324,21.31463 -19.019,6.26878 -50.6623,11.62867 -68.7536,11.64581 -4.1283,0.004 -10.4735,0.28743 -14.1003,0.63005 l -6.5941,0.62295 -1.2239,9.35472 c -1.4045,10.73471 -4.8471,24.30047 -9.1252,35.95766 -1.6295,4.43987 -2.9626,8.36977 -2.9626,8.73311 0,0.36335 23.6506,0.61883 52.5569,0.56773 28.9063,-0.0511 52.8313,0.18151 53.1667,0.51689 1.3344,1.33447 49.7368,0.60816 58.9396,-0.88442 z m 32.4496,-122.86983 c -0.8546,-1.02977 -1.0124,-3.66439 -0.535,-8.93271 0.7404,-8.17005 -0.5278,-15.57436 -3.7731,-22.03003 -2.4492,-4.87221 -2.0633,-8.06579 1.0278,-8.50359 3.1294,-0.44323 5.526,1.92687 8.2428,8.15166 2.8094,6.43692 3.9022,25.5218 1.6994,29.6787 -1.5411,2.90834 -4.9177,3.73753 -6.6619,1.63597 z m -579.1128,105.07983 c 0,-0.70632 -0.7067,-14.54382 -1.5705,-30.75 -0.8638,-16.20619 -1.8763,-41.1658 -2.25,-55.4658 l -0.6795,-26 -7.75,-0.29206 -7.75,-0.29207 v 5.8754 c 0,3.23147 1.1637,19.1129 2.5861,35.29207 1.4224,16.17916 2.3621,31.70899 2.0884,34.51074 -0.3221,3.29628 -2.0991,8.28251 -5.0352,14.12855 -3.7088,7.38467 -4.3184,9.32453 -3.3383,10.62279 1.1929,1.58023 21.4719,13.65458 22.933,13.65458 0.4213,0 0.766,-0.57789 0.766,-1.2842 z m 402.3633,-52.96941 c 4.6845,-18.21832 4.9443,-20.15634 4.9261,-36.74639 -0.018,-16.28944 -1.4058,-34.33774 -5.3444,-69.5 -4.388,-39.174089 -10.8102,-67.084949 -21.9381,-95.343669 -3.9323,-9.98596 -7.8247,-18.83129 -8.6497,-19.65631 -1.2521,-1.25204 -5.566,-1.50002 -26.0953,-1.50002 -13.5274,0 -24.3961,0.19917 -24.1526,0.4426 0.2434,0.24343 2.9041,1.72851 5.9126,3.30018 16.6857,8.7167 24.23,35.39707 32.4495,114.757219 5.2296,50.49276 4.1041,92.69406 -2.8989,108.68843 -0.9376,2.14162 1.6289,2.40228 25.9275,2.63326 l 18,0.1711 z m -381.7449,-64.99639 c 3.6804,-3.4375 7.512,-8.05 8.5147,-10.25 3.5085,-7.69842 5.2955,-7.17671 -27.3831,-7.99477 -16.0875,-0.40273 -30.0375,-1.14699 -31,-1.65392 -2.2118,-1.16492 -2.2559,-4.18892 -0.087,-5.97887 1.7779,-1.46728 18.5771,-1.48939 48.1829,-0.0634 7.8902,0.38003 14.4842,0.46597 14.6533,0.19097 0.5004,-0.81391 4.3796,-24.97195 5.0953,-31.73199 l 0.6599,-6.232 -41.3772,0.2817 -41.3771,0.2817 -0.6511,5.45029 c -0.3581,2.99767 -0.6956,11.81295 -0.75,19.58952 -0.114,16.30224 -0.7416,14.92868 10.9011,23.86015 4.125,3.16442 8.4663,6.8835 9.6473,8.26463 1.9898,2.32705 2.9062,2.538 12.5,2.87751 15.0867,0.5339 16.3333,0.86798 20.0808,5.38168 1.7996,2.16741 3.8179,3.94887 4.4853,3.95878 0.6674,0.01 4.2247,-2.79447 7.905,-6.23197 z"
     style="fill:#000000" />
</svg>
