<?xml version="1.0" encoding="UTF-8" standalone="no"?>
<svg
   xmlns:dc="http://purl.org/dc/elements/1.1/"
   xmlns:cc="http://creativecommons.org/ns#"
   xmlns:rdf="http://www.w3.org/1999/02/22-rdf-syntax-ns#"
   xmlns:svg="http://www.w3.org/2000/svg"
   xmlns="http://www.w3.org/2000/svg"
   id="svg15724"
   preserveAspectRatio="xMidYMid meet"
   viewBox="0 0 12000 11999.269"
   height="1199.9269"
   width="1200"
   version="1.0">
  <metadata
     id="metadata15730">
    <rdf:RDF>
      <cc:Work
         rdf:about="">
        <dc:format>image/svg+xml</dc:format>
        <dc:type
           rdf:resource="http://purl.org/dc/dcmitype/StillImage" />
        <dc:title></dc:title>
      </cc:Work>
    </rdf:RDF>
  </metadata>
  <defs
     id="defs15728" />
  <path
     d="m 4352,11993.269 c 4,-3 -16,-71 -43,-152 -27,-81 -63,-199 -79,-262 -16,-63 -49,-185 -74,-270 -24,-85 -72,-264 -105,-397 -33,-132 -91,-335 -130,-450 -51,-154 -80,-263 -111,-418 -22,-114.9999 -52,-238.9999 -65,-274.9999 -72,-197 -133,-354 -200,-510 -40,-96 -78,-187 -84,-201 -6,-17 -51,-56 -123,-106 -62,-44 -152,-114 -199,-154 -48,-41 -104,-83 -125,-94 -22,-10 -63,-34 -91,-52 -29,-18 -79,-46 -110,-63 -88,-45 -232,-140 -326,-214 -47,-36 -90,-66 -96,-66 -7,0 -33,10 -59,21 -26,12 -65,30 -88,39 -23,10 -77,40 -120,68 -44,27 -135,78 -203,112 -68,35 -163,92 -210,127 -47,36 -128,86 -181,113 -54,28 -145,89 -210,140 -63,51 -144,113 -180,140 -36,27 -84,72 -108,99 -46,55 -78,65 -118,37 -18,-13 -22,-29 -27,-135 -7,-132 -7,-134 -131,-418 -37,-84 -88,-187 -115,-230 -99,-160 -226,-351 -290,-437 -36,-48 -91,-130 -121,-182 -77,-130 -209,-316 -221,-309 -5,4 -9,-822 -9,-2234 0,-1981 2,-2241 15,-2241 8,0 51,-33 95,-74 59,-54 92,-77 123,-84 23,-6 84,-36 135,-67 50,-30 94,-55 98,-55 4,0 45,-28 93,-63 47,-35 120,-88 161,-117 41,-30 89,-65 105,-77 55,-43 161,-111 186,-118 66,-20 121,-61 164,-121 54,-75 144,-167 239,-242 39,-31 112,-93 161,-137 50,-44 118,-105 152,-134 35,-30 74,-73 87,-96 24,-40 80,-86 121,-99 11,-4 33,-25 48,-48 41,-58 53,-40 -243,-358 -49,-52 -113,-122 -142,-156.00004 -29,-33 -99,-112 -156,-175 -56,-64 -126,-147 -155,-186 -29,-39 -127,-141 -218,-227 -116,-109 -187,-186 -235,-253 C 796,79.269056 757,27.269056 747,17.269056 731,0.26905645 732,-0.73094355 802,0.26905645 h 73 L 930,75.269056 c 31,42.000004 129,144.000004 228,237.000004 95,89 197,194 226,232 29,39 87,106 127,150 41,44 117,130 169,189 52,60 120,135.00004 150,165.00004 30,31 105,111 165,178 84,94 116,123 135,123 42,1 60,24 75,95 8,37 22,80 32,95 10,15 51,82 91,149 41,66 84,126 96,134 12,8 47,37 77,64 29,27 68,55 86,62 17,7 66,50 110,96 89,95 112,123 173,216 37,56 57,74 119,110 97,57 187,145 241,238 23,41 79,115 124,164 227,251 413,499 512,683 116,216 190,326 323,484 41,50 92,127 123,185 33,65 77,129 126,185 84,97 125,157 238,354 73,129 85,144 164,210 213,177 305,272 363,374 91.7048,174.0494 141.4399,255.3261 217,382 118,198 177,351 165,428 -10,67 -44,127 -135,240 -66,83 -79,104 -71,119 5,10 116,122 247,248 131,127 285,279 343,339 64,65 139,131 189,164 46,30 122,90 169,131 84,75 159,131 270,203 32,21 107,82 167,137 69,63 136,114 185,140 42,23 128,80 191,128 63,47 155,107 205,133 49,26 124,66 165,89 41,22 78,41 81,41 3,0 9,-28 12,-61 3,-36 13,-73 24,-88 10,-14 27,-43 38,-64 11,-21 35,-53 52,-70 18,-18 33,-35 33,-39 0,-3 -15,-24 -34,-46 -60,-73 -148,-213 -162,-260 -19,-62 -18,-142 3,-183 9,-18 42,-59 72,-90 51,-52 62,-58 131,-74 106,-24 104,-23 91,-38 -24,-30 -91,-169 -107,-223 -21,-74 -16,-213 11,-264 37,-72 86,-119 159,-156 l 72,-35 115,4 c 63,3 129,8 147,12 17,4 32,5 32,3 0,-3 -27,-60 -60,-127 -65,-132 -80,-185 -80,-292 0,-37 -4,-70 -9,-74 -5,-3 -44,-10 -86,-15 -95,-12 -236,-55 -278,-86 -18,-12 -63,-40 -102,-62 -91,-52 -205,-158 -260,-241 -24,-36 -75,-104 -112,-151 -38,-47 -80,-105 -94,-130 -52,-91 -72,-126 -95,-165 -13,-22 -35,-72 -49,-110 -15,-39 -35,-84 -46,-101 -11,-18 -26,-72 -34,-120 -9,-49 -20,-111 -25,-139 -10,-57 -5,-188 9,-255 6,-25 15,-76 22,-115 6,-38 27,-119 46,-180 53,-166 86,-211 282,-389 267,-242 373,-304 641,-374 130,-34 142,-35 320,-36 l 185,-1 245,72 c 278,82 372,121 448,187 30,25 79,63 110,83 118,78 258,237 344,393 35,64 75,189 98,309 11,57 21,106 23,108 10,9 35,-12 77,-64 25,-31 65,-79 90,-106 49,-54 211,-166 244,-169 12,-1 53,-2 91,-3 39,0 100,-5 137,-9 43,-6 72,-5 80,1 7,6 45,20 83,31 77,24 150,82 162,130 3,15 15,33 25,40 21,15 55,77 78,142 8,25 45,92 81,150 90,143 113,192 133,280 21,93 60,179 208,455 98,180 116,212 183,315 67,104 168,281 185,324 18,49 87,140 192,252 118,127 200,204 217,204 8,0 11,56 11,200 v 199 l -27,-25 c -16,-15 -48,-37 -73,-51 -129,-73 -200,-128 -290,-225 -93,-100 -178,-204 -214,-261 -9,-16 -42,-58 -73,-94 -31,-36 -74,-95 -95,-130 -22,-36 -62,-93 -90,-126 -32,-39 -60,-89 -78,-137 -34,-90 -109,-264 -178,-415 -47,-102 -66,-147 -152,-372 -17,-45 -55,-122 -85,-171 -30,-49 -69,-118 -87,-152 -23,-45 -47,-74 -85,-101 -29,-22 -57,-48 -62,-58 -6,-10 -24,-23 -39,-29 -39,-13 -130,-4 -167,17 -26,14 -104,113 -105,133 0,3 11,20 25,36 30,35 32,70 7,103 -10,13 -43,65 -72,114 -30,50 -79,115 -110,147 -45,44 -55,60 -47,73 6,11 4,22 -8,35 -12,14 -15,29 -9,69 5,42 4,52 -10,57 -9,3 -16,12 -16,19 0,7 56,64 124,126 113,102 187,156 352,259 147,91 366,286 476,424 137,171 240,340 303,496 14,36 50,103 79,150 70,112 158,285 195,385 16,44 44,114 62,155 18,41 47,120 65,175 17,55 48,143 67,195 19,52 47,135 63,183 42,135 65,164 165,213 46,23 108,50 137,60 l 52,19 v 55 c 0,30 -4,50 -8,43 -4,-6 -36,-22 -72,-36 -106,-40 -214,-93 -249,-123 -41,-34 -72,-101 -112,-243 -17,-58 -46,-144 -64,-191 -18,-47 -48,-130 -65,-185 -18,-55 -45,-127 -60,-160 -15,-33 -37,-91 -49,-130 -31,-96 -118,-273 -195,-399 -36,-57 -95,-163 -131,-235 -37,-73 -77,-144 -90,-159 -12,-15 -35,-47 -50,-72 -89,-144 -328,-387 -497,-505 -59,-41 -111,-75 -116,-75 -25,0 -202,-136 -316,-243 -181,-170 -277,-247 -308,-247 -30,0 -118,-30 -176,-59 -60,-31 -111,-114 -127,-209 -10,-56 -20,-81 -39,-100 -25,-25 -26,-26 -73,-11 -43,13 -50,20 -65,59 -20,54 -22,132 -4,180 8,19 26,69 41,110 28,76 117,219 185,297 20,23 52,70 70,105 60,113 108,175 243,310 148,149 298,323 328,381 14,27 24,36 32,29 18,-14 142,-36 161,-29 9,4 16,11 16,17 0,18 -81,50 -126,50 h -41 l 4,53 c 3,33 17,76 39,118 35,68 45,124 22,117 -13,-5 -72,-77 -81,-100 -4,-10 -8,-10 -14,-2 -4,7 -19,14 -32,15 -18,3 -29,18 -48,67 -41,101 -71,74 -38,-34 l 15,-49 -27,-23 c -37,-29 -134,-85 -140,-79 -2,3 13,40 35,83 22,44 45,97 52,119 7,22 16,45 21,50 13,18 64,243 104,459 9,49 22,101 30,117 8,15 15,52 15,81 0,52 15,150 44,299 12,62 46,399 46,459 0,9 -9,26 -20,38 -11,12 -20,30 -20,42 0,46 -34,6 -45,-54 -8,-39 -24,-48 -32,-16 -6,24 -23,27 -23,4 0,-29 -23,-8 -35,32 l -11,39 -13,-25 c -8,-14 -15,-26 -16,-28 -8,-10 -55,33 -55,49 0,11 -7,19 -15,19 -11,0 -15,-12 -15,-45 0,-75 -3,-71 -153,152 -190,284 -379,505 -442,518 -14,3 -36,7 -50,10 -14,3 -35,17 -47,30 -12,14 -39,30 -60,36 l -38,10 47,55 c 73,83 236,206 358,269 61,32 124,66 141,76 46,28 219,83 411,131 l 168,43 200,1 c 110,0 251,6 314,12 105,10 117,14 150,42 20,16 56,41 81,54 162,86 300,185 525,377.9999 111,94 263,206 457,335 l 147,98 1,61 v 62 l -77,-80 c -55,-57 -94,-88 -133,-105 -114,-51 -322,-200 -552,-393.9999 -62,-52 -126,-104 -143,-116 -58,-40 -221,-141 -270,-168 -27,-15 -62,-38 -76,-52 -23,-21 -42,-26 -135,-36 -60,-7 -179,-11 -264,-9 -178,3 -236,-5 -450,-59 -228,-59 -337,-96 -410,-138 -36,-21 -97,-55 -136,-74 -39,-20 -116,-71 -170,-113 -117,-91 -294,-265 -294,-289 0,-22 -35,-11 -139,44 l -44,23 69,70 c 38,38 107,102 154,141 107,90 727,717 848,856.9999 49,58 161,175 249,260 174,169 621,585 693,645 25,20 160,153 300,294 189,189 270,278 312,342 32,47 79,110 105,139 63,70 251,240 277,250 13,6 -16,9 -82,9 l -102,1 -108,-108 c -59,-59 -135,-148 -170,-197 -98,-141 -139,-189 -216,-257 -39,-35 -125,-119 -191,-187 -66,-68 -165,-163 -220,-210 -55,-47 -176,-158 -270,-246 -93,-88 -201,-186 -240,-217 -75,-61 -380,-374 -485,-498 -94,-110.9999 -671,-689.9999 -770,-772.9999 -47,-39 -151,-134 -231,-211 -80,-78 -210,-201 -290,-274 -140,-130 -148,-136 -274,-195 -159,-74 -214,-111 -330,-221 -77,-74 -101,-91 -167,-116 -78,-30 -105,-44 -233,-119 -38,-23 -75,-41 -82,-41 -6,0 -68,-43 -137,-95 -69,-51 -147,-106 -173,-121 -109,-62 -152,-93 -247,-183 -56,-51 -150,-127 -211,-167 -60,-40 -148,-107 -195,-149 -47,-42 -125,-104 -175,-138 -66,-44 -153,-123 -331,-301 -132,-133 -274,-272 -315,-311 -42,-38 -95,-92 -118,-120 l -42,-50 -22,30 c -12,17 -70,80 -128,140 -58,61 -158,172 -223,247 -128,151 -266,283 -426,409 -57,46 -151,131 -208,190 -78,81 -142,135 -256,213 -114,80 -157,116 -174,146 -26,47 -79,84 -142,100 -60,16 -198,118 -199,147 -1,22 84,277 118,354 29,64 74,117 166,196 44,37 198,185 342,328 144,143 295,292 335,330 40,39 99,100 131,138 32,37 95,98 140,136 90,75 198,184 275,276 68,81 223,238.9999 299,302.9999 34,29 163,158 287,288 124,129 259,261 300,294 40,32 93,83 117,114 28,36 46,51 50,43 4,-6 12,-55 18,-107 6,-52 25,-167 42,-255 29,-147 31,-171 26,-305 -3,-80 -12,-176 -20,-215 -8,-37.9999 -18,-86.9999 -21,-106.9999 l -7,-37 -57,1 c -59,1 -175,-29 -247,-65 -52,-25 -105,-75 -237,-224 -42,-48 -62,-80 -79,-131 -12,-37 -36,-94 -54,-127 -53,-98 -85,-262 -85,-439 0,-104 4,-135 31,-230 40,-141 58,-182 120,-271 78,-114 285,-264 446,-325 119,-44 421,-55 539,-19 234,71 471,279 579,507 92,192 137,538 91,689 l -19,62 74,86 c 109,128 193,231 256,315 31,41 123,152 203,245 80,93.9999 190,223.9999 245,289.9999 93,114 467,495 484,495 5,0 39,40 75,89 36,49 92,111 124,138 31,26 156,144 277,262 121,117 258,243 305,280 47,36 135,113 195,172 117,111 271,250 319,287 l 29,22 h -342 c -187,0 -341,-4 -341,-8 0,-5 -66,-65 -147,-134 -244,-208 -396,-374 -602,-661 -35,-49 -102,-130 -149,-180 -47,-51 -123,-141 -168,-202 -45,-60 -96,-123 -114,-140 -18,-16 -100,-104 -183,-195 -83,-91 -202,-216 -264,-279 -62,-63 -141,-154 -175,-203.9999 -108,-154 -161,-222 -234,-301 l -70,-77 -27,21 c -15,12 -27,26 -27,31 0,4 28,85 63,178 77,204.9999 118,270.9999 233,370.9999 123,108 264,281 350,430 65,114 175,260 255,341 88,88 113,134 148,270 26,101 85,256 125,329 61,111 138,271 153,318 9,31 23,65 31,75 14,16 11,17 -50,17 h -65 l -38,-82 c -20,-46 -61,-126 -91,-179 -76,-136 -150,-315 -179,-430 -31,-128 -40,-144 -142,-252 -47,-51 -93,-103 -101,-117 -9,-14 -37,-52 -63,-85 -26,-33 -59,-82 -74,-110 -88,-158 -206,-308 -338,-427 -160,-145 -179,-175 -277,-442.9999 -34,-93 -80,-210 -102,-260 -53,-118 -120,-297 -173,-465 -23,-74 -59,-175 -79,-224 -20,-49 -36,-95 -36,-102 0,-8 -4,-14 -9,-14 -4,0 -11,30 -15,68 -4,37 -12,78 -19,92 -18,36 -110,81 -177,87 -55,5 -55,5 -98,-41 -24,-25 -46,-46 -50,-47 -4,0 -22,-2 -41,-5 -33,-4 -33,-4 -26,28 4,18 11,51 15,73 4,22 19,72 34,110 15,39 43,111 61,160 18,50 43,111 54,136 23,52 46,180 61,354 7,66 18,147 26,179.9999 24,95 30,394 11,480 -15,68 -44,238 -67,400 -15,99 -97,430 -117,468 -12,25 -18,27 -45,22 -24,-6 -30,-4 -26,6 3,8 24,61 47,119 69,176 71,180 95,177 18,-2 21,4 24,38 4,72 13,105 26,105 8,0 19,20 25,45 8,33 18,48 35,55 28,10 33,17 40,53 l 5,27 h -185 -185 l -51,-47 c -27,-27 -74,-82 -103,-123 -55,-79 -155,-283 -155,-317 0,-11 -18,-74 -41,-139 -22,-66 -45,-132 -49,-149 -25,-88 -40,-158 -40,-184 0,-25 -7,-32 -47,-52 -75,-35 -161,-88 -247,-152 -43,-33 -95,-69 -116,-81 -21,-12 -73,-53 -115,-91 -43,-39 -99,-86 -125,-105 -192,-144 -249,-192 -355,-305 -218,-232 -304,-318.9999 -310,-313.9999 -3,3 24,79.9999 59,170.9999 35,90 78,214 96,274 54,183 114,341 189,503 97,207 110,240 251,661 68,201 131,384 141,408 l 18,42 h -301 c -166,0 -299,-3 -296,-6 z M 7029,9112.2691 c 21,-74 9,-204 -16,-179 -13,12 -17,216 -4,216 5,0 15,-17 20,-37 z m -711,-299 c 1,-54 -3,-130 -10,-169 -13,-69 -14,-70 -58,-92 -25,-12 -55,-22 -67,-22 -73.2645,24.8163 -112.4687,144.9752 -113,202 v 62 l 68,67 c 83,82 106,92 147,69 30,-17 30,-18 33,-117 z m 2386,-123 c 3,-5 -6,-12 -22,-16 -27,-6 -87,-31 -152,-63 -77,-38 -107,-143 -54,-193 22,-21 37,-24 114,-27 62,-3 106,1 145,13 75,21 91,16 70,-24 -8,-17 -30,-41 -47,-54 -33,-25 -180,-101 -249,-130 -19,-8 -51,-28 -70,-44 -23,-20 -57,-36 -104,-47 -38,-10 -113,-30 -165,-46 -52,-15 -116,-31 -142,-34 -53,-6 -129,-41 -176,-80 -50,-43 -64,-36 -129,70 -28,46 -37,72 -41,120 -6,83 15,119 131,230 87,84 106,96 248,166 165,81 201,95 367,138 108,28 265,40 276,21 z m 124,-111 c 2,-35 -1,-67 -6,-72 -18,-18 -158,-48 -225,-48 -75,0 -89,11 -69,55 14,31 128,85 202,96 31,4 59,15 65,23 18,29 30,10 33,-54 z m 132,-440 c 0,-5 -31,-18 -69,-30 -65,-19 -144,-69 -183,-115 -26,-30 -22,-61 15,-100 26,-29 43,-38 97,-48 102,-18 157,-14 220,17 30,16 67,40 83,54 l 27,26 v -27 c 0,-52 -41,-80 -310,-213 -52,-26 -111,-57 -131,-70 -39,-24 -235,-92 -344,-119 -82,-21 -317,-134 -360,-174 -41,-37 -125,-91 -144,-91 -8,0 -42,7 -75,16 -105,29 -185,126 -172,208 13,80 141,272 252,377 68,64 125,93 204,103 30,4 96,20 145,35 104,33 326,85 435,101 41,6 116,21 165,34 100,26 145,31 145,16 z m 120,-131 c 0,-22 -7,-42 -17,-51 -33,-28 -98,-52 -138,-52 -56,0 -134,19 -152,37 -13,12 -8,19 36,51 28,21 85,48 128,62 43,13 82,29 87,34 17,17 55,-40 56,-81 z m -50,-448 c 0,-4 -29,-23 -65,-41 -88,-46 -98,-59 -103,-134 -4,-62 -4,-63 29,-83 47,-28 192,-65 226,-58 15,4 49,14 75,23 26,9 50,13 54,10 11,-12 -26,-66 -58,-86 -18,-11 -67,-32 -108,-47 -41,-14 -103,-42 -137,-61 -34,-19 -66,-34 -70,-33 -12,3 -60,-18 -67,-30 -3,-5 -38,-30 -76,-55 -44,-29 -70,-53 -70,-64 0,-10 -11,-29 -25,-42 -14,-13 -25,-28 -25,-34 0,-11 -39,-44 -170,-145 -86,-67 -120,-85 -213,-110 -182,-49 -320,-9 -393,115 -53,90 -41,196 38,353 36,72 70,122 108,160 30,31 61,69 70,84 27,50 213,140 369,178 46,11 133,36 194,56 98,32 122,36 228,37 65,1 120,4 123,6 8,8 66,10 66,1 z m 179,-88 c 6,-21 11,-47 11,-58 0,-12 5,-26 10,-31 15,-15 -14,-36 -77,-58 -52,-18 -54,-18 -138,5 l -86,22 3,36 c 3,31 9,38 58,65 61,33 128,54 177,55 29,1 33,-3 42,-36 z m -149,-511 c 0,-4 -34,-37 -76,-72 -88,-74 -114,-110 -114,-161 0,-65 70,-109 174,-109 59,0 178,49 223,93 18,17 35,28 39,24 11,-11 -28,-108 -63,-155 -19,-26 -57,-69 -83,-97 -53,-57 -106,-128 -169,-230 -57,-91 -172,-244 -239,-317 -66,-70 -130,-98 -230,-98 -139,0 -244,57 -289,157 -37,79 -27,172 32,303 86,191 141,264 265,350 30,21 86,67 125,103 49,46 82,69 111,76 22,6 70,30 105,54 35,24 82,50 104,57 22,7 44,16 50,21 11,11 35,12 35,1 z m 227,-88 c 23,-40 31,-94 13,-94 -5,0 -10,8 -10,19 0,10 -11,39 -25,65 -29,54 -30,59 -12,54 6,-3 22,-22 34,-44 z m -98,-19 c 23,-28 40,-58 39,-69 -4,-26 -131,-96 -188,-103 -48,-6 -120,17 -120,37 0,32 37,80 93,120 58,42 113,71 129,67 3,-1 25,-24 47,-52 z m 787,-396 c 8,-14 -48,-121 -98,-184 -22,-27 -87,-101 -145,-163 -124,-132 -124,-132 -150,0 l -17,86 33,67 c 38,76 75,105 137,105 29,0 54,9 89,33 64,43 65,43 100,55 41,13 43,14 51,1 z m -905,-390 c 41,-68 43,-73 83,-161 l 26,-58 h -55 c -35,0 -73,8 -107,23 -30,13 -77,32 -106,41 -29,10 -52,22 -50,27 8,21 154,199 162,196 5,-2 26,-32 47,-68 z m -541,-413 c 0,-8 -4,-17 -9,-20 -16,-10 -43,-128 -32,-139 17,-17 36,8 56,73 15,49 16,62 5,75 -20,24 -8,27 70,16 79,-11 89,-15 75,-35 -40,-54 -47,-71 -51,-123 l -5,-58 19,23 c 11,12 23,40 27,61 3,22 15,47 26,57 10,9 19,23 19,31 0,7 3,13 7,13 6,0 135,-50 141,-55 1,-1 -11,-19 -28,-40 -22,-28 -30,-48 -30,-77 0,-22 4,-38 9,-36 6,2 22,27 38,57 40,77 50,80 106,40 25,-19 46,-40 46,-46 1,-7 -19,-40 -44,-74 -42,-57 -57,-99 -36,-99 11,0 87,100 103,135 6,14 16,25 23,25 18,0 120,-64 120,-76 0,-6 -35,-44 -78,-84 -64,-60 -80,-70 -92,-60 -9,8 -28,10 -48,6 -57,-11 -99,-74 -77,-116 27,-50 140,-2 140,61 0,22 5,29 19,29 10,0 30,10 45,21 15,12 29,19 32,16 3,-3 -8,-38 -24,-79 -16,-40 -32,-86 -36,-101 -8,-34 10,-140 31,-182 21,-40 26,-108 7,-101 -8,3 -14,-1 -14,-8 0,-8 6,-16 14,-19 7,-3 18,-23 23,-44 8,-33 13,-38 41,-41 29,-3 32,0 32,22 0,14 -5,26 -11,26 -6,0 -8,7 -5,16 4,9 1,23 -5,30 -16,20 6,44 40,42 75,-5 100,2 135,37 20,19 38,35 41,35 3,0 5,-26 5,-58 v -58 l -39,4 c -52,5 -153,-16 -148,-31 3,-8 33,-11 95,-10 l 92,2 v -59 c 0,-41 -4,-60 -12,-60 -7,0 -50,5 -95,11 -45,7 -89,9 -99,5 -36,-14 10,-35 103,-48 l 92,-12 -6,-31 c -12,-66 -116,-317 -173,-419 -85,-153 -172,-234 -336,-315 -83,-42 -98,-46 -289,-81 -60,-11 -136,-25 -168,-32 -70,-13 -264,-5 -358,16 -242,53 -498,267 -629,525 -27,54 -60,161 -60,194 0,15 66,37 111,37 22,0 59,26 59,41 0,9 -86,2 -137,-11 l -33,-8 v 64 64 l 38,1 c 46,1 104,21 110,39 4,10 -10,12 -72,6 -72,-6 -77,-6 -73,11 3,10 11,48 17,86 13,70 19,78 41,51 30,-37 119,-60 119,-31 0,17 -115,71 -130,62 -8,-5 -10,-1 -7,11 3,11 12,44 21,74 21,76 81,164 159,233 101,89 240,193 244,182 12,-34 31,-60 46,-63 22,-4 22,23 1,63 l -16,30 54,47 c 29,26 56,48 59,48 4,0 15,-17 24,-37 26,-56 35,-65 51,-52 16,13 3,53 -27,85 l -20,22 28,20 c 35,24 89,52 102,52 10,0 12,-6 31,-77 14,-54 40,-59 40,-8 0,20 -6,51 -14,69 l -14,34 50,21 c 75,31 85,29 92,-23 7,-43 29,-76 43,-62 3,3 2,30 -4,60 l -9,55 50,20 c 62,24 126,28 126,7 z m 460,-471 c 0,-19 -32,-36 -49,-25 -8,4 -11,15 -8,24 8,20 57,22 57,1 z m 890,-96 c 0,-6 15,-32 34,-58 18,-25 58,-86 88,-136 30,-49 62,-102 72,-118 l 18,-27 -45,-43 c -81,-76 -132,-107 -169,-101 -27,5 -41,0 -72,-25 -22,-17 -41,-29 -44,-26 -3,3 -14,29 -24,57 -25,72 -39,408 -17,408 8,0 41,18 74,40 61,41 85,49 85,29 z m -718,-334 c 0,-5 -5,-11 -11,-13 -6,-2 -11,4 -11,13 0,9 5,15 11,13 6,-2 11,-8 11,-13 z"
     id="path11992"
     style="fill:#020202;stroke:none" />
  <path
     d="m 8442,5450.2691 c -41,-38 -42,-55 -1,-46 22,5 34,3 41,-6 7,-11 11,-11 15,-1 2,6 18,12 34,12 16,0 29,5 29,10 0,6 -13,10 -30,10 -25,0 -30,4 -30,25 0,33 -18,32 -58,-4 z m 38,-10 c 0,-12 -20,-25 -27,-18 -7,7 6,27 18,27 5,0 9,-4 9,-9 z"
     id="path11996"
     style="fill:#020202;stroke:none" />
  <path
     d="m 8177,5401.2691 c -26,-27 -35,-52 -19,-52 5,0 19,11 31,24 19,20 27,23 41,14 25,-16 50,-4 43,21 -8,32 -62,28 -96,-7 z"
     id="path11998"
     style="fill:#020202;stroke:none" />
  <path
     d="m 8750,5392.2691 c 0,-51 -19,-72 -37,-41 -13,22 -13,22 -11,-7 4,-42 33,-45 56,-6 9,17 24,32 33,33 13,2 11,9 -12,31 l -29,28 z"
     id="path12000"
     style="fill:#020202;stroke:none" />
  <path
     d="m 8432,5357.2691 c -18,-18 -14,-46 7,-58 32,-16 57,-12 91,17 30,25 31,27 14,40 -22,16 -96,17 -112,1 z m 78,-23 c 0,-10 -10,-15 -29,-15 -32,0 -50,15 -29,23 27,11 58,7 58,-8 z"
     id="path12002"
     style="fill:#020202;stroke:none" />
  <path
     d="m 8237,5352.2691 c -53,-8 -59,-83 -7,-83 17,0 70,53 70,70 0,7 -29,23 -33,19 -1,-1 -15,-4 -30,-6 z m 23,-38 c -13,-16 -40,-20 -40,-7 0,14 12,22 33,22 16,0 17,-3 7,-15 z"
     id="path12004"
     style="fill:#020202;stroke:none" />
  <path
     d="m 8774,5324.2691 c -19,-29 -16,-54 9,-69 33,-21 74,23 63,67 -9,36 -49,37 -72,2 z m 49,-11 c 9,-10 -4,-34 -19,-34 -8,0 -14,6 -14,13 0,22 19,35 33,21 z"
     id="path12006"
     style="fill:#020202;stroke:none" />
  <path
     d="m 7950,5289.2691 c -6,-11 -17,-20 -24,-20 -23,0 -41,-29 -27,-43 9,-9 19,-8 43,6 39,22 48,14 19,-17 -44,-47 -2,-89 45,-45 28,26 31,54 8,67 -11,6 -13,11 -5,16 16,11 13,43 -5,50 -27,11 -43,7 -54,-14 z m 50,-8 c 0,-13 -12,-22 -22,-16 -10,6 -1,24 13,24 5,0 9,-4 9,-8 z m 6,-91 c -4,-6 -14,-11 -22,-11 -12,0 -13,4 -3,21 7,14 14,18 21,11 6,-6 7,-15 4,-21 z"
     id="path12008"
     style="fill:#020202;stroke:none" />
  <path
     d="m 7700,5216.2691 c 0,-7 52,-60 116,-117 64,-58 126,-114 138,-126 12,-11 37,-32 56,-46 19,-14 71,-59 115,-101 44,-42 104,-93 133,-114 29,-21 55,-48 58,-60 11,-42 41,-57 104,-56 33,1 62,-2 65,-7 3,-5 32,-26 63,-47 31,-20 59,-40 62,-43 29,-30 40,-32 60,-9 27,33 25,48 -7,62 -34,15 -139,87 -170,116 -13,12 -23,28 -23,35 0,38 -80,67 -130,46 -29,-12 -31,-11 -148,96 -158,145 -240,215 -272,234 -74,41 -142,94 -150,114 -12,33 -70,52 -70,23 z"
     id="path12010"
     style="fill:#020202;stroke:none" />
  <path
     d="m 7585,5130.2691 c -9,-15 44,-58 101,-83 29,-13 55,-31 57,-40 3,-11 11,-15 26,-11 25,6 28,-9 6,-27 -9,-7 -15,-23 -13,-34 2,-17 9,-21 34,-19 24,2 33,-2 37,-17 3,-11 12,-23 21,-26 21,-8 56,22 56,48 0,14 -8,18 -34,18 -30,0 -33,3 -29,24 4,18 0,26 -16,31 -13,4 -20,13 -19,23 3,16 -1,17 -42,5 -10,-3 -19,6 -26,25 -8,20 -29,39 -69,60 -61,34 -80,38 -90,23 z m 245,-171 c 0,-12 -35,-31 -44,-23 -8,9 14,33 30,33 8,0 14,-4 14,-10 z m 60,-49 c 0,-12 -20,-25 -27,-18 -7,7 6,27 18,27 5,0 9,-4 9,-9 z"
     id="path12012"
     style="fill:#020202;stroke:none" />
  <path
     d="m 7500,4996.2691 c 0,-7 16,-28 35,-47 27,-26 38,-31 47,-22 9,9 4,20 -22,47 -35,36 -60,45 -60,22 z"
     id="path12014"
     style="fill:#020202;stroke:none" />
  <path
     d="m 7645,4842.2691 c -31,-8 -65,-34 -65,-49 0,-11 13,-8 50,11 28,14 48,30 45,35 -3,6 -7,9 -8,9 -1,-1 -11,-4 -22,-6 z"
     id="path12016"
     style="fill:#020202;stroke:none" />
  <path
     d="m 7689,4824.2691 c -4,-5 -9,-23 -13,-40 -10,-39 -24,-55 -42,-48 -8,3 -14,-1 -14,-11 0,-9 7,-16 15,-16 18,0 55,35 55,52 0,9 3,9 12,0 7,-7 19,-12 27,-12 11,0 10,5 -6,23 -12,12 -23,31 -25,42 -2,11 -6,16 -9,10 z"
     id="path12018"
     style="fill:#020202;stroke:none" />
  <path
     d="m 7705,4703.2691 c -21,-32 -9,-61 21,-56 25,5 26,6 27,43 2,43 -24,50 -48,13 z m 39,-13 c 7,-10 -18,-34 -27,-25 -7,8 3,34 13,34 5,0 11,-4 14,-9 z"
     id="path12020"
     style="fill:#020202;stroke:none" />
  <path
     d="m 8997,4662.2691 c -3,-5 -2,-15 4,-23 10,-18 12,-74 2,-84 -4,-3 -13,4 -20,16 -12,23 -12,23 -13,2 0,-12 7,-28 16,-35 14,-11 18,-10 30,6 8,10 14,29 14,42 0,23 14,31 24,15 10,-16 -6,-82 -20,-82 -19,0 -18,-25 2,-41 14,-11 18,-11 29,4 18,24 26,21 19,-8 -7,-29 2,-32 28,-8 17,15 23,14 102,-21 82,-37 111,-40 100,-12 -8,22 -98,66 -148,72 -44,6 -49,10 -71,53 -26,50 -90,117 -98,104 z m 91,-132 c 3,-8 -1,-12 -9,-9 -7,2 -15,10 -17,17 -3,8 1,12 9,9 7,-2 15,-10 17,-17 z"
     id="path12022"
     style="fill:#020202;stroke:none" />
  <path
     d="m 7595,4584.2691 c -16,-13 -27,-26 -24,-29 3,-3 18,6 34,19 17,13 28,25 25,28 -3,3 -18,-5 -35,-18 z"
     id="path12024"
     style="fill:#020202;stroke:none" />
  <path
     d="m 7620,4523.2691 c 0,-33 12,-45 25,-24 11,17 23,11 27,-12 2,-17 10,-23 28,-23 21,0 25,5 25,30 0,24 -5,31 -23,33 -13,2 -22,9 -19,15 3,8 -8,13 -29,14 -32,1 -34,0 -34,-33 z m 94,-22 c 2,-4 1,-14 -4,-22 -7,-11 -12,-12 -21,-3 -6,6 -8,16 -5,22 8,13 23,14 30,3 z"
     id="path12026"
     style="fill:#020202;stroke:none" />
  <path
     d="m 8880,4394.2691 c 0,-34 -4,-45 -16,-45 -11,0 -14,6 -9,20 4,11 2,20 -4,20 -6,0 -11,-14 -11,-31 0,-30 2,-31 31,-25 29,6 31,4 25,-19 -5,-18 -2,-25 9,-25 8,0 15,-9 15,-20 0,-23 17,-25 43,-6 18,14 22,37 10,50 -4,4 -8,15 -8,24 0,9 -5,16 -11,15 -6,-1 -11,4 -11,11 0,15 -44,76 -55,76 -4,0 -8,-20 -8,-45 z m 47,-12 c 2,-6 -4,-13 -13,-17 -21,-8 -26,-3 -18,18 7,18 25,17 31,-1 z m 5,-68 c 0,-5 -5,-11 -11,-13 -6,-2 -11,4 -11,13 0,9 5,15 11,13 6,-2 11,-8 11,-13 z"
     id="path12028"
     style="fill:#020202;stroke:none" />
  <path
     d="m 7722,4368.2691 c -18,-18 -30,-34 -27,-37 3,-3 22,11 43,31 20,20 32,37 26,37 -6,0 -25,-14 -42,-31 z"
     id="path12030"
     style="fill:#020202;stroke:none" />
  <path
     d="m 7522,4370.2691 c -51,-20 -82,-45 -82,-66 0,-21 10,-19 66,12 55,29 84,52 84,65 0,11 -18,9 -68,-11 z"
     id="path12032"
     style="fill:#020202;stroke:none" />
  <path
     d="m 7754,4348.2691 c -4,-7 -3,-14 2,-16 32,-11 38,-22 27,-46 -13,-29 -8,-37 23,-37 29,0 44,38 21,54 -8,7 -16,20 -18,31 -5,23 -43,32 -55,14 z m 66,-67 c 0,-13 -12,-22 -22,-16 -10,6 -1,24 13,24 5,0 9,-4 9,-8 z"
     id="path12034"
     style="fill:#020202;stroke:none" />
  <path
     d="m 9122,4323.2691 c 2,-11 21,-21 51,-29 53,-14 68,-4 41,26 -23,25 -97,28 -92,3 z"
     id="path12036"
     style="fill:#020202;stroke:none" />
  <path
     d="m 7737,4312.2691 c -10,-9 -9,-23 2,-23 5,0 11,7 15,15 5,15 -5,20 -17,8 z"
     id="path12038"
     style="fill:#020202;stroke:none" />
  <path
     d="m 8674,4243.2691 c 16,-62 -24,-87 -48,-31 -13,28 -14,29 -15,9 -1,-34 17,-62 39,-62 13,0 20,-7 20,-20 0,-11 7,-20 15,-20 8,0 15,-9 15,-20 0,-15 7,-20 28,-20 15,0 33,5 40,12 19,19 14,49 -8,55 -15,4 -19,11 -14,25 4,14 2,18 -5,14 -19,-12 -51,4 -51,25 0,17 3,18 21,9 33,-18 34,-4 3,24 -37,32 -48,32 -40,0 z m 86,-129 c 0,-10 -10,-15 -27,-15 -27,1 -27,1 -9,15 25,19 36,19 36,0 z"
     id="path12040"
     style="fill:#020202;stroke:none" />
  <path
     d="m 7546,4204.2691 c -43,-49 -51,-75 -26,-75 9,0 130,117 130,125 0,3 -13,5 -29,5 -22,0 -39,-12 -75,-55 z"
     id="path12042"
     style="fill:#020202;stroke:none" />
  <path
     d="m 9000,4213.2691 c 0,-37 98,-100 120,-78 12,12 3,24 -49,62 -50,35 -71,40 -71,16 z"
     id="path12044"
     style="fill:#020202;stroke:none" />
  <path
     d="m 7880,4190.2691 c -19,-16 -32,-32 -29,-36 4,-3 13,0 21,8 7,8 23,19 36,26 21,11 31,31 15,31 -5,0 -24,-14 -43,-29 z"
     id="path12046"
     style="fill:#020202;stroke:none" />
  <path
     d="m 7909,4149.2691 c -6,-16 -15,-30 -20,-30 -13,0 -11,-20 5,-35 8,-8 32,-13 62,-12 57,2 65,18 39,73 -13,28 -22,34 -46,34 -24,0 -32,-6 -40,-30 z m 21,-45 c 0,-8 -7,-15 -15,-15 -8,0 -15,7 -15,15 0,8 7,15 15,15 8,0 15,-7 15,-15 z"
     id="path12048"
     style="fill:#020202;stroke:none" />
  <path
     d="m 8149,4172.2691 c -1,-5 -2,-12 -4,-18 -1,-5 -3,-20 -3,-32 -2,-27 -19,-31 -25,-5 -4,16 -4,16 -12,0 -10,-25 1,-48 23,-48 15,0 18,-6 15,-24 -4,-18 0,-26 16,-31 12,-3 21,-15 21,-25 0,-21 40,-37 59,-25 16,9 13,57 -5,95 -15,29 -20,32 -49,27 -29,-5 -32,-3 -27,19 4,20 8,23 31,17 l 26,-6 -30,31 c -32,34 -34,36 -36,25 z m 59,-115 c -6,-16 -36,-34 -44,-25 -9,9 15,37 33,37 8,0 13,-5 11,-12 z"
     id="path12050"
     style="fill:#020202;stroke:none" />
  <path
     d="m 8420,4150.2691 c 0,-50 -26,-69 -32,-23 l -4,27 -11,-25 c -7,-18 -7,-30 1,-43 15,-24 38,-17 54,16 17,36 32,26 32,-23 0,-37 -20,-66 -28,-42 -5,16 -22,15 -22,0 0,-14 63,-68 79,-68 6,0 11,7 11,15 0,8 5,15 11,15 17,0 3,72 -16,82 -8,5 -15,17 -15,27 0,15 -41,61 -55,61 -3,0 -5,-9 -5,-19 z m 80,-135 c 0,-18 -17,-29 -30,-21 -8,5 -7,11 1,21 15,18 29,18 29,0 z"
     id="path12052"
     style="fill:#020202;stroke:none" />
  <path
     d="m 7649,4080.2691 c -39,-38 -49,-61 -28,-61 13,0 109,80 109,92 0,21 -46,4 -81,-31 z"
     id="path12054"
     style="fill:#020202;stroke:none" />
  <path
     d="m 8915,4109.2691 c -7,-11 71,-110 86,-110 25,0 18,33 -16,75 -37,44 -58,55 -70,35 z"
     id="path12056"
     style="fill:#020202;stroke:none" />
  <path
     d="m 7819,4037.2691 c -24,-20 -79,-95 -79,-107 0,-25 31,-8 69,38 50,60 57,107 10,69 z"
     id="path12058"
     style="fill:#020202;stroke:none" />
  <path
     d="m 8750,4007.2691 c 0,-20 90,-129 100,-123 18,11 10,32 -31,84 -39,49 -69,66 -69,39 z"
     id="path12060"
     style="fill:#020202;stroke:none" />
  <path
     d="m 8580,3965.2691 c 0,-18 49,-148 60,-160 5,-5 16,-6 24,-3 14,6 12,16 -10,79 -15,40 -31,79 -36,86 -14,16 -38,15 -38,-2 z"
     id="path12062"
     style="fill:#020202;stroke:none" />
  <path
     d="m 7930,3907.2691 c -33,-59 -37,-78 -15,-78 17,0 61,65 71,104 11,47 -23,30 -56,-26 z"
     id="path12064"
     style="fill:#020202;stroke:none" />
  <path
     d="m 8092,3906.2691 c -18,-21 -34,-119 -22,-131 16,-16 29,5 41,68 11,61 2,89 -19,63 z"
     id="path12066"
     style="fill:#020202;stroke:none" />
  <path
     d="m 8427,3912.2691 c -12,-11 -7,-97 6,-122 6,-14 18,-26 25,-29 11,-3 12,8 7,54 -11,101 -18,118 -38,97 z"
     id="path12068"
     style="fill:#020202;stroke:none" />
  <path
     d="m 8250,3829.2691 c 0,-53 2,-61 18,-58 14,3 17,14 17,58 0,44 -3,55 -17,58 -16,3 -18,-5 -18,-58 z"
     id="path12070"
     style="fill:#020202;stroke:none" />
  <path
     d="m 11992,9906.2691 c -1,-13 -7,-17 -21,-12 -13,4 -26,-3 -44,-24 -16,-20 -28,-26 -34,-20 -7,7 -21,-2 -42,-27 -30,-37 -31,-38 -46,-19 -14,19 -16,19 -49,-17 -19,-20 -43,-38 -53,-40 -10,-2 -33,-25 -50,-52 -18,-26 -33,-42 -33,-35 0,24 -47,-34 -80,-98 -36,-70 -50,-79 -50,-31 v 31 l -22,-21 c -13,-11 -32,-38 -43,-59 -11,-21 -43,-78 -72,-126 -29,-48 -53,-91 -53,-96 0,-5 -22,-43 -50,-85 -27,-42 -50,-81 -50,-86 0,-13 76,-2 110,15 34,17 157,128 214,192 26,28 90,87 144,130 198,160 324,266 328,277 3,7 3,59 1,117 -1,57 -4,96 -5,86 z"
     id="path12072"
     style="fill:#020202;stroke:none" />
  <path
     d="m 6392,9668.2691 c 5,-15 89,-62 97,-54 9,10 -43,54 -73,61 -22,5 -28,4 -24,-7 z"
     id="path12074"
     style="fill:#020202;stroke:none" />
  <path
     d="m 6306,9566.2691 c -34,-25 -13,-44 56,-50 35,-3 75,-9 91,-13 22,-5 27,-3 27,13 0,11 -9,28 -20,38 -27,25 -127,32 -154,12 z"
     id="path12076"
     style="fill:#020202;stroke:none" />
  <path
     d="m 10119,7252.2691 c -15,-39 -3,-154 27,-260 14,-48 29,-92 33,-98 9,-11 57,-98 106,-191 21,-40 38,-92 49,-155 26,-148 26,-147 38,-125 21,37 -24,252 -74,351 -60,121 -119,305 -125,390 -8,111 -31,148 -54,88 z"
     id="path12078"
     style="fill:#020202;stroke:none" />
  <path
     d="m 4438,11827.269 c -31,-95 -68,-221 -82,-280 -14,-59 -48,-185 -75,-280 -27,-95 -77,-281 -110,-413 -33,-132 -82,-305 -110,-385 -70,-205 -84,-259 -131,-489.9999 -28,-141 -52,-231 -77,-290 -19,-47 -64,-157 -98,-245 -35,-88 -84,-207 -110,-265 -26,-58 -75,-178 -110,-266 -72,-185 -92,-226 -147,-307 -22,-32 -51,-84 -65,-115 -14,-31 -45,-101 -69,-154 -61,-134 -60,-134 29,-142 39,-4 90,-8 111,-9 l 40,-2 21,101 c 30,136 55,217 135,429 37,99 95,263 128,365 33,102 94,264 137,360 42,96 105,256 140,355 35,99 82,226.9999 105,284.9999 24,58 84,231 135,385 57,173 118,335 160,425 115,248 133,294 266,688 71,211 134,392 139,403 10,18 5,19 -147,19 h -158 z"
     id="path12083"
     style="fill:#424242;stroke:none" />
  <path
     d="m 9075,11849.269 c -301,-251 -426,-384 -651,-687 -62,-84 -152,-192 -200,-240 -47,-48 -113,-128 -147,-178 -60,-86 -174,-211 -502,-545 -157,-161 -227,-243.9999 -309,-366.9999 -26,-40 -90,-119 -142,-175 -52,-57 -94,-108 -94,-114 0,-14 70,-120 77,-117 2,1 25,29 51,61 26,32 83,104 127,159 44,55 107,135 140,179 33,43 103,128 156,188.9999 52,60 153,180 223,265 71,85 206,234 301,330 95,96 215,223 267,282 52,59 119,128 149,154 30,26 119,111 199,189 245,238 342,328 420,389 41,33 120,103 175,155 55,53 131,125 170,159 l 70,62 h -150 -150 z"
     id="path12093"
     style="fill:#424242;stroke:none" />
  <path
     d="m 5950,9737.2691 c -19,-5 -38,-13 -43,-17 -4,-4 -4,-41 -1,-82 6,-66 11,-78 40,-106 40,-41 59,-41 107,-2 35,29 49,59 27,59 -16,0 -69,89 -76,127 -3,18 -9,33 -13,32 -3,0 -22,-5 -41,-11 z"
     id="path12795"
     style="fill:#424242;stroke:none" />
  <path
     d="m 5758,9627.2691 c -38,-41 -39,-44 -33,-98 9,-73 23,-117 53,-162 41,-63 63,-53 134,58 4,6 -12,31 -37,57 -46,49 -60,89 -53,152 6,48 -15,46 -64,-7 z"
     id="path12831"
     style="fill:#424242;stroke:none" />
  <path
     d="m 5609,9419.2691 -23,-70 21,-27 c 11,-16 34,-36 50,-46 36,-20 133,-48 133,-37 0,4 -16,20 -35,34 -39,30 -78,99 -96,170 -6,25 -15,46 -20,46 -4,0 -18,-31 -30,-70 z"
     id="path12947"
     style="fill:#424242;stroke:none" />
  <path
     d="m 5545,9239.2691 c 28,-55 79,-103 140,-132 72,-34 81,-34 89,-5 13,48 8,55 -41,63 -58,8 -129,43 -162,78 -33,35 -45,33 -26,-4 z"
     id="path13043"
     style="fill:#424242;stroke:none" />
  <path
     d="m 5501,9102.2691 c 1,-42 114,-138 186,-159 30,-9 61,-13 69,-10 20,8 18,45 -3,53 -68,24 -166,76 -200,107 -22,20 -43,36 -47,36 -3,0 -6,-12 -5,-27 z"
     id="path13111"
     style="fill:#424242;stroke:none" />
  <path
     d="m 1002,8932.2691 c -12,-72 -110,-306 -207,-498 l -56,-109 78,-74 c 137,-129 284,-211 545,-300 94,-33 535,-241 572,-271 16,-12 265,-146 366,-196 91,-45 124,-61 265,-123 50,-22 135,-62 190,-90 55,-28 143,-65 195,-82 166,-57 362,-168 511,-289 30,-24 109,-70 176,-102 123,-58 234,-124 354,-211 36,-26 88,-60 115,-75 75,-41 352,-245 472,-347 141,-120 435,-408 539,-528 46,-54 87,-98 91,-97 4,0 49,70 99,156 66,111 102,185 125,254 l 32,98 -20,36 c -10,20 -43,66 -73,103 -29,37 -94,121 -144,187 -50,66 -127,158 -172,205 -44,47 -114,126 -155,175 -165,199 -285,316 -475,467 -55,44 -152,132 -215,196 -91,93 -147,138 -270,221 -155,105 -301,210 -395,286 -27,22 -86,61 -130,87 l -80,46 -195,5 c -149,3 -232,11 -353,31 -86,15 -161,25 -165,22 -4,-2 -54,6 -112,19 -124,27 -335,117 -456,193 -45,28 -130,75 -190,105 -60,30 -154,87 -209,127 -55,39 -143,94 -196,121 -56,29 -142,86 -205,137 -126,101 -231,182 -236,182 -2,0 -9,-30 -16,-67 z"
     id="path13181"
     style="fill:#424242;stroke:none" />
  <path
     d="m 5485,8916.2691 c -3,-23 -2,-62 2,-87 8,-44 10,-45 53,-52 25,-5 72,-11 105,-14 58,-6 61,-5 73,20 6,14 23,28 37,32 38,10 30,24 -15,24 -55,0 -141,35 -199,81 l -50,39 z"
     id="path13199"
     style="fill:#424242;stroke:none" />
  <path
     d="m 8637,8922.2691 c -12,-14 -67,-127 -67,-138 0,-2 37,-5 83,-7 250,-13 361,-167 262,-365 -45,-90 -94,-143 -170,-184 -115,-61 -104,-66 55,-28 140,34 170,33 255,-7 59,-28 131,-100 159,-158 22,-47 21,-130 -4,-181 -22,-45 -65,-80 -172,-139 -38,-21 -68,-41 -68,-46 0,-4 21,-2 47,6 81,24 149,18 230,-20 65,-32 73,-38 97,-90 34,-72 40,-123 27,-220 -18,-127 -72,-198 -188,-248 -29,-13 -53,-26 -53,-30 0,-4 25,-12 56,-18 68,-14 147,-75 181,-140 22,-40 24,-55 21,-140 -4,-124 -35,-192 -138,-305 -40,-44 -99,-119 -130,-166 l -58,-86 30,-59 c 17,-32 38,-70 48,-84 10,-14 32,-54 50,-90 18,-36 34,-66 35,-68 1,-2 21,7 43,18 39,20 203,60 250,60 26,0 26,-3 7,85 -22,106 -19,147 16,218 17,34 46,82 63,107 55,80 121,231 135,315 22,123 31,158 55,203 31,58 77,176 108,273 20,64 23,94 23,224 0,146 -2,153 -37,260 -20,61 -45,130 -56,155 -10,25 -22,62 -26,82 -9,48 -83,182 -145,261 -26,34 -61,82 -76,107 -45,74 -166,230 -220,285 -27,28 -79,70 -115,93 -87,57 -262,145 -330,167 -30,9 -101,39 -157,66 -57,27 -104,49 -106,49 -2,0 -11,-8 -20,-17 z"
     id="path13215"
     style="fill:#424242;stroke:none" />
  <path
     d="m 5782,8690.2691 c -22,-30 -26,-31 -95,-31 -40,0 -89,5 -110,11 -22,6 -41,8 -44,5 -7,-7 35,-125 50,-145 9,-10 29,-12 84,-7 64,5 80,10 123,43 54,41 57,51 26,126 l -11,29 z"
     id="path13315"
     style="fill:#424242;stroke:none" />
  <path
     d="m 5806,8473.2691 c -39,-27 -58,-34 -97,-34 -27,0 -49,-4 -49,-9 0,-14 101,-91 119,-91 20,0 26,5 80,62 42,45 43,48 31,77 -7,17 -18,31 -24,30 -6,-1 -33,-16 -60,-35 z"
     id="path13445"
     style="fill:#424242;stroke:none" />
  <path
     d="m 5916,8315.2691 -49,-42 37,-23 37,-23 34,27 c 41,30 42,40 12,77 l -22,27 z"
     id="path13527"
     style="fill:#424242;stroke:none" />
  <path
     d="m 603,8121.2691 c -39,-60 -99,-147 -134,-193 -36,-46 -104,-154 -152,-239 -55,-98 -113,-185 -156,-235 -38,-43 -89,-117 -115,-163 l -46,-85 1,-1411 v -1411 l 161,-80 c 88,-44 206,-110 262,-146 137,-90 193,-120 320,-174 259,-110 688,-342 824,-446 212,-160 469,-388 722,-639 64,-63 154,-151 201,-195 46,-44 110,-108 141,-142 44,-48 61,-60 77,-56 15,4 36,-6 68,-31 25,-20 51,-36 56,-36 37,0 212,124 243,172 12,18 43,67 69,108 26,41 78,107 115,145 186,192 376,450 513,695 97,174 180,297 293,436 66,82 111,150 145,217 35,72 66,118 115,169 72,77 136,171 235,347 77,137 110,176 242,284 146,121 245,228 295,321 36,66 40,81 30,95 -149,193 -607,641 -768,751 -19,13 -84,61 -145,106 -60,45 -132,94 -160,109 -27,15 -86,53 -130,85 -133,95 -219,147 -348,209 -67,32 -136,69 -153,82 -17,13 -66,50 -107,82 -96,74 -292,178 -420,222 -54,19 -182,75 -285,123 -103,49 -230,109 -282,132 -92,42 -244,121 -420,221 -176,99 -489,249 -605,289 -140,49 -337,141 -415,193 -30,21 -91,73 -136,118 l -81,80 z"
     id="path13587"
     style="fill:#424242;stroke:none" />
  <path
     d="m 6065,8209.2691 c -19,-21 -14,-25 38,-34 44,-8 47,3 8,32 -28,20 -29,20 -46,2 z"
     id="path13589"
     style="fill:#424242;stroke:none" />
  <path
     d="m 9151,7913.2691 c 0,-11 3,-14 6,-6 3,7 2,16 -1,19 -3,4 -6,-2 -5,-13 z"
     id="path13811"
     style="fill:#424242;stroke:none" />
  <path
     d="m 11849,6645.2691 c -221,-189 -405,-386 -521,-560 -23,-33 -74,-100 -114,-147 -49,-60 -77,-104 -89,-140 -10,-30 -32,-83 -50,-119 -17,-36 -35,-78 -39,-94 -4,-16 -38,-95 -75,-175 -38,-80 -74,-163 -81,-184 -6,-21 -25,-63 -41,-95 -16,-31 -29,-66 -29,-78 0,-42 -170,-358 -267,-498 -44,-64 -53,-71 -113,-94 -54,-20 -77,-23 -136,-19 -38,3 -87,12 -106,20 -40,17 -105,96 -114,140 -4,15 -9,27 -13,27 -3,0 -28,-18 -56,-40 -55,-44 -140,-90 -167,-90 -10,0 -18,-3 -18,-6 0,-10 127,-153 158,-178 15,-12 57,-41 93,-64 63,-41 68,-42 150,-42 46,0 102,-5 124,-10 85,-21 285,71 285,131 0,9 11,31 25,50 13,19 42,71 63,115 22,45 59,110 83,145 76,112 118,198 144,295 21,81 110,285 186,429 74,137 129,232 190,322 67,99 105,164 194,333 24,47 70,117 100,155 75,95 275,298 336,342 l 49,35 v 109 c 0,60 -2,109 -3,109 -2,0 -69,-56 -148,-124 z"
     id="path14303"
     style="fill:#424242;stroke:none" />
  <path
     d="m 9424,5909.2691 c -51,-10 -105,-25 -122,-34 -17,-9 -38,-16 -46,-16 -21,0 23,-121 61,-168 l 29,-36 32,50 c 54,85 93,138 128,174 54,57 54,57 -82,30 z"
     id="path14607"
     style="fill:#424242;stroke:none" />
  <path
     d="m 8779,5852.2691 c -107,-113 -369,-120 -519,-13 l -31,22 -72,-22 c -97,-29 -201,-74 -264,-113 -102,-63 -218,-145 -238,-167 -11,-12 -54,-50 -95,-83 -186,-151 -253,-226 -327,-368 -28,-53 -57,-107 -65,-120 -9,-13 -37,-85 -63,-159 l -48,-134 11,-196 c 12,-216 35,-339 73,-393 72,-103 193,-223 397,-395 178,-150 439,-245 714,-258 l 133,-6 135,40 c 74,22 185,54 245,71 164,46 271,93 325,144 25,24 74,64 110,89 110,77 231,221 298,355 29,58 59,157 83,278 19,96 21,129 15,260 -12,282 -19,383 -26,395 -9,14 -55,-7 -82,-37 -16,-18 -16,-22 2,-82 35,-112 18,-376 -34,-527 -39,-113 -115,-295 -148,-354 -40,-71 -119,-171 -160,-202 -46,-35 -241,-146 -306,-175 -85,-37 -314,-89 -456,-103 -166,-17 -343,-8 -429,21 -168,56 -252,118 -431,312 -123,135 -140,159 -190,260 -30,62 -60,132 -65,157 -15,64 -13,156 4,247 8,43 22,119 30,168 14,89 43,184 84,280 30,68 131,169 320,318 85,67 170,137 190,156 38,36 216,126 318,160 87,29 228,45 296,32 29,-5 87,-7 129,-4 82,6 150,-10 210,-51 18,-12 69,-37 113,-56 80,-35 209,-114 234,-144 7,-9 17,-16 21,-16 14,0 91,131 88,148 -5,28 -130,116 -208,146 -41,16 -90,41 -109,54 -18,14 -68,40 -111,58 l -78,32 z"
     id="path14629"
     style="fill:#424242;stroke:none" />
  <path
     d="m 11264,5477.2691 c -4,-7 -3,-8 4,-4 7,4 12,9 12,12 0,8 -9,4 -16,-8 z"
     id="path14783"
     style="fill:#424242;stroke:none" />
  <path
     d="m 9736,5222.2691 c -31,-26 -56,-50 -56,-53 0,-3 6,-26 13,-53 l 12,-47 53,39 c 29,22 62,43 73,46 11,4 19,10 17,13 -2,4 -14,28 -26,55 -12,26 -23,47 -26,47 -2,0 -29,-21 -60,-47 z"
     id="path14897"
     style="fill:#424242;stroke:none" />
  <path
     d="m 0,3699.2691 v -546 l 55,-23 c 33,-14 82,-48 124,-87 47,-43 84,-69 114,-78 67,-20 244,-127 392,-237 44,-32 132,-85 195,-117 63,-31 137,-76 163,-100 27,-24 79,-63 116,-87 42,-29 78,-62 98,-94 51,-77 129,-157 258,-263 66,-54 172,-144 235,-199 63,-56 154,-130 201,-165 63,-47 91,-75 104,-104 27,-60 40,-66 56,-28 7,18 23,47 36,64 12,16 45,76 72,132 43,85 58,107 99,136 48,35 325,320 375,387 33,44 33,53 5,66 -44,20 -126,89 -189,159 -35,39 -115,115 -176,168 -62,53 -127,114 -144,136 -67,83 -487,457 -704,626 -99,78 -563,327 -786,422 -155,67 -198,90 -309,163 -52,35 -161,98 -242,140 l -148,76 z"
     id="path15301"
     style="fill:#424242;stroke:none" />
  <g
     style="fill:#3b3b3b;fill-opacity:1;stroke:none;stroke-width:5.6692915;stroke-miterlimit:4;stroke-dasharray:none;stroke-opacity:1"
     id="g71626">
    <path
       points="6270,8592.5 6270,8592.5 6270,8580 "
       d="m 6270,8580 v 12.5 0 z"
       style="fill:#353564;fill-rule:evenodd;stroke:none;stroke-linejoin:round"
       id="path71628" />
    <path
       points="6270,8592.5 6270,8592.5 "
       d="m 6270,8592.5 v 0 0 z"
       style="fill:#afafde;fill-rule:evenodd;stroke:none;stroke-linejoin:round"
       id="path71636" />
    <path
       points="6270,8580 6270,8592.5 6270,8592.5 6270,8580 "
       d="m 6270,8580 v 0 12.5 0 z"
       style="fill:#e9e9ff;fill-rule:evenodd;stroke:none;stroke-linejoin:round"
       id="path71638" />
    <path
       points="6270,8580 6270,8580 "
       d="m 6270,8580 v 0 0 z"
       style="fill:#4d4d9f;fill-rule:evenodd;stroke:none;stroke-linejoin:round"
       id="path71630" />
    <path
       points="6270,8592.5 6270,8592.5 6270,8580 "
       d="m 6270,8580 v 12.5 0 z"
       style="fill:#d7d7ff;fill-rule:evenodd;stroke:none;stroke-linejoin:round"
       id="path71634" />
    <path
       points="6270,8580 6270,8592.5 6270,8592.5 6270,8580 "
       d="m 6270,8580 v 0 12.5 0 z"
       style="fill:#8686bf;fill-rule:evenodd;stroke:none;stroke-linejoin:round"
       id="path71632" />
  </g>
</svg>
