<?xml version="1.0" encoding="UTF-8" standalone="no"?>
<svg
   xmlns:dc="http://purl.org/dc/elements/1.1/"
   xmlns:cc="http://creativecommons.org/ns#"
   xmlns:rdf="http://www.w3.org/1999/02/22-rdf-syntax-ns#"
   xmlns:svg="http://www.w3.org/2000/svg"
   xmlns="http://www.w3.org/2000/svg"
   viewBox="0 0 935.76361 503.60812"
   height="503.60812"
   width="935.76361"
   id="svg196"
   version="1.1">
  <metadata
     id="metadata202">
    <rdf:RDF>
      <cc:Work
         rdf:about="">
        <dc:format>image/svg+xml</dc:format>
        <dc:type
           rdf:resource="http://purl.org/dc/dcmitype/StillImage" />
        <dc:title></dc:title>
      </cc:Work>
    </rdf:RDF>
  </metadata>
  <defs
     id="defs200" />
  <path
     id="path206"
     d="m 561.36257,501.5716 c -20.0465,-5.30368 -34.95904,-13.23306 -47.64882,-25.3361 -6.23982,-5.9513 -26.16115,-20.88937 -29.04432,-21.77897 -2.87737,-0.88781 -16.63722,-9.92887 -23.30686,-15.31404 -2.75,-2.22039 -8.375,-6.62007 -12.5,-9.77707 -4.125,-3.15701 -11.55,-9.66371 -16.5,-14.45934 l -9,-8.71933 -7.17482,4.22916 c -3.94615,2.32603 -9.51032,4.98344 -12.36483,5.90534 -6.48583,2.09469 -16.98649,2.15456 -23.785,0.13562 -4.7306,-1.40483 -6.28879,-2.75416 -17.68547,-15.31487 -6.8738,-7.57587 -13.8877,-14.80189 -15.58643,-16.05782 l -3.08862,-2.28352 -2.81227,2.69433 c -1.85874,1.78079 -5.74319,3.51976 -11.45648,5.12878 -15.42241,4.34339 -33.50347,3.13283 -45.04608,-3.01591 -1.65,-0.87895 -3.97497,-1.60087 -5.16659,-1.60426 -1.19163,-0.003 -3.04111,-1.20668 -4.10996,-2.67397 l -1.94337,-2.66781 -3.39004,2.41781 c -2.98541,2.12923 -4.67881,2.45836 -14.18755,2.75755 -9.60871,0.30233 -26.09137,-1.51679 -31.07658,-3.4298 -0.97914,-0.37573 -1.57634,0.18685 -1.79634,1.69223 -0.25296,1.73084 -2.53802,3.3627 -9.82957,7.01969 -16.84073,8.44628 -29.13317,8.97589 -39.99425,1.72314 -3.30523,-2.20714 -7.60837,-5.96419 -9.56254,-8.349 -5.12287,-6.25178 -15.33112,-27.65327 -17.64665,-36.996 -1.0905,-4.4 -2.50335,-8.45 -3.13965,-9 -0.71177,-0.61524 -1.04236,-3.40477 -0.85919,-7.25 l 0.29771,-6.25 -5.29771,0.0163 c -16.13574,0.0496 -52.084181,4.93501 -73.297721,9.96127 -6.6,1.56378 -16.275,3.12557 -21.5,3.47064 -5.225,0.34507 -11.8625,0.89736 -14.75,1.2273 -4.256474,0.48636 -5.25,0.3174 -5.25,-0.89279 0,-1.55166 8.44491,-3.0156 25,-4.3338 4.125,-0.32845 12.9,-1.86712 19.5,-3.41926 15.45324,-3.63417 34.259461,-6.45463 57.764881,-8.66327 l 18.76489,-1.7632 1.08647,-4.03483 c 1.67502,-6.22057 5.38043,-12.54935 10.77108,-18.39687 l 4.91222,-5.32855 11.85023,-0.17145 c 12.71689,-0.184 19.1266,1.13955 21.14123,4.36549 1.97764,3.1667 8.14507,19.10479 8.84838,22.8663 0.88376,4.72655 2.94956,9.58001 3.60649,8.47319 1.32169,-2.22687 9.25169,-28.10809 11.91173,-38.87644 3.40246,-13.77383 17.65911,-56.84796 22.01012,-66.5 1.61156,-3.575 4.3706,-7.99148 6.1312,-9.81441 5.14434,-5.32647 12.96708,-10.88842 16.10119,-11.44792 4.05835,-0.72448 18.62264,2.93507 21.15717,5.31615 2.94015,2.76212 6.03093,9.42259 7.49977,16.16163 0.68516,3.14349 1.60919,5.49083 2.0534,5.21629 0.44421,-0.27454 2.01797,-3.1961 3.49725,-6.49237 7.47392,-16.65412 26.72762,-20.3846 38.51607,-7.46264 4.40898,4.83293 4.67508,5.35446 7.05299,13.82289 1.87547,6.67911 1.97374,8.97405 1.35749,31.70038 -0.54128,19.96138 -1.0431,25.93569 -2.70885,32.25 -1.38493,5.2498 -2.52142,7.75 -3.52285,7.75 -1.18447,0 -1.33606,-0.84221 -0.76254,-4.23679 0.39369,-2.33023 1.29714,-5.88448 2.00766,-7.89833 0.886,-2.51118 1.39562,-11.62636 1.6221,-29.01321 0.36917,-28.3412 -0.42619,-33.28152 -6.63809,-41.23172 -3.28176,-4.20012 -10.19381,-7.78829 -15.03168,-7.80322 -4.83801,-0.0149 -11.30066,3.13209 -14.77284,7.19372 -4.00427,4.68405 -10.46499,19.73448 -11.68239,27.21447 -1.45656,8.94948 -3.21533,13.9367 -6.75299,19.14909 -1.81941,2.68071 -4.01091,7.40571 -4.87,10.5 -0.8591,3.09429 -2.24881,7.42599 -3.08826,9.62599 -1.66162,4.3547 -2.05157,20.95826 -0.85525,36.4154 0.46748,6.04021 0.12458,12.58587 -1.15693,22.0846 -2.38826,17.70208 -2.33152,28.50095 0.17075,32.5 3.33088,5.32331 5.76669,7.47144 11.44293,10.09146 8.61268,3.97541 20.193,6.0923 29.06498,5.31309 9.33616,-0.81998 21.51679,-4.46951 24.07223,-7.21245 2.34446,-2.51649 2.34179,-2.08596 0.0507,-8.1921 -1.17252,-3.12499 -2.14615,-9.31253 -2.59634,-16.5 -0.9652,-15.41 -2.56376,-24.10265 -7.43916,-40.45271 l -2.07322,-6.9527 2.57609,-2.68887 c 2.71046,-2.82911 11.66458,-5.90575 17.18779,-5.90575 5.17798,0 13.5348,3.71201 17.50098,7.77374 3.57232,3.6584 10.61909,17.87421 20.84013,42.04185 4.69878,11.11028 11.27441,22.29066 18.34079,31.18441 2.84046,3.575 6.59096,8.35465 8.33445,10.62144 2.02888,2.63785 4.25153,4.33775 6.17454,4.72236 2.02792,0.40558 6.82826,4.29379 14.7678,11.96171 6.46977,6.24844 14.23822,13.23992 17.26322,15.53663 3.025,2.2967 7.975,6.20384 11,8.68253 7.60238,6.22941 21.31381,15.56248 28.5,19.39934 8.98921,4.79952 12.54951,7.16713 17.40736,11.57599 15.08309,13.68901 18.4374,16.53436 23.28536,19.75226 6.45138,4.28218 21.30976,10.30437 31.74857,12.86789 12.73827,3.12821 13.18073,2.22121 1.68745,-3.45907 -9.94628,-4.91572 -16.62874,-12.09496 -16.62874,-17.86494 0,-7.59525 6.18125,-13.6747 14.73941,-14.49664 7.93858,-0.76244 7.97082,-0.87124 2.09466,-7.06929 -2.98795,-3.15161 -8.27879,-9.90244 -11.75744,-15.00183 -7.88416,-11.55749 -27.43719,-32.95809 -37.77546,-41.34489 -4.29064,-3.48073 -13.54014,-11.85346 -20.55445,-18.60605 -7.0143,-6.75259 -13.2018,-12.27744 -13.75,-12.27744 -1.52981,0 -1.18253,-1.71472 0.4762,-2.35124 0.81011,-0.31086 2.72261,0.47918 4.25,1.75565 1.52739,1.27647 5.47708,3.80754 8.77708,5.62459 3.3,1.81705 11.30934,6.49137 17.79854,10.38737 17.60037,10.56694 19.95983,11.75914 36.03193,18.2065 15.07149,6.04595 41.8717,22.77449 62.57004,39.05587 19.59833,15.41609 39.28256,26.32126 47.51086,26.32126 5.9379,0 5.89102,-1.51705 -0.18384,-5.94897 -6.28774,-4.58723 -19.04441,-18.47325 -19.82388,-21.57889 -0.99287,-3.95591 0.40524,-7.38493 3.87319,-9.49942 3.81592,-2.32667 8.64382,-2.50285 15.12603,-0.55199 6.26606,1.88581 6.91884,0.28902 2.43301,-5.95143 -1.83473,-2.55239 -4.25103,-6.14664 -5.36954,-7.98722 -3.15974,-5.19951 -5.44155,-7.39188 -12.65981,-12.16356 -3.68141,-2.43363 -10.88141,-8.22511 -16,-12.86996 -5.11859,-4.64486 -14.03153,-11.76686 -19.80653,-15.82668 -10.90149,-7.66373 -34.97099,-20.59895 -42.92761,-23.06979 -2.51481,-0.78095 -7.67595,-2.57465 -11.46919,-3.986 -3.79324,-1.41135 -7.73074,-2.56609 -8.75,-2.56609 -1.90032,0 -2.5714,-2.43809 -0.94736,-3.44181 1.6283,-1.00634 28.88816,9.26065 41.38364,15.58648 15.23693,7.71369 30.39774,18.08689 43.28089,29.61329 9.65702,8.64001 17.11393,14.24444 20.67963,15.5423 1.52689,0.55576 1.75,-0.0398 1.75,-4.67168 0,-2.91976 0.9,-8.82762 2,-13.12858 1.1,-4.30096 2,-8.41968 2,-9.15271 0,-1.86091 -13.18992,-15.98748 -20.97299,-22.46232 -19.12862,-15.91337 -29.02701,-27.98936 -29.02701,-35.41282 0,-3.73211 -8.57672,-11.15459 -19.08201,-16.51399 -3.8484,-1.96331 -4.78031,-3.30718 -3.03945,-4.38309 1.17335,-0.72518 6.06271,1.78663 13.8332,7.10651 3.51399,2.40578 6.8164,4.11005 7.33867,3.78726 0.52228,-0.32278 0.94959,-4.99377 0.94959,-10.37997 0,-8.52457 0.29463,-10.23324 2.27456,-13.19099 1.25101,-1.86883 3.27601,-3.84209 4.5,-4.38501 1.22399,-0.54292 2.22283,-1.44292 2.21965,-2 -0.003,-0.55708 -4.54388,-3.71287 -10.09043,-7.01287 -5.54656,-3.3 -11.73145,-7.39366 -13.74421,-9.09703 -2.01277,-1.70337 -7.21421,-5.64087 -11.55876,-8.75 -7.65665,-5.4794 -8.10187,-5.65426 -14.5,-5.69489 -4.29031,-0.0272 -7.67691,-0.6398 -9.67508,-1.75 -5.16127,-2.86763 -17.15557,-13.54374 -18.42411,-16.39927 -1.59119,-3.5818 0.0372,-8.51497 4.09104,-12.39386 2.74624,-2.62772 3.63361,-2.89282 9.00546,-2.69035 7.37473,0.27795 13.70543,3.69768 17.84111,9.63745 3.58824,5.15352 10.02669,11.39966 16.56077,16.06613 18.93939,13.52601 47.18111,31.57182 49.40994,31.57182 1.54898,0 1.46126,-0.30515 -2.23566,-7.77773 -5.55414,-11.22657 -8.55618,-15.33941 -18.05872,-24.74073 -10.59652,-10.48364 -18.49116,-16.28033 -31.37516,-23.03741 -5.20876,-2.73176 -12.07497,-7.4112 -15.6951,-10.69648 -10.29122,-9.33932 -21.28078,-24.38863 -20.085,-27.50478 0.77044,-2.00774 3.1954,0.0273 4.97798,4.17752 2.00745,4.67377 11.07253,15.44776 17.93654,21.31787 3.36885,2.88104 9.27518,6.87859 13.12518,8.88344 13.23344,6.89119 23.91238,14.74864 34.68806,25.52312 6.13471,6.13401 11.74376,12.74632 13.16609,15.52102 2.08654,4.07044 2.58034,4.51819 3.12567,2.83416 1.92975,-5.95924 3.93847,-8.43298 8.38882,-10.33082 7.5845,-3.23439 15.18746,-5.16918 20.31286,-5.16918 6.3095,0 6.26979,-1.08558 -0.45157,-12.34543 -6.09292,-10.20707 -13.39004,-17.87219 -21.51435,-22.59935 -3.14357,-1.82909 -7.51558,-4.50803 -9.71558,-5.95319 -2.2,-1.44517 -8.05,-4.35776 -13,-6.47242 -11.99364,-5.12375 -11.96279,-5.1121 -20,-7.55314 -11.32418,-3.43934 -19.82323,-6.37212 -22.5,-7.76409 -1.375,-0.71503 -3.06861,-1.30283 -3.76357,-1.30622 -0.69496,-0.003 -2.04496,-0.45136 -3,-0.9955 -2.40582,-1.37073 -17.74513,-6.66212 -29.73643,-10.25778 -10.18909,-3.05525 -15.05488,-4.26973 -31,-7.73749 -11.41168,-2.48181 -33.70795,-7.57224 -39.19362,-8.94823 -2.3065,-0.57855 -6.5815,-2.00795 -9.5,-3.17645 -2.91851,-1.1685 -7.90588,-2.74451 -11.08305,-3.50224 -3.17716,-0.75773 -10.19965,-3.40512 -15.60553,-5.88308 -5.40587,-2.47797 -10.90637,-4.50782 -12.22333,-4.51078 -1.31696,-0.003 -8.46947,-1.13634 -15.89447,-2.51862 -15.98126,-2.97514 -36.65107,-4.89167 -69.5,-6.4441 -13.2,-0.62383 -27.375,-1.54663 -31.5,-2.05066 -4.125,-0.50404 -12.50335,-1.00961 -18.61855,-1.12349 l -11.11856,-0.20706 -4.38144,3.5402 c -11.91959,9.631 -19.71233,13.70718 -39.38145,20.59939 -17.1912,6.02393 -28.66494,5.16651 -31.52493,-2.35583 -1.20755,-3.17611 -1.28803,-14.12299 -0.10918,-14.85156 0.47624,-0.29433 0.66272,-1.59795 0.41441,-2.89693 -0.28493,-1.49051 1.24015,-5.81718 4.13411,-11.72845 2.52207,-5.15166 4.58559,-10.07417 4.58559,-10.9389 0,-1.933985 12.16907,-13.929255 17.10623,-16.861925 5.70788,-3.39046 19.9431,-8.814131 25.14377,-9.579856 2.6125,-0.384653 4.75,-1.077776 4.75,-1.540272 0,-1.125894 5.65415,-3.041777 8.89922,-3.01546 1.43043,0.0116 5.75078,1.149728 9.60078,2.529172 9.48404,3.398102 19.59068,5.441466 34.5,6.975206 6.875,0.70724 14.525,1.75874 17,2.33666 6.07954,1.4196 35.61386,1.41939 56.7313,-3.9e-4 30.04327,-2.01989 50.5755,1.40066 82.47035,13.73909 l 8.70164,3.36621 21.29836,-0.37898 c 18.66737,-0.33216 21.97776,-0.63889 26.79835,-2.48301 3.025,-1.15722 7.38458,-2.10427 9.68795,-2.10455 6.6189,-7.9e-4 22.90463,-4.18853 29.45958,-7.57528 1.84386,-0.95267 6.77207,-4.07327 10.95158,-6.93467 4.17951,-2.861399 10.22067,-6.442739 13.4248,-7.958533 5.25792,-2.487398 6.49457,-2.69008 12.68902,-2.079694 3.77484,0.371963 8.29218,1.277078 10.03854,2.011366 2.7387,1.151535 3.32927,1.124361 4.29596,-0.197668 0.61642,-0.843005 3.10792,-1.8713 5.53667,-2.285099 2.42874,-0.413799 6.6659,-1.694129 9.4159,-2.845177 2.75,-1.151048 10.24922,-4.118462 16.66494,-6.594254 16.66914,-6.432528 28.81473,-12.466727 46.15039,-22.928541 3.74843,-2.262122 9.14843,-5.41067 12,-6.996771 6.89976,-3.837788 14.41709,-9.618934 21.00173,-16.151224 C 722.97892,6.7092204 733.21007,0.00419339 736.1959,6.3909737e-6 739.39801,-0.00449361 737.39958,2.3677604 731.14961,5.9902314 c -3.32811,1.928962 -8.46669,5.8480566 -11.41907,8.7090986 -10.07542,9.763709 -12.58257,11.456923 -42.09679,28.430211 -17.51222,10.07108 -22.63096,12.515206 -39.27118,18.751427 -7.7,2.885714 -15.575,5.959789 -17.5,6.831277 -1.925,0.871488 -5.95607,2.094307 -8.95792,2.717375 l -5.45793,1.132852 5.58536,6.075473 c 5.11572,5.56462 14.69233,20.28846 16.21434,24.929205 0.34819,1.06166 4.00631,5.98029 8.12915,10.93029 12.60662,15.13584 14.37552,17.55348 22.68164,31 15.95027,25.82136 19.80536,35.38964 19.80536,49.15655 0,7.28851 0.30425,9.34345 1.38337,9.34345 0.76085,0 1.61276,0.87719 1.89313,1.94932 0.49654,1.89878 1.41342,1.93507 35.36663,1.40008 27.20655,-0.42869 36.78773,-0.92843 43.65438,-2.27696 5.56778,-1.09344 9.01971,-1.36819 9.40277,-0.74838 1.17381,1.89927 -2.83773,3.43611 -11.96877,4.58527 -7.88391,0.99222 -19.96571,1.41827 -69.29864,2.44376 -7.85722,0.16333 -11.43622,1.9251 -19.50629,9.60197 -4.78519,4.55204 -6.93022,5.10852 -6.91888,1.79494 0.005,-1.55391 1.18347,-2.92117 3.80819,-4.41947 2.09027,-1.19321 5.07702,-4.0115 6.63723,-6.26288 2.83102,-4.08516 2.83562,-4.11812 2.27925,-16.33054 -0.58012,-12.73383 -1.10449,-14.73888 -6.99239,-26.73711 -5.95799,-12.14105 -23.80615,-39.46113 -32.18826,-49.27038 -4.97701,-5.8244 -10.61284,-13.90557 -13.9545,-20.009225 -6.10657,-11.15385 -10.70723,-17.26513 -17.16645,-22.80303 -3.41982,-2.932027 -5.49707,-3.800365 -11.43863,-4.781592 -7.09617,-1.171907 -7.3987,-1.13404 -13.40858,1.678323 -3.38173,1.582504 -10.40897,5.772679 -15.61608,9.311509 -5.20712,3.53882 -11.26748,6.97403 -13.46748,7.63379 -14.51893,4.35409 -18.06772,5.2406 -20.9787,5.2406 -1.79742,0 -6.81252,0.89309 -11.14467,1.98465 -4.33215,1.09155 -9.67663,1.99844 -11.87663,2.01531 -7.16721,0.05501 -7.25403,1.405885 -0.33912,5.277195 7.55169,4.22782 11.71164,8.25033 10.14864,9.81333 -0.75199,0.75199 -2.05301,0.20947 -4.43676,-1.85011 -3.3521,-2.89626 -9.79782,-6.51272 -17.28876,-9.70009 -2.3277,-0.99043 -7.8032,-1.85869 -13.5,-2.14072 -16.63603,-0.82361 -18.42494,-1.11786 -25.584,-4.208215 -16.58071,-7.1574 -47.95145,-14.16107 -63.5,-14.1767 -3.575,-0.004 -13.7,0.64174 -22.5,1.43408 -29.41888,2.64883 -79.46443,-1.76498 -100.42748,-8.85728 l -6.87873,-2.327239 -10.3469,2.011045 c -11.74903,2.283564 -24.00244,6.690654 -31.34689,11.274284 -6.39885,3.99349 -16.49843,14.859545 -16.50488,17.757465 -0.003,1.20615 -1.59259,5.2869 -3.53312,9.06834 -2.50145,4.87449 -3.46311,7.97902 -3.30446,10.66781 0.12308,2.08586 -0.36373,4.50036 -1.08179,5.36557 -1.79839,2.16694 -0.55012,9.852 1.97081,12.13342 2.59502,2.34846 13.01269,2.55125 18.47213,0.35957 2.18972,-0.87905 7.13131,-2.62694 10.98131,-3.8842 18.33093,-5.98614 34.46841,-16.18935 38.37778,-24.26504 1.16722,-2.41115 2.12222,-5.11529 2.12222,-6.00918 0,-0.89389 0.48921,-1.9276 1.08713,-2.29714 2.05062,-1.26735 2.89179,1.04631 1.80778,4.97229 -0.78874,2.85659 -0.76308,4.045 0.0988,4.5777 0.64029,0.39572 10.01613,1.04433 20.8352,1.44137 10.81908,0.39703 24.17105,1.12493 29.67105,1.61755 5.5,0.49262 19.45,1.35952 31,1.92644 21.93255,1.07654 29.69654,1.93346 45.5,5.02187 5.225,1.02111 12.2,2.13019 15.5,2.46464 5.56117,0.56361 11.9102,2.46687 15.5,4.64647 3.91353,2.37615 10.88358,5.08159 16.88729,6.55483 3.63699,0.89248 7.09756,1.99764 7.69016,2.45593 1.43363,1.1087 12.12466,4.26779 21.42255,6.33014 4.125,0.91497 11.325,2.5195 16,3.56563 4.675,1.04613 11.875,2.63132 16,3.52265 20.7274,4.47878 36.60332,9.39812 64.5,19.98607 7.7,2.92247 18.275,6.52785 23.5,8.01195 5.225,1.4841 11.75,3.73691 14.5,5.00624 13.36646,6.16961 16.56235,7.81606 23.8233,12.2732 4.30282,2.64128 10.02755,6.70102 12.72162,9.02164 8.02557,6.91306 18.95508,23.6206 18.95508,28.97593 0,2.73909 0.0322,2.75155 10.25,3.96483 16.56096,1.96649 20.08842,1.66758 33.85364,-2.86866 6.818,-2.24683 13.85243,-4.92786 15.63207,-5.95785 1.77965,-1.02999 5.88649,-2.42021 9.12632,-3.08939 4.9872,-1.03008 6.75724,-0.97015 11.5414,0.39083 6.13499,1.74525 6.23289,1.72079 21.09657,-5.2708 2.2,-1.03483 8.275,-3.4467 13.5,-5.35971 5.225,-1.913 13.325,-5.05493 18,-6.98206 4.675,-1.92712 13.45,-4.72578 19.5,-6.21924 6.05,-1.49345 15.53893,-4.01963 21.08651,-5.61371 5.54759,-1.59409 12.94167,-3.21662 16.4313,-3.60564 l 6.34482,-0.70729 3.30951,-5.5 c 5.86571,-9.74808 7.35983,-13.96225 7.77798,-21.93769 0.38178,-7.28192 2.98077,-16.58964 9.09235,-32.56231 1.26267,-3.3 2.6152,-7.72987 3.00562,-9.84415 0.39042,-2.11429 1.73945,-5.03929 2.99785,-6.5 2.26662,-2.63105 2.41325,-2.65565 15.70079,-2.6345 10.20363,0.0162 14.35078,0.41769 17.33306,1.67782 2.15614,0.91106 6.05775,2.42509 8.67025,3.36451 3.48246,1.25224 4.75,2.23403 4.75,3.67917 0,1.48745 -0.42941,1.7928 -1.75,1.24438 -13.12334,-5.44994 -17.83531,-6.48723 -29.46873,-6.48723 -13.60521,0 -13.64401,0.0255 -16.10568,10.57771 -0.77854,3.33731 -1.87232,6.93509 -2.43063,7.99507 -3.21474,6.10335 -8.24496,24.3152 -8.24496,29.85077 0,6.28311 -1.89921,12.65725 -5.53496,18.57645 -5.0379,8.20199 -5.03798,8.2026 -1.06786,7.86055 1.95631,-0.16854 4.09053,0.22716 4.74271,0.87934 1.90887,1.90887 -3.61773,3.48802 -12.04375,3.44133 -6.58325,-0.0365 -13.47268,1.25875 -25.09614,4.71817 -1.925,0.57293 -9.35,2.44582 -16.5,4.16199 -7.15,1.71617 -14.35,3.70167 -16,4.41222 -10.64105,4.58243 -20.88817,8.65299 -26.5,10.52686 -3.575,1.19374 -8.975,3.39756 -12,4.89737 -3.025,1.49982 -7.56139,3.73352 -10.08088,4.9638 l -4.58087,2.23685 -5.85503,-2.19064 c -5.2944,-1.98089 -6.33992,-2.07078 -10.91912,-0.93876 -2.78526,0.68854 -6.15448,1.93858 -7.48716,2.77785 -2.42194,1.52526 -15.14476,6.08181 -24.57694,8.802 -6.06255,1.7484 -16.39755,1.96606 -26.5,0.55809 -12.86134,-1.79247 -25.16135,-1.39312 -32.24602,1.04695 -9.2677,3.19194 -10.47726,4.25043 -11.84597,10.36648 -1.28122,5.72509 -0.38289,9.86057 3.00668,13.84137 2.2769,2.67403 26.71687,16.96212 35.84614,20.95636 16.8947,7.39177 22.94622,8.61895 48.73917,9.88377 26.4043,1.2948 31.71395,1.2891 34.19127,-0.0367 1.14171,-0.61103 5.39074,-1.62283 9.44229,-2.24845 4.05154,-0.62561 8.50382,-1.72261 9.89394,-2.43775 1.39013,-0.71515 7.66424,-2.01441 13.94248,-2.88724 9.01325,-1.25306 11.57611,-1.32623 12.18085,-0.34774 1.27566,2.06406 -0.2906,2.63828 -9.15711,3.35715 -4.67154,0.37876 -11.64372,1.69861 -15.49372,2.93301 -3.85,1.2344 -9.362,2.56135 -12.24888,2.94876 -2.88689,0.38742 -5.47324,1.06741 -5.74744,1.51108 -0.97483,1.5773 7.81628,5.09599 15.09924,6.04355 4.0684,0.52932 10.87323,1.41418 15.12185,1.96635 9.65418,1.25471 11.27523,1.76828 11.27523,3.57217 0,1.1612 -1.11761,1.31867 -5.75,0.81017 -3.1625,-0.34716 -7.775,-1.04214 -10.25,-1.54442 -2.475,-0.50227 -7.98667,-1.31658 -12.24815,-1.80957 -4.26148,-0.49299 -8.67101,-1.18925 -9.79896,-1.54725 -1.22474,-0.38872 -3.08116,0.0242 -4.60876,1.02512 -3.3672,2.20628 -5.54689,0.47634 -2.97733,-2.36299 1.62792,-1.79882 1.62399,-1.94224 -0.0736,-2.69155 -2.84031,-1.25367 -14.16381,-2.29908 -36.59072,-3.37816 -13.60366,-0.65454 -22.86594,-1.58104 -26.77725,-2.67849 -3.28883,-0.9228 -6.27987,-1.37764 -6.64676,-1.01076 -0.76677,0.76678 4.03981,4.88677 14.30015,12.25745 10.26159,7.37158 10.57519,7.49704 16.11039,6.44495 2.64606,-0.50295 10.66102,-1.45606 17.81102,-2.11804 7.15,-0.66197 15.85551,-1.52635 19.34557,-1.92083 4.96282,-0.56095 6.46061,-0.41743 6.87354,0.65863 0.78006,2.03282 0.34259,2.18981 -7.77767,2.7911 -11.58728,0.85802 -33.01544,3.48591 -37.44144,4.59171 -2.2,0.54966 -5.8,1.45469 -8,2.01119 -2.2,0.5565 -5.27981,2.22318 -6.84402,3.70372 l -2.84403,2.6919 -1.65597,-2.4005 c -3.94004,-5.71145 -17.0174,-18.43606 -23.07309,-22.4507 -21.26365,-14.0968 -28.4068,-18.51112 -36.9519,-22.83555 -10.3847,-5.25538 -13.54457,-5.72741 -19.63099,-2.93252 -7.60942,3.49426 -7.96003,4.40568 -8.319,21.62538 -0.47352,22.71465 -1.93491,20.45555 35.8985,55.49389 6.23568,5.775 12.48125,11.82937 13.87905,13.45416 12.01231,13.96299 21.64026,19.54826 39.04145,22.64835 9.40703,1.6759 13.86596,1.93908 24.5,1.44603 12.97795,-0.60172 15.4889,-0.96317 31.5,-4.53437 13.326,-2.9723 17,-3.30621 17,-1.54504 0,0.82102 -1.0125,1.72324 -2.25,2.00493 -32.34592,7.36285 -51.88725,9.04516 -70.3478,6.05625 -5.99621,-0.97084 -12.41966,-2.38732 -14.27432,-3.14773 -1.8547,-0.76044 -4.05443,-1.3826 -4.88832,-1.3826 -1.75639,0 -15.78252,-10.50936 -17.72232,-13.2788 -1.5947,-2.27677 -2.40264,-1.28795 -4.31316,5.2788 -2.50875,8.62292 -2.59216,14.32389 -0.30993,21.18202 3.40835,10.24208 7.33231,13.92881 20.60582,19.36005 8.24418,3.37335 18.67156,6.45793 21.8309,6.45793 1.798,0 3.6966,0.41741 4.2191,0.92759 1.63851,1.59985 24.20543,10.04387 31.23601,11.68779 3.6927,0.86344 11.40441,2.19113 17.13715,2.95042 9.85787,1.30564 13.32788,2.51649 11.74575,4.09863 -0.68976,0.68976 -13.6491,-0.70936 -25.05497,-2.70499 -6.73365,-1.17815 -15.05506,-3.853 -23.21955,-7.46373 -8.7405,-3.86546 -9.74694,-3.04399 -3.64439,2.9746 8.02579,7.91536 21.84735,16.14526 43.53376,25.92174 l 7.78376,3.50901 12.21624,-1.06225 c 8.3574,-0.7267 15.16275,-1.99731 21.54424,-4.02246 13.10911,-4.16015 18.60775,-7.61075 37.172,-23.3268 3.575,-3.02651 10.775,-8.81495 16,-12.86319 5.225,-4.04823 10.4,-8.37498 11.5,-9.61498 1.1,-1.24001 4.475,-3.9439 7.5,-6.00864 6.77584,-4.62493 10.60275,-9.14063 25.00258,-29.50274 6.22325,-8.8 13.62863,-18.925 16.4564,-22.5 2.82776,-3.575 6.16801,-8.1875 7.42277,-10.25 2.31175,-3.79995 3.5174,-4.53121 4.59526,-2.7872 0.75322,1.21873 -2.5727,6.49642 -10.11153,16.04535 -3.25312,4.12052 -9.27868,12.37587 -13.39012,18.34523 -14.712,21.36018 -20.28991,27.95448 -28.87346,34.13468 -4.45604,3.20838 -8.1019,6.16887 -8.1019,6.57887 0,0.41 -2.3625,2.43094 -5.25,4.49098 -5.96665,4.25679 -16.91411,13.20153 -26.63805,21.76488 -9.74729,8.58392 -21.18179,15.2669 -31.98628,18.69464 -5.17071,1.64041 -10.83163,2.98257 -12.57982,2.98257 -4.43744,0 -14.62138,1.86349 -17.17613,3.14294 -2.23992,1.12179 -6.88631,-0.72567 -27.25881,-10.83838 l -8.45189,-4.19543 -2.71495,2.28448 c -3.34458,2.81427 -13.23967,5.02462 -19.71038,4.40287 -2.65506,-0.25512 -7.45855,-1.66844 -10.67441,-3.14071 l -5.84703,-2.67686 -3.83116,4.14989 c -3.67681,3.9827 -4.01415,4.12481 -8.37336,3.52731 -2.49821,-0.34241 -5.88851,-1.31878 -7.534,-2.16969 -2.01767,-1.04338 -3.55865,-1.24945 -4.73276,-0.6329 -4.35447,2.28663 -9.70466,2.25712 -15.74566,-0.0869 -5.12452,-1.98837 -14.57128,-6.73366 -20.4385,-10.26667 -3.59726,-2.16612 -21.14111,-14.84808 -23.32716,-16.86255 -1.27573,-1.1756 -4.99929,-3.93299 -8.27458,-6.12754 -3.27529,-2.1945 -8.43007,-5.82633 -11.45507,-8.07069 -10.24201,-7.59892 -30.91104,-19.35327 -40.3319,-22.93649 -10.06814,-3.82942 -22.48362,-10.05094 -33.6681,-16.87142 -5.775,-3.52168 -10.69424,-6.22267 -10.93165,-6.00218 -0.76478,0.71027 6.21124,7.40484 14.50355,13.91838 4.43955,3.48722 11.86455,10.49059 16.5,15.56304 4.63546,5.07245 9.12703,9.93518 9.98127,10.80607 3.73809,3.8109 10.89278,13.11035 14.83819,19.28622 2.35512,3.68653 8.40552,10.72431 13.44534,15.63951 9.62157,9.38367 19.89537,22.00768 21.63566,26.58501 1.73655,4.56747 1.16114,7.99715 -2.08148,12.40644 -5.93192,8.06614 -13.67938,9.63262 -28.39088,5.74041 z m 23.02646,-5.38103 c -0.30789,-0.30789 -1.11479,-6.4e-4 -1.79313,0.68278 -0.98026,0.98762 -0.8654,1.10248 0.5598,0.5598 0.98622,-0.37553 1.54122,-0.93469 1.23333,-1.24258 z m -2.70051,-3.29652 c 3.31506,-2.43792 4.51866,-2.8555 5.61291,-1.94735 1.09702,0.91044 1.52244,0.74802 2.00251,-0.76453 0.90938,-2.8652 -0.84144,-6.5367 -7.05258,-14.78936 -6.05797,-8.04916 -8.37948,-9.85049 -11.44226,-8.8784 -1.08786,0.34527 -3.57798,0.0997 -5.53359,-0.5457 -3.12879,-1.0326 -4.07529,-0.89782 -7.88389,1.12264 -7.6236,4.04431 -9.18864,9.68911 -4.38812,15.82717 2.74825,3.51397 9.69511,8.08256 12.25955,8.06247 2.32921,-0.0183 7.53407,-2.96156 13.0637,-7.38742 2.86225,-2.29091 3.88219,-2.64388 4.83195,-1.67217 0.94421,0.96604 0.34112,1.97519 -2.79613,4.67877 -2.2,1.89589 -5.50746,4.18348 -7.3499,5.08352 l -3.34991,1.63645 2.34991,1.30321 c 3.51611,1.94998 5.04417,1.67687 9.67585,-1.7293 z m 100.48345,-25.92534 c 2.29277,-1.8035 2.54841,-2.63976 2.30261,-7.53225 -0.3758,-7.4798 -1.52502,-8.37213 -6.18761,-4.80443 -2.05963,1.57598 -6.22066,3.79531 -9.24673,4.93186 l -5.50194,2.06646 3.25188,2.31554 c 2.66176,1.89535 9.50077,4.69247 12.18753,4.98465 0.33833,0.0368 1.77574,-0.84603 3.19426,-1.96183 z m 37.9406,-2.4272 c 2.0625,-0.864 3.75,-1.95371 3.75,-2.42157 0,-0.46786 -1.94061,-1.11664 -4.31248,-1.44174 -2.37186,-0.3251 -7.73432,-1.96127 -11.91658,-3.63593 -4.18226,-1.67465 -8.04944,-3.04483 -8.59372,-3.04483 -2.09634,0 -8.38904,-10.32173 -9.03169,-14.81443 l -0.64663,-4.5205 -6.49945,-2.17656 c -3.5747,-1.1971 -8.86964,-3.1432 -11.76653,-4.32467 l -5.26708,-2.14812 0.64123,2.74214 c 0.71733,3.06757 0.45584,2.76658 9.39293,10.81182 6.11468,5.50448 13,14.94553 13,17.82541 0,1.98945 2.92065,4.15023 9.5,7.02835 4.94663,2.16389 7.05337,2.54277 12,2.15811 3.3,-0.25662 7.6875,-1.17348 9.75,-2.03748 z m -56.7,-6.37549 c 0.5225,-0.45728 2.84222,-1.36927 5.15493,-2.02664 4.45519,-1.26635 10.31424,-5.53556 10.26669,-7.48083 -0.0156,-0.63861 -1.70311,-3.03782 -3.75,-5.33157 -5.02952,-5.63609 -13.25313,-9.72149 -20.04558,-9.95842 -2.92818,-0.10214 -5.59068,-0.45243 -5.91667,-0.77842 -1.04437,-1.04437 -5.8184,-0.63367 -7.05937,0.6073 -2.35323,2.35323 -1.34853,6.89104 2.47507,11.1788 4.88826,5.48166 15.39002,14.6212 16.80045,14.6212 0.61846,0 1.55198,-0.37414 2.07448,-0.83142 z m 40.90838,-12.73665 c -9.26453,-9.40107 -12.309,-10.9572 -10.96566,-5.60492 1.36334,5.432 6.28091,10.56463 12.28805,12.82546 3.14558,1.18386 6.25641,2.19636 6.91297,2.25 0.65655,0.0536 -3.04936,-4.2081 -8.23536,-9.47054 z M 403.52359,412.79949 c 3.21144,-1.20887 7.81409,-3.4074 10.22812,-4.88563 l 4.38913,-2.68769 -2.75809,-2.36437 c -1.51695,-1.3004 -5.38679,-5.80194 -8.59963,-10.00342 -3.21284,-4.20149 -6.44887,-8.25149 -7.19117,-9 -4.12353,-4.15807 -16.17657,-25.33054 -18.32399,-32.18805 -0.67348,-2.1507 -3.21842,-7.7568 -12.34419,-27.19232 -5.41081,-11.52363 -10.45253,-16.76223 -17.59921,-18.28646 -7.65289,-1.63221 -18.54576,1.25466 -20.10941,5.32946 -0.29696,0.77388 0.60696,4.91016 2.00872,9.19174 3.69297,11.27994 5.75603,23.03993 6.5676,37.43712 0.56936,10.10039 1.1023,13.20305 2.64216,15.38227 1.06092,1.50141 2.37894,3.47374 2.92894,4.38296 0.55,0.90922 5.09323,5.9122 10.09607,11.11773 5.00283,5.20554 11.97783,12.51876 15.5,16.25161 4.1393,4.38691 7.81846,7.28885 10.40393,8.20611 6.07843,2.15648 15.36571,1.86687 22.16102,-0.69106 z M 198.0318,393.3795 c 7.50771,-1.91873 18.52941,-7.27378 21.30996,-10.35373 1.94774,-2.15748 1.94863,-2.20941 0.0559,-3.26862 -4.11487,-2.3028 -10.30724,-8.924 -13.06644,-13.97131 -2.66817,-4.88078 -2.93352,-6.32895 -3.44255,-18.7884 -0.30336,-7.425 -0.88615,-14.02409 -1.2951,-14.66465 -0.40895,-0.64056 -1.86594,-5.48451 -3.23775,-10.76433 -1.37182,-5.27983 -2.9286,-10.38073 -3.45953,-11.33535 -0.53092,-0.95462 -1.92779,-4.07881 -3.10416,-6.94265 -2.4234,-5.89971 -4.52358,-7.02444 -13.92957,-7.45977 -12.54216,-0.58049 -15.69884,-0.0366 -19.58377,3.37445 -5.92835,5.20515 -12.40012,17.78593 -11.01126,21.40526 0.32704,0.85225 -0.0803,2.51311 -0.90518,3.6908 -2.00949,2.86895 -1.88905,7.19254 0.41344,14.8409 1.05227,3.49544 2.23234,7.90574 2.62236,9.80068 0.39002,1.89493 3.59663,9.47935 7.12581,16.85426 7.29594,15.24631 13.37315,22.44645 22.5528,26.72005 6.1994,2.88614 10.30548,3.07296 18.95503,0.86241 z m 69.33077,-13.30332 c 2.36992,-1.40227 2.95008,-2.38454 2.7623,-4.67691 -0.13074,-1.59601 -0.52392,-6.10985 -0.87374,-10.03076 -0.40104,-4.49498 -0.13946,-9.66762 0.70798,-14 0.92861,-4.74738 1.35794,-15.83429 1.38906,-35.87107 0.0392,-25.23868 0.28027,-29.71335 1.8587,-34.5 3.91039,-11.8584 5.84766,-16.56566 8.01399,-19.47269 4.80325,-6.44557 6.14765,-12.10787 6.06096,-25.52731 -0.14698,-22.75293 -5.91429,-30.39833 -22.9486,-30.42168 -4.20461,-0.006 -5.77282,0.5612 -9.56316,3.45739 -9.72385,7.43001 -13.6855,14.69259 -21.80002,39.96429 -2.2075,6.875 -5.17281,15.875 -6.58956,20 -1.41675,4.125 -4.15759,13.575 -6.09074,21 -1.93316,7.425 -5.71846,20.475 -8.41178,29 -5.45427,17.26407 -7.08412,29.58345 -5.07386,38.35114 2.50794,10.93829 12.03375,20.19288 23.68155,23.00729 3.58395,0.86598 11.33923,1.43472 19.87692,1.45771 11.66135,0.0314 14.50114,-0.25884 17,-1.7374 z m 432.39734,-56.97253 3.39735,-1.80996 -10.28939,-7.89812 c -19.4451,-14.92605 -32.75364,-23.79489 -37.49048,-24.98377 -4.08255,-1.02465 -3.90468,2.31098 0.26455,4.96119 19.03024,12.09672 22.51233,14.70348 30.22063,22.62367 4.675,4.80351 8.95,8.7749 9.5,8.8253 0.55,0.0504 2.5288,-0.72283 4.39734,-1.71831 z m -63.15924,-42.79669 c -0.92977,-0.92976 -1.97126,-1.4097 -2.31443,-1.06653 -0.98418,0.98419 0.52669,2.75701 2.34963,2.75701 1.52648,0 1.52374,-0.13153 -0.0352,-1.69048 z m -6.215,-4.28399 c -0.98278,-1.08596 -2.67392,-2.25601 -3.75811,-2.60012 -1.08418,-0.3441 -3.61233,-1.75064 -5.61811,-3.12563 -2.00578,-1.37498 -4.54688,-2.89443 -5.64688,-3.37655 -2.45441,-1.07574 -25.72601,-16.60898 -34.99806,-23.36037 l -6.78044,-4.93715 -1.86075,2.29793 c -1.02341,1.26386 -1.86075,2.63828 -1.86075,3.05426 0,0.41598 1.9125,2.00765 4.25,3.53703 2.3375,1.52939 7.85,5.56384 12.25,8.96545 15.93722,12.32093 29.08527,19.51118 35.72148,19.53493 2.35319,0.008 4.95352,0.45153 5.77852,0.98469 0.825,0.53316 2.13224,0.97627 2.90499,0.98469 1.075,0.0117 0.98531,-0.44842 -0.38189,-1.95916 z m -62.7731,-35.62698 c 1.2375,-1.38054 2.25,-2.91996 2.25,-3.42093 0,-1.00736 -7.19806,-9.39446 -13.06879,-15.22762 -2.75565,-2.73802 -4.62267,-3.75 -6.91842,-3.75 -1.72935,0 -4.03369,-0.476 -5.12075,-1.05778 -1.65141,-0.88381 -2.54518,-0.48908 -5.43426,2.4 -3.90095,3.90095 -4.49032,7.67072 -1.62716,10.40778 2.38804,2.28286 12.04046,10.42312 14.11224,11.90139 4.26318,3.0419 12.54585,2.38543 15.80714,-1.25284 z m -13.95,-6.59855 c 0.93333,-0.93333 1.46667,-0.93333 2.4,0 0.93333,0.93333 0.66667,1.2 -1.2,1.2 -1.86667,0 -2.13333,-0.26667 -1.2,-1.2 z m -5.25729,-1.7309 c -0.31644,-0.512 -0.11799,-1.21356 0.44098,-1.55902 1.19337,-0.73755 3.01631,0.19857 3.01631,1.54894 0,1.2168 -2.70662,1.22469 -3.45729,0.0101 z m -6.04271,-8.0691 c -0.39915,-0.64585 -0.27574,-1.62426 0.27426,-2.17426 0.66667,-0.66667 1.24192,-0.60858 1.72574,0.17426 0.39915,0.64585 0.27574,1.62426 -0.27426,2.17426 -0.66667,0.66667 -1.24192,0.60858 -1.72574,-0.17426 z m -28.49341,215.25 c 0.0112,-2.98548 9.5328,-15.25 11.83934,-15.25 2.12049,0 1.18944,2.32934 -2.84213,7.11054 -2.1979,2.60659 -4.43677,5.89805 -4.97525,7.31435 -1.10423,2.90435 -4.03205,3.50499 -4.02196,0.82511 z m -6.00162,-10.5 c 0.003,-0.6875 1.09307,-2.6 2.42298,-4.25 2.04045,-2.53155 2.51998,-2.73935 3.07102,-1.33079 0.77708,1.98638 -2.14056,6.83079 -4.11398,6.83079 -0.76174,0 -1.38275,-0.5625 -1.38002,-1.25 z m 75.75361,-33.97425 c -0.58308,-1.74925 2.20206,-11.00502 3.82643,-12.71623 2.57931,-2.71721 2.79206,-0.008 0.54681,6.9633 -2.14581,6.66252 -3.48348,8.4222 -4.37324,5.75293 z m 10.24142,-7.19396 c 0,-3.52968 1.0044,-5.58179 2.73199,-5.58179 1.16684,0 1.37342,0.72293 0.89301,3.125 -0.34375,1.71875 -0.625,3.51875 -0.625,4 0,0.48125 -0.675,0.875 -1.5,0.875 -0.9198,0 -1.5,-0.93536 -1.5,-2.41821 z m 11.73144,-39.18369 c -1.14005,-1.14004 2.60647,-7.3981 4.42902,-7.3981 1.53433,0 1.64246,0.38815 0.75695,2.71723 -1.68831,4.44059 -3.65296,6.21389 -5.18597,4.68087 z M 500.55007,226.35161 c -0.37812,-0.37813 -0.6875,-1.75985 -0.6875,-3.0705 0,-1.31064 -0.68656,-3.71064 -1.52568,-5.33333 -1.29061,-2.49577 -2.12172,-2.95034 -5.39424,-2.95034 -2.8888,0 -4.65515,-0.73477 -6.97432,-2.90121 -2.86072,-2.67231 -3.10576,-3.41612 -3.10576,-9.42742 0,-5.87643 0.26509,-6.73473 2.66248,-8.62052 3.49184,-2.74668 6.94743,-3.54975 9.65121,-2.24292 1.80231,0.87111 1.87545,1.0686 0.41644,1.12439 -3.35981,0.12848 -9.73232,4.9457 -9.69686,7.33022 0.0406,2.72847 3.5182,7.1327 4.93879,6.25473 1.31959,-0.81555 1.34105,-6.20572 0.0279,-7.01727 -0.55,-0.33992 -1,-1.0632 -1,-1.60729 0,-1.31985 6.20838,-3.88196 7.4889,-3.09056 0.55479,0.34288 1.8887,0.64017 2.96426,0.66064 2.9878,0.0568 6.82534,6.36605 6.09694,10.02382 -0.32711,1.64263 -1.19778,3.58965 -1.93483,4.3267 -1.01301,1.013 -1.11561,2.39265 -0.42035,5.65248 1.34998,6.32964 -0.94419,13.45161 -3.50742,10.88838 z m 150.46111,-60.10417 c -0.50696,-0.9625 -2.58736,-5.8 -4.6231,-10.75 -2.03574,-4.95 -4.26127,-9.675 -4.94563,-10.5 -0.68436,-0.825 -2.27346,-3.975 -3.53133,-7 -1.25788,-3.025 -3.90795,-7.75 -5.88906,-10.5 -3.52457,-4.8925 -18.461,-23.33668 -22.89838,-28.275955 -1.23139,-1.37067 -3.84805,-5.36957 -5.81481,-8.88645 -2.36784,-4.23411 -4.90535,-7.23357 -7.5111,-8.87851 -3.76891,-2.37921 -5.31121,-5.49566 -2.6852,-5.42587 3.19425,0.0849 9.32312,5.98382 13.6305,13.11911 2.54072,4.20878 7.39541,10.958785 10.78819,15.000005 6.46683,7.70279 12.92757,15.79942 17.61018,22.06918 1.52838,2.04641 4.09224,6.54624 5.69747,9.99962 1.60522,3.45338 3.59492,7.40387 4.42155,8.77887 2.92845,4.87116 9.53764,21.29531 8.9512,22.24418 -0.79446,1.28547 -2.23553,0.83783 -3.20048,-0.99418 z m 278.85139,-30.2747 c -2.2075,-1.33493 -9.92826,-4.53963 -14.39148,-5.97355 -2.34956,-0.75486 -6.62816,-1.05443 -10.79828,-0.75606 -5.98883,0.4285 -6.86461,0.27888 -6.58939,-1.12576 0.26651,-1.36016 1.83773,-1.61411 9.79828,-1.58367 8.83998,0.0338 10.08418,0.30421 18.40569,4 8.94253,3.97161 11.88771,6.51782 7.40851,6.40493 -1.28333,-0.0323 -3.00833,-0.46699 -3.83333,-0.96589 z m -744,-23.00253 c -11.74542,-2.91436 -52.27238,-8.191 -73.5,-9.56975 -8.91467,-0.57902 -47.866996,1.48425 -71.000001,3.7608 -17.664614,1.7384 -45.5344259,-0.61113 -40.83713189,-3.44272 0.460422,-0.27755 7.13713199,-0.14936 14.83713189,0.28486 10.474302,0.59068 20.044054,0.33041 38,-1.03349 53.261711,-4.045655 70.597511,-3.490105 115.000001,3.6853 8.8,1.42208 18.7,2.86833 22,3.21391 4.38741,0.45945 6,1.03147 6,2.12832 0,1.79167 -5.24232,2.27735 -10.5,0.97277 z"
     style="fill:#000000" />
</svg>
